5460.735
5769.598
5790.663
6965.431
7067.218
7272.936
7383.981
7503.869
7514.652
7635.106
7723.98
7948.176
8006.157
8014.786
8103.69
8115.311
8264.522
8408.210
8424.647
8521.422
9122.967
9224.499
9657.786
