3200.0000 0.57069
3201.0000 0.56911
3202.0000 0.5665
3203.0000 0.56338
3204.0000 0.56182
3205.0000 0.55924
3206.0000 0.55821
3207.0000 0.55718
3208.0000 0.55718
3209.0000 0.55821
3210.0000 0.55924
3211.0000 0.56079
3212.0000 0.56338
3213.0000 0.56546
3214.0000 0.56546
3215.0000 0.56546
3216.0000 0.56286
3217.0000 0.56079
3218.0000 0.55924
3219.0000 0.55718
3220.0000 0.55718
3221.0000 0.55718
3222.0000 0.55821
3223.0000 0.55924
3224.0000 0.56079
3225.0000 0.56182
3226.0000 0.56286
3227.0000 0.56338
3228.0000 0.56546
3229.0000 0.56702
3230.0000 0.56807
3231.0000 0.56702
3232.0000 0.5665
3233.0000 0.56441
3234.0000 0.56441
3235.0000 0.56441
3236.0000 0.56338
3237.0000 0.56286
3238.0000 0.56182
3239.0000 0.55718
3240.0000 0.5531
3241.0000 0.54853
3242.0000 0.544
3243.0000 0.5405
3244.0000 0.53802
3245.0000 0.53555
3246.0000 0.53309
3247.0000 0.53113
3248.0000 0.52966
3249.0000 0.52966
3250.0000 0.52966
3251.0000 0.52869
3252.0000 0.52432
3253.0000 0.52048
3254.0000 0.51618
3255.0000 0.51192
3256.0000 0.50956
3257.0000 0.50816
3258.0000 0.50722
3259.0000 0.50629
3260.0000 0.50722
3261.0000 0.50956
3262.0000 0.50816
3263.0000 0.50629
3264.0000 0.50489
3265.0000 0.50396
3266.0000 0.50396
3267.0000 0.50489
3268.0000 0.50489
3269.0000 0.50722
3270.0000 0.50863
3271.0000 0.50863
3272.0000 0.50863
3273.0000 0.51051
3274.0000 0.51192
3275.0000 0.51192
3276.0000 0.51286
3277.0000 0.51051
3278.0000 0.50816
3279.0000 0.50722
3280.0000 0.50629
3281.0000 0.50536
3282.0000 0.50489
3283.0000 0.50396
3284.0000 0.50304
3285.0000 0.50304
3286.0000 0.50211
3287.0000 0.50211
3288.0000 0.50165
3289.0000 0.50165
3290.0000 0.50073
3291.0000 0.50073
3292.0000 0.49981
3293.0000 0.49981
3294.0000 0.49842
3295.0000 0.49751
3296.0000 0.49751
3297.0000 0.49659
3298.0000 0.49659
3299.0000 0.49659
3300.0000 0.49659
3301.0000 0.49522
3302.0000 0.4934
3303.0000 0.49204
3304.0000 0.49023
3305.0000 0.49023
3306.0000 0.48978
3307.0000 0.49113
3308.0000 0.49113
3309.0000 0.49113
3310.0000 0.49113
3311.0000 0.49023
3312.0000 0.48888
3313.0000 0.48888
3314.0000 0.48978
3315.0000 0.48978
3316.0000 0.49023
3317.0000 0.49113
3318.0000 0.49113
3319.0000 0.49113
3320.0000 0.48978
3321.0000 0.48798
3322.0000 0.48798
3323.0000 0.48663
3324.0000 0.48574
3325.0000 0.48484
3326.0000 0.4844
3327.0000 0.48261
3328.0000 0.48173
3329.0000 0.48128
3330.0000 0.48128
3331.0000 0.48173
3332.0000 0.48173
3333.0000 0.48173
3334.0000 0.48173
3335.0000 0.48261
3336.0000 0.48261
3337.0000 0.47951
3338.0000 0.47819
3339.0000 0.47819
3340.0000 0.47863
3341.0000 0.47951
3342.0000 0.47951
3343.0000 0.48128
3344.0000 0.48173
3345.0000 0.48261
3346.0000 0.4835
3347.0000 0.48173
3348.0000 0.47951
3349.0000 0.47731
3350.0000 0.47555
3351.0000 0.47424
3352.0000 0.47424
3353.0000 0.47337
3354.0000 0.47424
3355.0000 0.47512
3356.0000 0.47512
3357.0000 0.47512
3358.0000 0.47731
3359.0000 0.47951
3360.0000 0.48261
3361.0000 0.48484
3362.0000 0.48484
3363.0000 0.4835
3364.0000 0.48261
3365.0000 0.4804
3366.0000 0.47951
3367.0000 0.47951
3368.0000 0.47951
3369.0000 0.4804
3370.0000 0.4804
3371.0000 0.48128
3372.0000 0.48173
3373.0000 0.48261
3374.0000 0.48261
3375.0000 0.48484
3376.0000 0.48663
3377.0000 0.48663
3378.0000 0.48574
3379.0000 0.4844
3380.0000 0.48261
3381.0000 0.48173
3382.0000 0.48173
3383.0000 0.48128
3384.0000 0.4804
3385.0000 0.4804
3386.0000 0.47951
3387.0000 0.47863
3388.0000 0.47819
3389.0000 0.47819
3390.0000 0.47731
3391.0000 0.47731
3392.0000 0.47643
3393.0000 0.47512
3394.0000 0.47337
3395.0000 0.47033
3396.0000 0.46903
3397.0000 0.4673
3398.0000 0.4673
3399.0000 0.4673
3400.0000 0.46816
3401.0000 0.46903
3402.0000 0.46903
3403.0000 0.47033
3404.0000 0.47119
3405.0000 0.47119
3406.0000 0.47206
3407.0000 0.47206
3408.0000 0.47206
3409.0000 0.47206
3410.0000 0.4725
3411.0000 0.47206
3412.0000 0.47119
3413.0000 0.47033
3414.0000 0.46816
3415.0000 0.4673
3416.0000 0.46516
3417.0000 0.46387
3418.0000 0.46217
3419.0000 0.46132
3420.0000 0.46217
3421.0000 0.46302
3422.0000 0.46217
3423.0000 0.46132
3424.0000 0.4592
3425.0000 0.45709
3426.0000 0.45583
3427.0000 0.45499
3428.0000 0.45499
3429.0000 0.45499
3430.0000 0.45499
3431.0000 0.45499
3432.0000 0.45499
3433.0000 0.45499
3434.0000 0.45415
3435.0000 0.45415
3436.0000 0.45331
3437.0000 0.45331
3438.0000 0.45415
3439.0000 0.45499
3440.0000 0.45499
3441.0000 0.45625
3442.0000 0.45625
3443.0000 0.45709
3444.0000 0.45793
3445.0000 0.45793
3446.0000 0.45793
3447.0000 0.45709
3448.0000 0.45583
3449.0000 0.45415
3450.0000 0.45415
3451.0000 0.45415
3452.0000 0.45415
3453.0000 0.45415
3454.0000 0.45415
3455.0000 0.45415
3456.0000 0.45415
3457.0000 0.45415
3458.0000 0.45583
3459.0000 0.45709
3460.0000 0.45835
3461.0000 0.46004
3462.0000 0.46089
3463.0000 0.4592
3464.0000 0.45793
3465.0000 0.45625
3466.0000 0.45415
3467.0000 0.45331
3468.0000 0.4529
3469.0000 0.45331
3470.0000 0.45331
3471.0000 0.4529
3472.0000 0.45206
3473.0000 0.4529
3474.0000 0.45331
3475.0000 0.45331
3476.0000 0.45123
3477.0000 0.44999
3478.0000 0.44916
3479.0000 0.44751
3480.0000 0.44627
3481.0000 0.44545
3482.0000 0.44545
3483.0000 0.44545
3484.0000 0.44422
3485.0000 0.44422
3486.0000 0.44259
3487.0000 0.44137
3488.0000 0.44137
3489.0000 0.44137
3490.0000 0.44055
3491.0000 0.43974
3492.0000 0.43853
3493.0000 0.43772
3494.0000 0.43772
3495.0000 0.43652
3496.0000 0.43571
3497.0000 0.43371
3498.0000 0.43211
3499.0000 0.43092
3500.0000 0.43013
3501.0000 0.42934
3502.0000 0.42934
3503.0000 0.42934
3504.0000 0.42934
3505.0000 0.43013
3506.0000 0.43092
3507.0000 0.43172
3508.0000 0.43291
3509.0000 0.43371
3510.0000 0.43411
3511.0000 0.43491
3512.0000 0.43652
3513.0000 0.43772
3514.0000 0.43772
3515.0000 0.43772
3516.0000 0.43853
3517.0000 0.43853
3518.0000 0.43853
3519.0000 0.43853
3520.0000 0.43853
3521.0000 0.43853
3522.0000 0.43772
3523.0000 0.43772
3524.0000 0.43772
3525.0000 0.43772
3526.0000 0.43772
3527.0000 0.43652
3528.0000 0.43571
3529.0000 0.43491
3530.0000 0.43411
3531.0000 0.43371
3532.0000 0.43291
3533.0000 0.43211
3534.0000 0.43172
3535.0000 0.43013
3536.0000 0.42894
3537.0000 0.42737
3538.0000 0.42737
3539.0000 0.42619
3540.0000 0.42462
3541.0000 0.42345
3542.0000 0.42345
3543.0000 0.42345
3544.0000 0.42345
3545.0000 0.42345
3546.0000 0.42345
3547.0000 0.42267
3548.0000 0.42267
3549.0000 0.42189
3550.0000 0.42189
3551.0000 0.42189
3552.0000 0.42189
3553.0000 0.42189
3554.0000 0.42267
3555.0000 0.42345
3556.0000 0.42462
3557.0000 0.42462
3558.0000 0.42462
3559.0000 0.42462
3560.0000 0.42384
3561.0000 0.42384
3562.0000 0.42462
3563.0000 0.42462
3564.0000 0.42462
3565.0000 0.4254
3566.0000 0.4254
3567.0000 0.42658
3568.0000 0.42658
3569.0000 0.42658
3570.0000 0.4254
3571.0000 0.42384
3572.0000 0.42462
3573.0000 0.42462
3574.0000 0.42462
3575.0000 0.42462
3576.0000 0.42345
3577.0000 0.42267
3578.0000 0.42189
3579.0000 0.42073
3580.0000 0.42073
3581.0000 0.42073
3582.0000 0.42073
3583.0000 0.42073
3584.0000 0.42073
3585.0000 0.42111
3586.0000 0.42111
3587.0000 0.42073
3588.0000 0.41995
3589.0000 0.41918
3590.0000 0.41879
3591.0000 0.41879
3592.0000 0.41879
3593.0000 0.41802
3594.0000 0.41725
3595.0000 0.41649
3596.0000 0.4161
3597.0000 0.41534
3598.0000 0.41457
3599.0000 0.41343
3600.0000 0.41343
3601.0000 0.41267
3602.0000 0.41343
3603.0000 0.41343
3604.0000 0.41343
3605.0000 0.41381
3606.0000 0.41457
3607.0000 0.41534
3608.0000 0.4161
3609.0000 0.41534
3610.0000 0.41534
3611.0000 0.41457
3612.0000 0.41343
3613.0000 0.41267
3614.0000 0.41191
3615.0000 0.41115
3616.0000 0.41077
3617.0000 0.41115
3618.0000 0.41191
3619.0000 0.41115
3620.0000 0.41077
3621.0000 0.41001
3622.0000 0.40926
3623.0000 0.40813
3624.0000 0.40738
3625.0000 0.40663
3626.0000 0.40663
3627.0000 0.40663
3628.0000 0.40663
3629.0000 0.40738
3630.0000 0.40738
3631.0000 0.40663
3632.0000 0.40663
3633.0000 0.40626
3634.0000 0.40551
3635.0000 0.40476
3636.0000 0.40402
3637.0000 0.40476
3638.0000 0.40476
3639.0000 0.40476
3640.0000 0.40476
3641.0000 0.40551
3642.0000 0.40551
3643.0000 0.40551
3644.0000 0.40626
3645.0000 0.40626
3646.0000 0.40663
3647.0000 0.40663
3648.0000 0.40738
3649.0000 0.40663
3650.0000 0.40626
3651.0000 0.40476
3652.0000 0.4029
3653.0000 0.40142
3654.0000 0.40031
3655.0000 0.39958
3656.0000 0.39847
3657.0000 0.39847
3658.0000 0.39774
3659.0000 0.39774
3660.0000 0.39701
3661.0000 0.39591
3662.0000 0.39446
3663.0000 0.39337
3664.0000 0.39337
3665.0000 0.39409
3666.0000 0.39446
3667.0000 0.39446
3668.0000 0.39446
3669.0000 0.39446
3670.0000 0.39446
3671.0000 0.39446
3672.0000 0.39446
3673.0000 0.39446
3674.0000 0.39446
3675.0000 0.39518
3676.0000 0.39591
3677.0000 0.39701
3678.0000 0.39701
3679.0000 0.39701
3680.0000 0.39774
3681.0000 0.39847
3682.0000 0.39847
3683.0000 0.39884
3684.0000 0.39847
3685.0000 0.39847
3686.0000 0.39774
3687.0000 0.39628
3688.0000 0.39591
3689.0000 0.39446
3690.0000 0.39264
3691.0000 0.39084
3692.0000 0.3894
3693.0000 0.38904
3694.0000 0.38833
3695.0000 0.38904
3696.0000 0.38904
3697.0000 0.38833
3698.0000 0.38761
3699.0000 0.38654
3700.0000 0.38583
3701.0000 0.3869
3702.0000 0.38761
3703.0000 0.38761
3704.0000 0.38761
3705.0000 0.3869
3706.0000 0.38583
3707.0000 0.38512
3708.0000 0.38512
3709.0000 0.38477
3710.0000 0.38406
3711.0000 0.38335
3712.0000 0.38335
3713.0000 0.38265
3714.0000 0.38335
3715.0000 0.38335
3716.0000 0.38406
3717.0000 0.38406
3718.0000 0.38406
3719.0000 0.38406
3720.0000 0.38406
3721.0000 0.38406
3722.0000 0.38406
3723.0000 0.38512
3724.0000 0.38583
3725.0000 0.38583
3726.0000 0.38583
3727.0000 0.38583
3728.0000 0.38654
3729.0000 0.38654
3730.0000 0.38654
3731.0000 0.38654
3732.0000 0.38654
3733.0000 0.38654
3734.0000 0.3869
3735.0000 0.3869
3736.0000 0.38654
3737.0000 0.38583
3738.0000 0.38512
3739.0000 0.38477
3740.0000 0.38512
3741.0000 0.38583
3742.0000 0.38512
3743.0000 0.38512
3744.0000 0.38512
3745.0000 0.38512
3746.0000 0.38512
3747.0000 0.38512
3748.0000 0.38477
3749.0000 0.38477
3750.0000 0.38406
3751.0000 0.38406
3752.0000 0.38335
3753.0000 0.38335
3754.0000 0.38335
3755.0000 0.38406
3756.0000 0.38477
3757.0000 0.38477
3758.0000 0.38477
3759.0000 0.38477
3760.0000 0.38406
3761.0000 0.38406
3762.0000 0.38335
3763.0000 0.38265
3764.0000 0.38265
3765.0000 0.3823
3766.0000 0.3823
3767.0000 0.38159
3768.0000 0.38159
3769.0000 0.38089
3770.0000 0.38089
3771.0000 0.38089
3772.0000 0.3823
3773.0000 0.38335
3774.0000 0.38477
3775.0000 0.38583
3776.0000 0.38654
3777.0000 0.38654
3778.0000 0.38654
3779.0000 0.38583
3780.0000 0.38477
3781.0000 0.38335
3782.0000 0.3823
3783.0000 0.38159
3784.0000 0.38159
3785.0000 0.38089
3786.0000 0.37984
3787.0000 0.3774
3788.0000 0.37532
3789.0000 0.37359
3790.0000 0.37188
3791.0000 0.37017
3792.0000 0.36711
3793.0000 0.36475
3794.0000 0.36308
3795.0000 0.36241
3796.0000 0.36308
3797.0000 0.36375
3798.0000 0.36543
3799.0000 0.36711
3800.0000 0.36881
3801.0000 0.37119
3802.0000 0.37325
3803.0000 0.37532
3804.0000 0.3774
3805.0000 0.38019
3806.0000 0.38159
3807.0000 0.38335
3808.0000 0.38477
3809.0000 0.38654
3810.0000 0.38833
3811.0000 0.38904
3812.0000 0.39084
3813.0000 0.39012
3814.0000 0.39012
3815.0000 0.38904
3816.0000 0.38761
3817.0000 0.38654
3818.0000 0.38406
3819.0000 0.38265
3820.0000 0.3823
3821.0000 0.38089
3822.0000 0.37984
3823.0000 0.37844
3824.0000 0.37601
3825.0000 0.37359
3826.0000 0.36949
3827.0000 0.3661
3828.0000 0.36375
3829.0000 0.36208
3830.0000 0.36008
3831.0000 0.35843
3832.0000 0.35678
3833.0000 0.35514
3834.0000 0.35449
3835.0000 0.35449
3836.0000 0.35514
3837.0000 0.35744
3838.0000 0.35909
3839.0000 0.36208
3840.0000 0.36475
3841.0000 0.36779
3842.0000 0.37119
3843.0000 0.37428
3844.0000 0.37844
3845.0000 0.3823
3846.0000 0.38583
3847.0000 0.38904
3848.0000 0.39264
3849.0000 0.39591
3850.0000 0.39847
3851.0000 0.40105
3852.0000 0.4029
3853.0000 0.40551
3854.0000 0.40663
3855.0000 0.40813
3856.0000 0.40926
3857.0000 0.41077
3858.0000 0.41115
3859.0000 0.41115
3860.0000 0.41077
3861.0000 0.41001
3862.0000 0.40926
3863.0000 0.40813
3864.0000 0.40813
3865.0000 0.40738
3866.0000 0.40626
3867.0000 0.40551
3868.0000 0.40551
3869.0000 0.40476
3870.0000 0.40476
3871.0000 0.40364
3872.0000 0.40142
3873.0000 0.39958
3874.0000 0.39591
3875.0000 0.39264
3876.0000 0.38904
3877.0000 0.38512
3878.0000 0.38159
3879.0000 0.3774
3880.0000 0.37256
3881.0000 0.36779
3882.0000 0.36308
3883.0000 0.35843
3884.0000 0.35383
3885.0000 0.3493
3886.0000 0.3461
3887.0000 0.34387
3888.0000 0.34229
3889.0000 0.34324
3890.0000 0.34387
3891.0000 0.34674
3892.0000 0.3493
3893.0000 0.35286
3894.0000 0.35678
3895.0000 0.36074
3896.0000 0.36543
3897.0000 0.36949
3898.0000 0.37428
3899.0000 0.37914
3900.0000 0.38335
3901.0000 0.3869
3902.0000 0.39156
3903.0000 0.39518
3904.0000 0.39847
3905.0000 0.40105
3906.0000 0.40364
3907.0000 0.40626
3908.0000 0.40926
3909.0000 0.41267
3910.0000 0.41534
3911.0000 0.41725
3912.0000 0.41879
3913.0000 0.41879
3914.0000 0.41918
3915.0000 0.41995
3916.0000 0.42073
3917.0000 0.42189
3918.0000 0.42267
3919.0000 0.42267
3920.0000 0.42345
3921.0000 0.42345
3922.0000 0.42345
3923.0000 0.42345
3924.0000 0.42267
3925.0000 0.42111
3926.0000 0.42073
3927.0000 0.41918
3928.0000 0.41918
3929.0000 0.41879
3930.0000 0.41802
3931.0000 0.41725
3932.0000 0.41725
3933.0000 0.41725
3934.0000 0.41725
3935.0000 0.41802
3936.0000 0.41802
3937.0000 0.41802
3938.0000 0.41802
3939.0000 0.41802
3940.0000 0.41802
3941.0000 0.41802
3942.0000 0.41802
3943.0000 0.41725
3944.0000 0.41649
3945.0000 0.41534
3946.0000 0.41381
3947.0000 0.41267
3948.0000 0.41077
3949.0000 0.40813
3950.0000 0.40626
3951.0000 0.40402
3952.0000 0.40105
3953.0000 0.39774
3954.0000 0.39446
3955.0000 0.39156
3956.0000 0.38833
3957.0000 0.38406
3958.0000 0.37914
3959.0000 0.37428
3960.0000 0.36847
3961.0000 0.36241
3962.0000 0.35744
3963.0000 0.35286
3964.0000 0.3493
3965.0000 0.34674
3966.0000 0.34166
3967.0000 0.33419
3968.0000 0.32719
3969.0000 0.323
3970.0000 0.31945
3971.0000 0.31857
3972.0000 0.31798
3973.0000 0.32063
3974.0000 0.323
3975.0000 0.32719
3976.0000 0.33144
3977.0000 0.33636
3978.0000 0.34104
3979.0000 0.3461
3980.0000 0.35156
3981.0000 0.35678
3982.0000 0.36074
3983.0000 0.36543
3984.0000 0.36949
3985.0000 0.37359
3986.0000 0.3774
3987.0000 0.38089
3988.0000 0.38406
3989.0000 0.3869
3990.0000 0.39012
3991.0000 0.39264
3992.0000 0.39518
3993.0000 0.39774
3994.0000 0.40031
3995.0000 0.40142
3996.0000 0.4029
3997.0000 0.40364
3998.0000 0.40402
3999.0000 0.40402
4000.0000 0.40476
4001.0000 0.40551
4002.0000 0.40626
4003.0000 0.40663
4004.0000 0.40738
4005.0000 0.40813
4006.0000 0.40738
4007.0000 0.40738
4008.0000 0.40663
4009.0000 0.40626
4010.0000 0.40551
4011.0000 0.40402
4012.0000 0.40402
4013.0000 0.40364
4014.0000 0.4029
4015.0000 0.40216
4016.0000 0.40105
4017.0000 0.40031
4018.0000 0.39884
4019.0000 0.39847
4020.0000 0.39701
4021.0000 0.39446
4022.0000 0.39264
4023.0000 0.39012
4024.0000 0.38833
4025.0000 0.3869
4026.0000 0.38512
4027.0000 0.38512
4028.0000 0.38512
4029.0000 0.38654
4030.0000 0.38833
4031.0000 0.39012
4032.0000 0.39264
4033.0000 0.39446
4034.0000 0.39591
4035.0000 0.39701
4036.0000 0.39847
4037.0000 0.39958
4038.0000 0.39958
4039.0000 0.40031
4040.0000 0.40031
4041.0000 0.40031
4042.0000 0.40031
4043.0000 0.40031
4044.0000 0.40105
4045.0000 0.40142
4046.0000 0.40216
4047.0000 0.40216
4048.0000 0.4029
4049.0000 0.40216
4050.0000 0.40216
4051.0000 0.40216
4052.0000 0.40216
4053.0000 0.40142
4054.0000 0.40105
4055.0000 0.40031
4056.0000 0.40031
4057.0000 0.40031
4058.0000 0.40031
4059.0000 0.40031
4060.0000 0.40105
4061.0000 0.40105
4062.0000 0.40105
4063.0000 0.40031
4064.0000 0.39958
4065.0000 0.39884
4066.0000 0.39774
4067.0000 0.39701
4068.0000 0.39701
4069.0000 0.39628
4070.0000 0.39591
4071.0000 0.39518
4072.0000 0.39446
4073.0000 0.39337
4074.0000 0.39264
4075.0000 0.39156
4076.0000 0.39012
4077.0000 0.38904
4078.0000 0.38761
4079.0000 0.38654
4080.0000 0.38512
4081.0000 0.38265
4082.0000 0.38089
4083.0000 0.37844
4084.0000 0.37601
4085.0000 0.37325
4086.0000 0.36949
4087.0000 0.3661
4088.0000 0.36241
4089.0000 0.35909
4090.0000 0.35449
4091.0000 0.35059
4092.0000 0.34546
4093.0000 0.34072
4094.0000 0.33512
4095.0000 0.32931
4096.0000 0.32359
4097.0000 0.31798
4098.0000 0.31333
4099.0000 0.30846
4100.0000 0.30451
4101.0000 0.30199
4102.0000 0.30005
4103.0000 0.30061
4104.0000 0.30116
4105.0000 0.30395
4106.0000 0.30733
4107.0000 0.31189
4108.0000 0.31739
4109.0000 0.32211
4110.0000 0.32779
4111.0000 0.33297
4112.0000 0.33853
4113.0000 0.34387
4114.0000 0.34834
4115.0000 0.35286
4116.0000 0.35612
4117.0000 0.36008
4118.0000 0.36241
4119.0000 0.36475
4120.0000 0.36711
4121.0000 0.36881
4122.0000 0.37119
4123.0000 0.37256
4124.0000 0.37428
4125.0000 0.37497
4126.0000 0.37601
4127.0000 0.3767
4128.0000 0.37775
4129.0000 0.37775
4130.0000 0.37844
4131.0000 0.37844
4132.0000 0.37844
4133.0000 0.37844
4134.0000 0.37914
4135.0000 0.37914
4136.0000 0.37844
4137.0000 0.37844
4138.0000 0.37844
4139.0000 0.37844
4140.0000 0.37775
4141.0000 0.3774
4142.0000 0.3774
4143.0000 0.3767
4144.0000 0.3767
4145.0000 0.3767
4146.0000 0.3767
4147.0000 0.3767
4148.0000 0.3774
4149.0000 0.3774
4150.0000 0.3774
4151.0000 0.3774
4152.0000 0.3767
4153.0000 0.3774
4154.0000 0.3774
4155.0000 0.3767
4156.0000 0.3767
4157.0000 0.3767
4158.0000 0.3774
4159.0000 0.3774
4160.0000 0.3774
4161.0000 0.3767
4162.0000 0.3767
4163.0000 0.37601
4164.0000 0.37532
4165.0000 0.37532
4166.0000 0.37532
4167.0000 0.37532
4168.0000 0.37532
4169.0000 0.37532
4170.0000 0.37497
4171.0000 0.37497
4172.0000 0.37497
4173.0000 0.37428
4174.0000 0.37428
4175.0000 0.37428
4176.0000 0.37428
4177.0000 0.37428
4178.0000 0.37428
4179.0000 0.37428
4180.0000 0.37428
4181.0000 0.37428
4182.0000 0.37428
4183.0000 0.37428
4184.0000 0.37497
4185.0000 0.37497
4186.0000 0.37497
4187.0000 0.37497
4188.0000 0.37497
4189.0000 0.37497
4190.0000 0.37497
4191.0000 0.37497
4192.0000 0.37497
4193.0000 0.37497
4194.0000 0.37497
4195.0000 0.37428
4196.0000 0.37497
4197.0000 0.37497
4198.0000 0.37497
4199.0000 0.37497
4200.0000 0.37497
4201.0000 0.37497
4202.0000 0.37497
4203.0000 0.37428
4204.0000 0.37359
4205.0000 0.37359
4206.0000 0.37325
4207.0000 0.37325
4208.0000 0.37256
4209.0000 0.37256
4210.0000 0.37256
4211.0000 0.37256
4212.0000 0.37256
4213.0000 0.37256
4214.0000 0.37256
4215.0000 0.37188
4216.0000 0.37119
4217.0000 0.37085
4218.0000 0.37119
4219.0000 0.37119
4220.0000 0.37188
4221.0000 0.37256
4222.0000 0.37256
4223.0000 0.37256
4224.0000 0.37256
4225.0000 0.37256
4226.0000 0.37256
4227.0000 0.37256
4228.0000 0.37188
4229.0000 0.37188
4230.0000 0.37119
4231.0000 0.37017
4232.0000 0.36949
4233.0000 0.36881
4234.0000 0.36847
4235.0000 0.36847
4236.0000 0.36779
4237.0000 0.36779
4238.0000 0.36711
4239.0000 0.36711
4240.0000 0.36711
4241.0000 0.36644
4242.0000 0.36644
4243.0000 0.36644
4244.0000 0.36711
4245.0000 0.36711
4246.0000 0.36711
4247.0000 0.36711
4248.0000 0.36644
4249.0000 0.36644
4250.0000 0.3661
4251.0000 0.3661
4252.0000 0.36543
4253.0000 0.36475
4254.0000 0.36408
4255.0000 0.36375
4256.0000 0.36308
4257.0000 0.36308
4258.0000 0.36241
4259.0000 0.36241
4260.0000 0.36241
4261.0000 0.36241
4262.0000 0.36241
4263.0000 0.36241
4264.0000 0.36308
4265.0000 0.36308
4266.0000 0.36308
4267.0000 0.36241
4268.0000 0.36241
4269.0000 0.36241
4270.0000 0.36241
4271.0000 0.36208
4272.0000 0.36208
4273.0000 0.36208
4274.0000 0.36208
4275.0000 0.36208
4276.0000 0.36141
4277.0000 0.36141
4278.0000 0.36074
4279.0000 0.36074
4280.0000 0.36008
4281.0000 0.36008
4282.0000 0.35975
4283.0000 0.35975
4284.0000 0.35975
4285.0000 0.35909
4286.0000 0.35909
4287.0000 0.35909
4288.0000 0.35909
4289.0000 0.35909
4290.0000 0.35909
4291.0000 0.35843
4292.0000 0.35843
4293.0000 0.35843
4294.0000 0.35843
4295.0000 0.35777
4296.0000 0.35744
4297.0000 0.35678
4298.0000 0.35612
4299.0000 0.35547
4300.0000 0.35514
4301.0000 0.35514
4302.0000 0.35514
4303.0000 0.35514
4304.0000 0.35514
4305.0000 0.35449
4306.0000 0.35383
4307.0000 0.35383
4308.0000 0.35383
4309.0000 0.35318
4310.0000 0.35318
4311.0000 0.35286
4312.0000 0.35286
4313.0000 0.35221
4314.0000 0.35156
4315.0000 0.35124
4316.0000 0.34995
4317.0000 0.34898
4318.0000 0.3477
4319.0000 0.3461
4320.0000 0.34483
4321.0000 0.34387
4322.0000 0.34166
4323.0000 0.33947
4324.0000 0.33636
4325.0000 0.33358
4326.0000 0.33083
4327.0000 0.32779
4328.0000 0.32419
4329.0000 0.32004
4330.0000 0.31594
4331.0000 0.31132
4332.0000 0.30591
4333.0000 0.30061
4334.0000 0.29485
4335.0000 0.2892
4336.0000 0.28392
4337.0000 0.27977
4338.0000 0.27542
4339.0000 0.27265
4340.0000 0.27064
4341.0000 0.26965
4342.0000 0.27015
4343.0000 0.27139
4344.0000 0.27441
4345.0000 0.27797
4346.0000 0.28236
4347.0000 0.28708
4348.0000 0.29161
4349.0000 0.29648
4350.0000 0.30116
4351.0000 0.30563
4352.0000 0.30931
4353.0000 0.31333
4354.0000 0.31739
4355.0000 0.32092
4356.0000 0.32419
4357.0000 0.32719
4358.0000 0.32991
4359.0000 0.33144
4360.0000 0.33358
4361.0000 0.33512
4362.0000 0.33636
4363.0000 0.33791
4364.0000 0.33947
4365.0000 0.34072
4366.0000 0.34166
4367.0000 0.34229
4368.0000 0.34324
4369.0000 0.34387
4370.0000 0.34451
4371.0000 0.34483
4372.0000 0.34546
4373.0000 0.34546
4374.0000 0.3461
4375.0000 0.3461
4376.0000 0.34674
4377.0000 0.34674
4378.0000 0.34674
4379.0000 0.3461
4380.0000 0.3461
4381.0000 0.34546
4382.0000 0.34483
4383.0000 0.34451
4384.0000 0.34451
4385.0000 0.34387
4386.0000 0.34324
4387.0000 0.34229
4388.0000 0.34166
4389.0000 0.34166
4390.0000 0.34166
4391.0000 0.34166
4392.0000 0.34229
4393.0000 0.34229
4394.0000 0.34293
4395.0000 0.34324
4396.0000 0.34324
4397.0000 0.34387
4398.0000 0.34451
4399.0000 0.34451
4400.0000 0.34451
4401.0000 0.34483
4402.0000 0.34483
4403.0000 0.34483
4404.0000 0.34483
4405.0000 0.34546
4406.0000 0.34546
4407.0000 0.34483
4408.0000 0.34451
4409.0000 0.34451
4410.0000 0.34451
4411.0000 0.34451
4412.0000 0.34387
4413.0000 0.34387
4414.0000 0.34387
4415.0000 0.34387
4416.0000 0.34387
4417.0000 0.34387
4418.0000 0.34324
4419.0000 0.34324
4420.0000 0.34293
4421.0000 0.34229
4422.0000 0.34229
4423.0000 0.34229
4424.0000 0.34229
4425.0000 0.34229
4426.0000 0.34166
4427.0000 0.34166
4428.0000 0.34166
4429.0000 0.34104
4430.0000 0.34104
4431.0000 0.34104
4432.0000 0.34072
4433.0000 0.34009
4434.0000 0.34009
4435.0000 0.33947
4436.0000 0.33947
4437.0000 0.33947
4438.0000 0.33947
4439.0000 0.33947
4440.0000 0.33947
4441.0000 0.33947
4442.0000 0.33947
4443.0000 0.33947
4444.0000 0.34009
4445.0000 0.34009
4446.0000 0.33947
4447.0000 0.33947
4448.0000 0.33947
4449.0000 0.33884
4450.0000 0.33884
4451.0000 0.33884
4452.0000 0.33884
4453.0000 0.33884
4454.0000 0.33884
4455.0000 0.33853
4456.0000 0.33791
4457.0000 0.33729
4458.0000 0.33667
4459.0000 0.33636
4460.0000 0.33574
4461.0000 0.33419
4462.0000 0.33297
4463.0000 0.33144
4464.0000 0.32931
4465.0000 0.32719
4466.0000 0.32509
4467.0000 0.3227
4468.0000 0.32004
4469.0000 0.31798
4470.0000 0.31594
4471.0000 0.31448
4472.0000 0.31304
4473.0000 0.31189
4474.0000 0.31304
4475.0000 0.31333
4476.0000 0.31536
4477.0000 0.31681
4478.0000 0.31945
4479.0000 0.32151
4480.0000 0.32359
4481.0000 0.32569
4482.0000 0.32719
4483.0000 0.3284
4484.0000 0.3287
4485.0000 0.32931
4486.0000 0.32991
4487.0000 0.32991
4488.0000 0.32991
4489.0000 0.32991
4490.0000 0.33052
4491.0000 0.33052
4492.0000 0.33052
4493.0000 0.33083
4494.0000 0.33083
4495.0000 0.33144
4496.0000 0.33144
4497.0000 0.33083
4498.0000 0.33083
4499.0000 0.33083
4500.0000 0.33083
4501.0000 0.33083
4502.0000 0.33083
4503.0000 0.33052
4504.0000 0.32991
4505.0000 0.32931
4506.0000 0.32931
4507.0000 0.32931
4508.0000 0.32931
4509.0000 0.32931
4510.0000 0.3287
4511.0000 0.3287
4512.0000 0.3287
4513.0000 0.3284
4514.0000 0.3284
4515.0000 0.3284
4516.0000 0.3287
4517.0000 0.3287
4518.0000 0.3287
4519.0000 0.3287
4520.0000 0.3287
4521.0000 0.3287
4522.0000 0.32931
4523.0000 0.32931
4524.0000 0.32931
4525.0000 0.32931
4526.0000 0.32931
4527.0000 0.32991
4528.0000 0.32991
4529.0000 0.32991
4530.0000 0.32991
4531.0000 0.32991
4532.0000 0.32931
4533.0000 0.32931
4534.0000 0.32931
4535.0000 0.3284
4536.0000 0.3284
4537.0000 0.3284
4538.0000 0.32779
4539.0000 0.32779
4540.0000 0.3284
4541.0000 0.32779
4542.0000 0.32779
4543.0000 0.32779
4544.0000 0.32779
4545.0000 0.32779
4546.0000 0.32779
4547.0000 0.3284
4548.0000 0.3284
4549.0000 0.3284
4550.0000 0.3287
4551.0000 0.3287
4552.0000 0.3284
4553.0000 0.3284
4554.0000 0.3284
4555.0000 0.3284
4556.0000 0.3284
4557.0000 0.32779
4558.0000 0.32779
4559.0000 0.32719
4560.0000 0.32659
4561.0000 0.32629
4562.0000 0.32629
4563.0000 0.32629
4564.0000 0.32569
4565.0000 0.32569
4566.0000 0.32569
4567.0000 0.32569
4568.0000 0.32509
4569.0000 0.32509
4570.0000 0.32509
4571.0000 0.32509
4572.0000 0.32509
4573.0000 0.32449
4574.0000 0.32419
4575.0000 0.32419
4576.0000 0.32419
4577.0000 0.32419
4578.0000 0.32419
4579.0000 0.32359
4580.0000 0.32419
4581.0000 0.32419
4582.0000 0.32419
4583.0000 0.32419
4584.0000 0.32419
4585.0000 0.32419
4586.0000 0.32359
4587.0000 0.32359
4588.0000 0.323
4589.0000 0.323
4590.0000 0.323
4591.0000 0.3227
4592.0000 0.32211
4593.0000 0.32211
4594.0000 0.32211
4595.0000 0.32211
4596.0000 0.32211
4597.0000 0.32151
4598.0000 0.32092
4599.0000 0.32092
4600.0000 0.32004
4601.0000 0.32004
4602.0000 0.31945
4603.0000 0.31945
4604.0000 0.31945
4605.0000 0.31945
4606.0000 0.31886
4607.0000 0.31886
4608.0000 0.31857
4609.0000 0.31798
4610.0000 0.31798
4611.0000 0.31739
4612.0000 0.31739
4613.0000 0.31739
4614.0000 0.31739
4615.0000 0.31739
4616.0000 0.31739
4617.0000 0.31739
4618.0000 0.31739
4619.0000 0.31681
4620.0000 0.31681
4621.0000 0.31739
4622.0000 0.31798
4623.0000 0.31798
4624.0000 0.31798
4625.0000 0.31798
4626.0000 0.31798
4627.0000 0.31739
4628.0000 0.31681
4629.0000 0.31652
4630.0000 0.31652
4631.0000 0.31594
4632.0000 0.31594
4633.0000 0.31536
4634.0000 0.31536
4635.0000 0.31477
4636.0000 0.31536
4637.0000 0.31536
4638.0000 0.31536
4639.0000 0.31536
4640.0000 0.31477
4641.0000 0.31448
4642.0000 0.31448
4643.0000 0.31448
4644.0000 0.31448
4645.0000 0.31448
4646.0000 0.31477
4647.0000 0.31448
4648.0000 0.31391
4649.0000 0.31391
4650.0000 0.31448
4651.0000 0.31448
4652.0000 0.31448
4653.0000 0.31391
4654.0000 0.31448
4655.0000 0.31448
4656.0000 0.31448
4657.0000 0.31448
4658.0000 0.31448
4659.0000 0.31448
4660.0000 0.31448
4661.0000 0.31391
4662.0000 0.31391
4663.0000 0.31333
4664.0000 0.31391
4665.0000 0.31391
4666.0000 0.31448
4667.0000 0.31448
4668.0000 0.31448
4669.0000 0.31448
4670.0000 0.31391
4671.0000 0.31448
4672.0000 0.31448
4673.0000 0.31448
4674.0000 0.31391
4675.0000 0.31391
4676.0000 0.31333
4677.0000 0.31246
4678.0000 0.31189
4679.0000 0.31132
4680.0000 0.31103
4681.0000 0.30988
4682.0000 0.30931
4683.0000 0.30903
4684.0000 0.30846
4685.0000 0.30846
4686.0000 0.30846
4687.0000 0.30846
4688.0000 0.30846
4689.0000 0.30903
4690.0000 0.30931
4691.0000 0.30988
4692.0000 0.31046
4693.0000 0.31046
4694.0000 0.31132
4695.0000 0.31189
4696.0000 0.31304
4697.0000 0.30988
4698.0000 0.30988
4699.0000 0.30988
4700.0000 0.30988
4702.0000 0.30988
4704.0000 0.30988
4706.0000 0.30931
4708.0000 0.30903
4710.0000 0.30846
4712.0000 0.30789
4714.0000 0.30733
4716.0000 0.30704
4718.0000 0.30704
4720.0000 0.30704
4722.0000 0.30648
4724.0000 0.30648
4726.0000 0.30648
4728.0000 0.30648
4730.0000 0.30704
4732.0000 0.30704
4734.0000 0.30704
4736.0000 0.30704
4738.0000 0.30704
4740.0000 0.30704
4742.0000 0.30648
4744.0000 0.30648
4746.0000 0.30591
4748.0000 0.30591
4750.0000 0.30563
4752.0000 0.30507
4754.0000 0.30507
4756.0000 0.30451
4758.0000 0.30395
4760.0000 0.30367
4762.0000 0.30311
4764.0000 0.30255
4766.0000 0.30199
4768.0000 0.30199
4770.0000 0.30199
4772.0000 0.30172
4774.0000 0.30172
4776.0000 0.30172
4778.0000 0.30116
4780.0000 0.30116
4782.0000 0.30116
4784.0000 0.30116
4786.0000 0.30061
4788.0000 0.30005
4790.0000 0.29978
4792.0000 0.29978
4794.0000 0.29923
4796.0000 0.29923
4798.0000 0.29923
4800.0000 0.29867
4802.0000 0.29867
4804.0000 0.29813
4806.0000 0.29785
4808.0000 0.2973
4810.0000 0.2973
4812.0000 0.29676
4814.0000 0.29594
4816.0000 0.29539
4818.0000 0.29485
4820.0000 0.29404
4822.0000 0.29349
4824.0000 0.29295
4826.0000 0.29268
4828.0000 0.29215
4830.0000 0.29107
4832.0000 0.2908
4834.0000 0.28973
4836.0000 0.28893
4838.0000 0.28787
4840.0000 0.28655
4842.0000 0.28471
4844.0000 0.28288
4846.0000 0.28054
4848.0000 0.27797
4850.0000 0.27542
4852.0000 0.27265
4854.0000 0.26965
4856.0000 0.26669
4858.0000 0.26424
4860.0000 0.26158
4862.0000 0.25918
4864.0000 0.25823
4866.0000 0.25704
4868.0000 0.25657
4870.0000 0.25823
4872.0000 0.2599
4874.0000 0.26206
4876.0000 0.26571
4878.0000 0.26965
4880.0000 0.27315
4882.0000 0.27619
4884.0000 0.279
4886.0000 0.28106
4888.0000 0.2821
4890.0000 0.2834
4892.0000 0.28418
4894.0000 0.28418
4896.0000 0.28471
4898.0000 0.28471
4900.0000 0.28471
4902.0000 0.28471
4904.0000 0.28471
4906.0000 0.28471
4908.0000 0.28471
4910.0000 0.28471
4912.0000 0.28418
4914.0000 0.28392
4916.0000 0.2834
4918.0000 0.2834
4920.0000 0.28288
4922.0000 0.28236
4924.0000 0.2821
4926.0000 0.2821
4928.0000 0.28158
4930.0000 0.2821
4932.0000 0.2821
4934.0000 0.2821
4936.0000 0.28236
4938.0000 0.28288
4940.0000 0.28288
4942.0000 0.2834
4944.0000 0.2834
4946.0000 0.2834
4948.0000 0.28392
4950.0000 0.28392
4952.0000 0.28392
4954.0000 0.28418
4956.0000 0.28418
4958.0000 0.28418
4960.0000 0.28418
4962.0000 0.28418
4964.0000 0.28392
4966.0000 0.28392
4968.0000 0.28392
4970.0000 0.2834
4972.0000 0.2834
4974.0000 0.2834
4976.0000 0.2834
4978.0000 0.28288
4980.0000 0.28288
4982.0000 0.28288
4984.0000 0.28236
4986.0000 0.2821
4988.0000 0.2821
4990.0000 0.28158
4992.0000 0.28106
4994.0000 0.28106
4996.0000 0.28054
4998.0000 0.28028
5000.0000 0.28028
5002.0000 0.27977
5004.0000 0.27977
5006.0000 0.27925
5008.0000 0.27925
5010.0000 0.279
5012.0000 0.27848
5014.0000 0.27848
5016.0000 0.27797
5018.0000 0.27746
5020.0000 0.27746
5022.0000 0.27746
5024.0000 0.2772
5026.0000 0.2772
5028.0000 0.2772
5030.0000 0.27746
5032.0000 0.27746
5034.0000 0.27746
5036.0000 0.27746
5038.0000 0.27746
5040.0000 0.27746
5042.0000 0.2772
5044.0000 0.27669
5046.0000 0.27619
5048.0000 0.27568
5050.0000 0.27542
5052.0000 0.27492
5054.0000 0.27492
5056.0000 0.27441
5058.0000 0.27441
5060.0000 0.27391
5062.0000 0.27391
5064.0000 0.27391
5066.0000 0.27391
5068.0000 0.27391
5070.0000 0.27365
5072.0000 0.27365
5074.0000 0.27365
5076.0000 0.27315
5078.0000 0.27315
5080.0000 0.27315
5082.0000 0.27265
5084.0000 0.27265
5086.0000 0.27265
5088.0000 0.27265
5090.0000 0.2724
5092.0000 0.2724
5094.0000 0.27189
5096.0000 0.27189
5098.0000 0.27139
5100.0000 0.27139
5102.0000 0.27089
5104.0000 0.27089
5106.0000 0.27064
5108.0000 0.27015
5110.0000 0.27015
5112.0000 0.27015
5114.0000 0.26965
5116.0000 0.26915
5118.0000 0.26915
5120.0000 0.2689
5122.0000 0.26841
5124.0000 0.26841
5126.0000 0.26841
5128.0000 0.26792
5130.0000 0.26792
5132.0000 0.26792
5134.0000 0.26792
5136.0000 0.26792
5138.0000 0.26742
5140.0000 0.26742
5142.0000 0.26742
5144.0000 0.26742
5146.0000 0.26718
5148.0000 0.26718
5150.0000 0.26693
5152.0000 0.26669
5154.0000 0.26669
5156.0000 0.26644
5158.0000 0.26644
5160.0000 0.26619
5162.0000 0.26619
5164.0000 0.26595
5166.0000 0.26595
5168.0000 0.26571
5170.0000 0.26546
5172.0000 0.26546
5174.0000 0.26522
5176.0000 0.26522
5178.0000 0.26497
5180.0000 0.26473
5182.0000 0.26473
5184.0000 0.26448
5186.0000 0.26424
5188.0000 0.26424
5190.0000 0.264
5192.0000 0.26375
5194.0000 0.26375
5196.0000 0.26351
5198.0000 0.26327
5200.0000 0.26303
5202.0000 0.26303
5204.0000 0.26278
5206.0000 0.26254
5208.0000 0.2623
5210.0000 0.2623
5212.0000 0.26206
5214.0000 0.26206
5216.0000 0.26158
5218.0000 0.2611
5220.0000 0.26085
5222.0000 0.26085
5224.0000 0.26038
5226.0000 0.26038
5228.0000 0.26038
5230.0000 0.26038
5232.0000 0.26038
5234.0000 0.2599
5236.0000 0.2599
5238.0000 0.25942
5240.0000 0.25918
5242.0000 0.2587
5244.0000 0.25823
5246.0000 0.25823
5248.0000 0.25775
5250.0000 0.25751
5252.0000 0.25751
5254.0000 0.25704
5256.0000 0.25704
5258.0000 0.25704
5260.0000 0.25704
5262.0000 0.25704
5264.0000 0.25704
5266.0000 0.25657
5268.0000 0.25657
5270.0000 0.25657
5272.0000 0.25657
5274.0000 0.25633
5276.0000 0.25586
5278.0000 0.25586
5280.0000 0.25539
5282.0000 0.25492
5284.0000 0.25492
5286.0000 0.25421
5288.0000 0.25421
5290.0000 0.25375
5292.0000 0.25375
5294.0000 0.25328
5296.0000 0.25305
5298.0000 0.25305
5300.0000 0.25305
5302.0000 0.25258
5304.0000 0.25258
5306.0000 0.25258
5308.0000 0.25211
5310.0000 0.25211
5312.0000 0.25211
5314.0000 0.25165
5316.0000 0.25165
5318.0000 0.25142
5320.0000 0.25142
5322.0000 0.25142
5324.0000 0.25142
5326.0000 0.25096
5328.0000 0.25096
5330.0000 0.2505
5332.0000 0.2505
5334.0000 0.25003
5336.0000 0.2498
5338.0000 0.2498
5340.0000 0.2498
5342.0000 0.24934
5344.0000 0.24934
5346.0000 0.24888
5348.0000 0.24888
5350.0000 0.24866
5352.0000 0.2482
5354.0000 0.2482
5356.0000 0.2482
5358.0000 0.2482
5360.0000 0.2482
5362.0000 0.24774
5364.0000 0.24774
5366.0000 0.24774
5368.0000 0.24774
5370.0000 0.24774
5372.0000 0.24729
5374.0000 0.24729
5376.0000 0.24729
5378.0000 0.24706
5380.0000 0.2466
5382.0000 0.2466
5384.0000 0.24615
5386.0000 0.24615
5388.0000 0.24615
5390.0000 0.24615
5392.0000 0.2457
5394.0000 0.2457
5396.0000 0.24547
5398.0000 0.24547
5400.0000 0.24547
5402.0000 0.24502
5404.0000 0.24502
5406.0000 0.24502
5408.0000 0.24457
5410.0000 0.24457
5412.0000 0.24457
5414.0000 0.24412
5416.0000 0.24389
5418.0000 0.24389
5420.0000 0.24344
5422.0000 0.24344
5424.0000 0.24344
5426.0000 0.243
5428.0000 0.243
5430.0000 0.24277
5432.0000 0.24233
5434.0000 0.24233
5436.0000 0.24233
5438.0000 0.24188
5440.0000 0.24188
5442.0000 0.24143
5444.0000 0.24143
5446.0000 0.24143
5448.0000 0.24121
5450.0000 0.24121
5452.0000 0.24077
5454.0000 0.24077
5456.0000 0.24077
5458.0000 0.24033
5460.0000 0.24033
5462.0000 0.24033
5464.0000 0.23988
5466.0000 0.23988
5468.0000 0.23966
5470.0000 0.23922
5472.0000 0.23922
5474.0000 0.23878
5476.0000 0.23878
5478.0000 0.23834
5480.0000 0.23834
5482.0000 0.23812
5484.0000 0.23812
5486.0000 0.23768
5488.0000 0.23768
5490.0000 0.23768
5492.0000 0.23725
5494.0000 0.23725
5496.0000 0.23725
5498.0000 0.23681
5500.0000 0.23659
5502.0000 0.23659
5504.0000 0.23659
5506.0000 0.23659
5508.0000 0.23616
5510.0000 0.23616
5512.0000 0.23616
5514.0000 0.23616
5516.0000 0.23572
5518.0000 0.23572
5520.0000 0.23572
5522.0000 0.2355
5524.0000 0.2355
5526.0000 0.23507
5528.0000 0.23507
5530.0000 0.23507
5532.0000 0.23507
5534.0000 0.23464
5536.0000 0.23464
5538.0000 0.23421
5540.0000 0.23421
5542.0000 0.23399
5544.0000 0.23356
5546.0000 0.23356
5548.0000 0.23313
5550.0000 0.23313
5552.0000 0.23313
5554.0000 0.2327
5556.0000 0.23249
5558.0000 0.23249
5560.0000 0.23206
5562.0000 0.23206
5564.0000 0.23206
5566.0000 0.23206
5568.0000 0.23206
5570.0000 0.23206
5572.0000 0.23163
5574.0000 0.23163
5576.0000 0.23163
5578.0000 0.23121
5580.0000 0.23099
5582.0000 0.23099
5584.0000 0.23099
5586.0000 0.23099
5588.0000 0.23057
5590.0000 0.23057
5592.0000 0.23057
5594.0000 0.23057
5596.0000 0.23057
5598.0000 0.23057
5600.0000 0.23057
5602.0000 0.23057
5604.0000 0.23014
5606.0000 0.22972
5608.0000 0.22951
5610.0000 0.22951
5612.0000 0.22909
5614.0000 0.22866
5616.0000 0.22866
5618.0000 0.22845
5620.0000 0.22845
5622.0000 0.22803
5624.0000 0.22803
5626.0000 0.22803
5628.0000 0.22803
5630.0000 0.22761
5632.0000 0.22761
5634.0000 0.2272
5636.0000 0.2272
5638.0000 0.2272
5640.0000 0.22657
5642.0000 0.22657
5644.0000 0.22615
5646.0000 0.22615
5648.0000 0.22574
5650.0000 0.22553
5652.0000 0.22553
5654.0000 0.22553
5656.0000 0.22511
5658.0000 0.22511
5660.0000 0.22511
5662.0000 0.2247
5664.0000 0.2247
5666.0000 0.2247
5668.0000 0.2247
5670.0000 0.22428
5672.0000 0.22408
5674.0000 0.22408
5676.0000 0.22367
5678.0000 0.22367
5680.0000 0.22325
5682.0000 0.22325
5684.0000 0.22284
5686.0000 0.22284
5688.0000 0.22264
5690.0000 0.22264
5692.0000 0.22264
5694.0000 0.22264
5696.0000 0.22264
5698.0000 0.22264
5700.0000 0.22264
5702.0000 0.22264
5704.0000 0.22223
5706.0000 0.22223
5708.0000 0.22223
5710.0000 0.22223
5712.0000 0.22182
5714.0000 0.22182
5716.0000 0.22182
5718.0000 0.22161
5720.0000 0.22161
5722.0000 0.22121
5724.0000 0.22121
5726.0000 0.22121
5728.0000 0.2208
5730.0000 0.2208
5732.0000 0.2208
5734.0000 0.2208
5736.0000 0.22039
5738.0000 0.22039
5740.0000 0.22039
5742.0000 0.22019
5744.0000 0.21979
5746.0000 0.21979
5748.0000 0.21979
5750.0000 0.21938
5752.0000 0.21938
5754.0000 0.21938
5756.0000 0.21898
5758.0000 0.21878
5760.0000 0.21878
5762.0000 0.21878
5764.0000 0.21878
5766.0000 0.21878
5768.0000 0.21878
5770.0000 0.21837
5772.0000 0.21837
5774.0000 0.21837
5776.0000 0.21837
5778.0000 0.21837
5780.0000 0.21797
5782.0000 0.21797
5784.0000 0.21797
5786.0000 0.21797
5788.0000 0.21797
5790.0000 0.21797
5792.0000 0.21757
5794.0000 0.21757
5796.0000 0.21737
5798.0000 0.21737
5800.0000 0.21697
5802.0000 0.21697
5804.0000 0.21657
5806.0000 0.21657
5808.0000 0.21637
5810.0000 0.21597
5812.0000 0.21597
5814.0000 0.21597
5816.0000 0.21558
5818.0000 0.21558
5820.0000 0.21558
5822.0000 0.21518
5824.0000 0.21518
5826.0000 0.21498
5828.0000 0.21458
5830.0000 0.21419
5832.0000 0.21419
5834.0000 0.2138
5836.0000 0.2138
5838.0000 0.2138
5840.0000 0.2136
5842.0000 0.21321
5844.0000 0.21321
5846.0000 0.21321
5848.0000 0.21321
5850.0000 0.21281
5852.0000 0.21281
5854.0000 0.21242
5856.0000 0.21223
5858.0000 0.21223
5860.0000 0.21184
5862.0000 0.21145
5864.0000 0.21106
5866.0000 0.21086
5868.0000 0.21047
5870.0000 0.20989
5872.0000 0.20912
5874.0000 0.20874
5876.0000 0.20816
5878.0000 0.2074
5880.0000 0.2074
5882.0000 0.2074
5884.0000 0.2074
5886.0000 0.20778
5888.0000 0.20855
5890.0000 0.20874
5892.0000 0.20951
5894.0000 0.20989
5896.0000 0.21009
5898.0000 0.21047
5900.0000 0.21086
5902.0000 0.21145
5904.0000 0.21106
5906.0000 0.21086
5908.0000 0.21047
5910.0000 0.21009
5912.0000 0.21009
5914.0000 0.20951
5916.0000 0.20951
5918.0000 0.20951
5920.0000 0.20951
5922.0000 0.20912
5924.0000 0.20912
5926.0000 0.20912
5928.0000 0.20874
5930.0000 0.20874
5932.0000 0.20855
5934.0000 0.20816
5936.0000 0.20816
5938.0000 0.20778
5940.0000 0.20778
5942.0000 0.2074
5944.0000 0.2074
5946.0000 0.20721
5948.0000 0.20721
5950.0000 0.20721
5952.0000 0.20721
5954.0000 0.20682
5956.0000 0.20682
5958.0000 0.20682
5960.0000 0.20682
5962.0000 0.20682
5964.0000 0.20682
5966.0000 0.20682
5968.0000 0.20682
5970.0000 0.20682
5972.0000 0.20644
5974.0000 0.20606
5976.0000 0.20606
5978.0000 0.20587
5980.0000 0.20587
5982.0000 0.20549
5984.0000 0.20549
5986.0000 0.20549
5988.0000 0.20549
5990.0000 0.20549
5992.0000 0.20512
5994.0000 0.20512
5996.0000 0.20512
5998.0000 0.20512
6000.0000 0.20512
6002.0000 0.20474
6004.0000 0.20474
6006.0000 0.20455
6008.0000 0.20455
6010.0000 0.20417
6012.0000 0.20417
6014.0000 0.20417
6016.0000 0.20417
6018.0000 0.2038
6020.0000 0.2038
6022.0000 0.2038
6024.0000 0.20361
6026.0000 0.20361
6028.0000 0.20324
6030.0000 0.20324
6032.0000 0.20324
6034.0000 0.20286
6036.0000 0.20286
6038.0000 0.20286
6040.0000 0.20249
6042.0000 0.20249
6044.0000 0.20249
6046.0000 0.2023
6048.0000 0.20193
6050.0000 0.20193
6052.0000 0.20193
6054.0000 0.20156
6056.0000 0.20156
6058.0000 0.20156
6060.0000 0.20156
6062.0000 0.20119
6064.0000 0.201
6066.0000 0.201
6068.0000 0.20063
6070.0000 0.20063
6072.0000 0.20026
6074.0000 0.20026
6076.0000 0.20026
6078.0000 0.20026
6080.0000 0.20026
6082.0000 0.20026
6084.0000 0.20026
6086.0000 0.20026
6088.0000 0.20026
6090.0000 0.20026
6092.0000 0.19989
6094.0000 0.19971
6096.0000 0.19971
6098.0000 0.19934
6100.0000 0.19898
6102.0000 0.19898
6104.0000 0.19843
6106.0000 0.19843
6108.0000 0.19806
6110.0000 0.19806
6112.0000 0.19806
6114.0000 0.1977
6116.0000 0.1977
6118.0000 0.1977
6120.0000 0.1977
6122.0000 0.1977
6124.0000 0.1977
6126.0000 0.1977
6128.0000 0.1977
6130.0000 0.19751
6132.0000 0.19715
6134.0000 0.19715
6136.0000 0.19679
6138.0000 0.19679
6140.0000 0.19643
6142.0000 0.19643
6144.0000 0.19625
6146.0000 0.19588
6148.0000 0.19588
6150.0000 0.19588
6152.0000 0.19588
6154.0000 0.19552
6156.0000 0.19552
6158.0000 0.19552
6160.0000 0.19552
6162.0000 0.19552
6164.0000 0.19552
6166.0000 0.19552
6168.0000 0.19552
6170.0000 0.19516
6172.0000 0.19516
6174.0000 0.19498
6176.0000 0.19498
6178.0000 0.19463
6180.0000 0.19463
6182.0000 0.19427
6184.0000 0.19427
6186.0000 0.19391
6188.0000 0.19373
6190.0000 0.19373
6192.0000 0.19373
6194.0000 0.19373
6196.0000 0.19373
6198.0000 0.19337
6200.0000 0.19337
6202.0000 0.19337
6204.0000 0.19337
6206.0000 0.19302
6208.0000 0.19302
6210.0000 0.19302
6212.0000 0.19302
6214.0000 0.19284
6216.0000 0.19249
6218.0000 0.19249
6220.0000 0.19213
6222.0000 0.19213
6224.0000 0.19178
6226.0000 0.19178
6228.0000 0.19178
6230.0000 0.1916
6232.0000 0.1916
6234.0000 0.19125
6236.0000 0.19125
6238.0000 0.19125
6240.0000 0.19125
6242.0000 0.19125
6244.0000 0.1909
6246.0000 0.1909
6248.0000 0.1909
6250.0000 0.19055
6252.0000 0.19055
6254.0000 0.19055
6256.0000 0.19037
6258.0000 0.19037
6260.0000 0.19002
6262.0000 0.19002
6264.0000 0.19002
6266.0000 0.19002
6268.0000 0.18967
6270.0000 0.18967
6272.0000 0.18967
6274.0000 0.18932
6276.0000 0.18915
6278.0000 0.18915
6280.0000 0.1888
6282.0000 0.1888
6284.0000 0.18845
6286.0000 0.18845
6288.0000 0.18845
6290.0000 0.18845
6292.0000 0.18811
6294.0000 0.18811
6296.0000 0.18811
6298.0000 0.18793
6300.0000 0.18793
6302.0000 0.18759
6304.0000 0.18759
6306.0000 0.18759
6308.0000 0.18759
6310.0000 0.18759
6312.0000 0.18724
6314.0000 0.18724
6316.0000 0.18724
6318.0000 0.18724
6320.0000 0.18724
6322.0000 0.18707
6324.0000 0.18672
6326.0000 0.18672
6328.0000 0.18638
6330.0000 0.18638
6332.0000 0.18638
6334.0000 0.18604
6336.0000 0.18604
6338.0000 0.18604
6340.0000 0.18604
6342.0000 0.18604
6344.0000 0.18587
6346.0000 0.18552
6348.0000 0.18552
6350.0000 0.18552
6352.0000 0.18518
6354.0000 0.18518
6356.0000 0.18484
6358.0000 0.18467
6360.0000 0.18467
6362.0000 0.18433
6364.0000 0.18433
6366.0000 0.18433
6368.0000 0.18433
6370.0000 0.18433
6372.0000 0.18433
6374.0000 0.18433
6376.0000 0.18433
6378.0000 0.18399
6380.0000 0.18399
6382.0000 0.18399
6384.0000 0.18365
6386.0000 0.18365
6388.0000 0.18348
6390.0000 0.18348
6392.0000 0.18315
6394.0000 0.18315
6396.0000 0.18281
6398.0000 0.18281
6400.0000 0.18281
6402.0000 0.18247
6404.0000 0.18231
6406.0000 0.18231
6408.0000 0.18231
6410.0000 0.18197
6412.0000 0.18197
6414.0000 0.18197
6416.0000 0.18197
6418.0000 0.18163
6420.0000 0.18163
6422.0000 0.18163
6424.0000 0.18163
6426.0000 0.18163
6428.0000 0.18163
6430.0000 0.18163
6432.0000 0.18163
6434.0000 0.18147
6436.0000 0.18147
6438.0000 0.18113
6440.0000 0.18113
6442.0000 0.18113
6444.0000 0.1808
6446.0000 0.1808
6448.0000 0.1808
6450.0000 0.1808
6452.0000 0.18047
6454.0000 0.18047
6456.0000 0.18047
6458.0000 0.1803
6460.0000 0.17997
6462.0000 0.17997
6464.0000 0.17964
6466.0000 0.17964
6468.0000 0.17964
6470.0000 0.17931
6472.0000 0.17914
6474.0000 0.17914
6476.0000 0.17881
6478.0000 0.17881
6480.0000 0.17848
6482.0000 0.17816
6484.0000 0.17799
6486.0000 0.17766
6488.0000 0.17766
6490.0000 0.17734
6492.0000 0.17701
6494.0000 0.17685
6496.0000 0.17652
6498.0000 0.1762
6500.0000 0.17604
6502.0000 0.17571
6504.0000 0.17507
6506.0000 0.1749
6508.0000 0.17426
6510.0000 0.17378
6512.0000 0.17314
6514.0000 0.17266
6516.0000 0.17203
6518.0000 0.17155
6520.0000 0.17092
6522.0000 0.17014
6524.0000 0.16982
6526.0000 0.16904
6528.0000 0.16858
6530.0000 0.16827
6532.0000 0.16765
6534.0000 0.16719
6536.0000 0.16672
6538.0000 0.16611
6540.0000 0.16535
6542.0000 0.16429
6544.0000 0.16323
6546.0000 0.16218
6548.0000 0.16069
6550.0000 0.15907
6552.0000 0.15762
6554.0000 0.1556
6556.0000 0.15389
6558.0000 0.15234
6560.0000 0.15066
6562.0000 0.149
6564.0000 0.14805
6566.0000 0.14764
6568.0000 0.1471
6570.0000 0.14737
6572.0000 0.14832
6574.0000 0.14942
6576.0000 0.15094
6578.0000 0.1529
6580.0000 0.1546
6582.0000 0.1566
6584.0000 0.15805
6586.0000 0.15966
6588.0000 0.16114
6590.0000 0.16218
6592.0000 0.16323
6594.0000 0.16398
6596.0000 0.16459
6598.0000 0.16535
6600.0000 0.16581
6602.0000 0.16642
6604.0000 0.16688
6606.0000 0.16719
6608.0000 0.16749
6610.0000 0.16796
6612.0000 0.16827
6614.0000 0.16858
6616.0000 0.16904
6618.0000 0.16936
6620.0000 0.16936
6622.0000 0.16967
6624.0000 0.16982
6626.0000 0.16967
6628.0000 0.16967
6630.0000 0.16967
6632.0000 0.16967
6634.0000 0.16936
6636.0000 0.16936
6638.0000 0.16936
6640.0000 0.16936
6642.0000 0.16904
6644.0000 0.16904
6646.0000 0.16904
6648.0000 0.16904
6650.0000 0.16873
6652.0000 0.16873
6654.0000 0.16873
6656.0000 0.16858
6658.0000 0.16858
6660.0000 0.16858
6662.0000 0.16827
6664.0000 0.16827
6666.0000 0.16796
6668.0000 0.16765
6670.0000 0.16749
6672.0000 0.16719
6674.0000 0.16688
6676.0000 0.16642
6678.0000 0.16611
6680.0000 0.16581
6682.0000 0.16581
6684.0000 0.16565
6686.0000 0.16565
6688.0000 0.16581
6690.0000 0.16581
6692.0000 0.16611
6694.0000 0.16642
6696.0000 0.16642
6698.0000 0.16672
6700.0000 0.16688
6702.0000 0.16688
6704.0000 0.16688
6706.0000 0.16688
6708.0000 0.16688
6710.0000 0.16688
6712.0000 0.16688
6714.0000 0.16672
6716.0000 0.16672
6718.0000 0.16642
6720.0000 0.16642
6722.0000 0.16642
6724.0000 0.16642
6726.0000 0.16611
6728.0000 0.16611
6730.0000 0.16611
6732.0000 0.16611
6734.0000 0.16611
6736.0000 0.16581
6738.0000 0.16581
6740.0000 0.16581
6742.0000 0.16581
6744.0000 0.16581
6746.0000 0.16581
6748.0000 0.16581
6750.0000 0.16581
6752.0000 0.16581
6754.0000 0.16565
6756.0000 0.16565
6758.0000 0.16535
6760.0000 0.16535
6762.0000 0.16504
6764.0000 0.16504
6766.0000 0.16474
6768.0000 0.16474
6770.0000 0.16474
6772.0000 0.16474
6774.0000 0.16474
6776.0000 0.16474
6778.0000 0.16474
6780.0000 0.16474
6782.0000 0.16474
6784.0000 0.16474
6786.0000 0.16474
6788.0000 0.16459
6790.0000 0.16459
6792.0000 0.16459
6794.0000 0.16459
6796.0000 0.16459
6798.0000 0.16459
6800.0000 0.16429
6802.0000 0.16429
6804.0000 0.16429
6806.0000 0.16398
6808.0000 0.16398
6810.0000 0.16368
6812.0000 0.16353
6814.0000 0.16353
6816.0000 0.16353
6818.0000 0.16323
6820.0000 0.16323
6822.0000 0.16323
6824.0000 0.16323
6826.0000 0.16323
6828.0000 0.16323
6830.0000 0.16353
6832.0000 0.16353
6834.0000 0.16323
6836.0000 0.16323
6838.0000 0.16323
6840.0000 0.16323
6842.0000 0.16323
6844.0000 0.16323
6846.0000 0.16308
6848.0000 0.16308
6850.0000 0.16308
6852.0000 0.16293
6854.0000 0.16293
6856.0000 0.16293
6858.0000 0.16293
6860.0000 0.16278
6862.0000 0.16278
6864.0000 0.16278
6866.0000 0.16263
6868.0000 0.16263
6870.0000 0.16263
6872.0000 0.16248
6874.0000 0.16248
6876.0000 0.16233
6878.0000 0.16233
6880.0000 0.16218
6882.0000 0.16218
6884.0000 0.16218
6886.0000 0.16203
6888.0000 0.16203
6890.0000 0.16188
6892.0000 0.16188
6894.0000 0.16173
6896.0000 0.16173
6898.0000 0.16158
6900.0000 0.16158
6902.0000 0.16144
6904.0000 0.16144
6906.0000 0.16129
6908.0000 0.16114
6910.0000 0.16114
6912.0000 0.16099
6914.0000 0.16099
6916.0000 0.16084
6918.0000 0.16069
6920.0000 0.16069
6922.0000 0.16055
6924.0000 0.1604
6926.0000 0.1604
6928.0000 0.16025
6930.0000 0.1601
6932.0000 0.1601
6934.0000 0.15996
6936.0000 0.15981
6938.0000 0.15966
6940.0000 0.15966
6942.0000 0.15951
6944.0000 0.15937
6946.0000 0.15922
6948.0000 0.15907
6950.0000 0.15907
6952.0000 0.15907
6954.0000 0.15864
6956.0000 0.15864
6958.0000 0.15834
6960.0000 0.15834
6962.0000 0.15805
6964.0000 0.15805
6966.0000 0.15776
6968.0000 0.15776
6970.0000 0.15762
6972.0000 0.15762
6974.0000 0.15762
6976.0000 0.15762
6978.0000 0.15762
6980.0000 0.15762
6982.0000 0.15733
6984.0000 0.15733
6986.0000 0.15733
6988.0000 0.15704
6990.0000 0.15704
6992.0000 0.15704
6994.0000 0.15704
6996.0000 0.15689
6998.0000 0.15689
7000.0000 0.1566
7002.0000 0.1566
7004.0000 0.15631
7006.0000 0.15631
7008.0000 0.15603
7010.0000 0.15603
7012.0000 0.15588
7014.0000 0.1556
7016.0000 0.1556
7018.0000 0.1556
7020.0000 0.15531
7022.0000 0.15531
7024.0000 0.15531
7026.0000 0.15502
7028.0000 0.15502
7030.0000 0.15488
7032.0000 0.15488
7034.0000 0.15488
7036.0000 0.15488
7038.0000 0.15488
7040.0000 0.15488
7042.0000 0.15488
7044.0000 0.15488
7046.0000 0.1546
7048.0000 0.1546
7050.0000 0.1546
7052.0000 0.15431
7054.0000 0.15403
7056.0000 0.15389
7058.0000 0.1536
7060.0000 0.1536
7062.0000 0.15332
7064.0000 0.1529
7066.0000 0.1529
7068.0000 0.15262
7070.0000 0.15234
7072.0000 0.15234
7074.0000 0.15234
7076.0000 0.15234
7078.0000 0.15234
7080.0000 0.15234
7082.0000 0.15262
7084.0000 0.15262
7086.0000 0.15262
7088.0000 0.15262
7090.0000 0.15262
7092.0000 0.15262
7094.0000 0.15262
7096.0000 0.15262
7098.0000 0.15262
7100.0000 0.15262
7102.0000 0.15262
7104.0000 0.1529
7106.0000 0.1529
7108.0000 0.15262
7110.0000 0.15262
7112.0000 0.15262
7114.0000 0.15262
7116.0000 0.15262
7118.0000 0.15262
7120.0000 0.15262
7122.0000 0.15262
7124.0000 0.15234
7126.0000 0.15234
7128.0000 0.15219
7130.0000 0.15191
7132.0000 0.15191
7134.0000 0.15164
7136.0000 0.15136
7138.0000 0.15136
7140.0000 0.15122
7142.0000 0.15094
7144.0000 0.15094
7146.0000 0.15094
7148.0000 0.15094
7150.0000 0.15094
7152.0000 0.15094
7154.0000 0.15094
7156.0000 0.15094
7158.0000 0.15122
7160.0000 0.15122
7162.0000 0.15136
7164.0000 0.15136
7166.0000 0.15136
7168.0000 0.15136
7170.0000 0.15136
7172.0000 0.15136
7174.0000 0.15136
7176.0000 0.15136
7178.0000 0.15122
7180.0000 0.15094
7182.0000 0.15094
7184.0000 0.15066
7186.0000 0.15038
7188.0000 0.15024
7190.0000 0.14997
7192.0000 0.14969
7194.0000 0.14928
7196.0000 0.149
7198.0000 0.14873
7200.0000 0.14873
7202.0000 0.14832
7204.0000 0.14832
7206.0000 0.14805
7208.0000 0.14805
7210.0000 0.14805
7212.0000 0.14777
7214.0000 0.14777
7216.0000 0.14777
7218.0000 0.14777
7220.0000 0.14777
7222.0000 0.14805
7224.0000 0.14805
7226.0000 0.14805
7228.0000 0.14832
7230.0000 0.14832
7232.0000 0.14832
7234.0000 0.14805
7236.0000 0.14777
7238.0000 0.14777
7240.0000 0.14764
7242.0000 0.14737
7244.0000 0.14737
7246.0000 0.14737
7248.0000 0.14737
7250.0000 0.14737
7252.0000 0.14737
7254.0000 0.14737
7256.0000 0.1471
7258.0000 0.1471
7260.0000 0.1471
7262.0000 0.1471
7264.0000 0.14682
7266.0000 0.14669
7268.0000 0.14669
7270.0000 0.14642
7272.0000 0.14615
7274.0000 0.14588
7276.0000 0.14575
7278.0000 0.14575
7280.0000 0.14575
7282.0000 0.14548
7284.0000 0.14548
7286.0000 0.14548
7288.0000 0.14548
7290.0000 0.14548
7292.0000 0.14548
7294.0000 0.14548
7296.0000 0.14575
7298.0000 0.14575
7300.0000 0.14575
7302.0000 0.14575
7304.0000 0.14575
7306.0000 0.14575
7308.0000 0.14548
7310.0000 0.14548
7312.0000 0.14521
7314.0000 0.14521
7316.0000 0.14494
7318.0000 0.14481
7320.0000 0.14481
7322.0000 0.14481
7324.0000 0.14481
7326.0000 0.14454
7328.0000 0.14454
7330.0000 0.14454
7332.0000 0.14428
7334.0000 0.14428
7336.0000 0.14415
7338.0000 0.14388
7340.0000 0.14388
7342.0000 0.14388
7344.0000 0.14388
7346.0000 0.14388
7348.0000 0.14388
7350.0000 0.14388
7352.0000 0.14388
7354.0000 0.14388
7356.0000 0.14388
7358.0000 0.14361
7360.0000 0.14361
7362.0000 0.14335
7364.0000 0.14335
7366.0000 0.14335
7368.0000 0.14335
7370.0000 0.14322
7372.0000 0.14322
7374.0000 0.14322
7376.0000 0.14295
7378.0000 0.14295
7380.0000 0.14295
7382.0000 0.14295
7384.0000 0.14295
7386.0000 0.14269
7388.0000 0.14269
7390.0000 0.14243
7392.0000 0.14243
7394.0000 0.1423
7396.0000 0.1423
7398.0000 0.1423
7400.0000 0.1423
7402.0000 0.14204
7404.0000 0.14204
7406.0000 0.14204
7408.0000 0.14204
7410.0000 0.14204
7412.0000 0.14204
7414.0000 0.1423
7416.0000 0.1423
7418.0000 0.14204
7420.0000 0.14204
7422.0000 0.14204
7424.0000 0.14204
7426.0000 0.14177
7428.0000 0.14177
7430.0000 0.14151
7432.0000 0.14138
7434.0000 0.14138
7436.0000 0.14112
7438.0000 0.14112
7440.0000 0.14086
7442.0000 0.14086
7444.0000 0.1406
7446.0000 0.1406
7448.0000 0.14048
7450.0000 0.14048
7452.0000 0.14022
7454.0000 0.14022
7456.0000 0.14022
7458.0000 0.13996
7460.0000 0.13996
7462.0000 0.13996
7464.0000 0.13996
7466.0000 0.13996
7468.0000 0.13996
7470.0000 0.13996
7472.0000 0.13996
7474.0000 0.13996
7476.0000 0.13996
7478.0000 0.13996
7480.0000 0.13996
7482.0000 0.13983
7484.0000 0.13957
7486.0000 0.13957
7488.0000 0.13957
7490.0000 0.13932
7492.0000 0.13932
7494.0000 0.13906
7496.0000 0.13906
7498.0000 0.13893
7500.0000 0.13868
7502.0000 0.13868
7504.0000 0.13868
7506.0000 0.13842
7508.0000 0.13842
7510.0000 0.13842
7512.0000 0.13816
7514.0000 0.13816
7516.0000 0.13804
7518.0000 0.13804
7520.0000 0.13804
7522.0000 0.13804
7524.0000 0.13804
7526.0000 0.13804
7528.0000 0.13804
7530.0000 0.13804
7532.0000 0.13804
7534.0000 0.13804
7536.0000 0.13804
7538.0000 0.13778
7540.0000 0.13778
7542.0000 0.13778
7544.0000 0.13778
7546.0000 0.13778
7548.0000 0.13753
7550.0000 0.1374
7552.0000 0.13728
7554.0000 0.13728
7556.0000 0.13715
7558.0000 0.13715
7560.0000 0.13702
7562.0000 0.1369
7564.0000 0.1369
7566.0000 0.13677
7568.0000 0.13677
7570.0000 0.13665
7572.0000 0.13665
7574.0000 0.13652
7576.0000 0.13652
7578.0000 0.13639
7580.0000 0.13639
7582.0000 0.13627
7584.0000 0.13627
7586.0000 0.13614
7588.0000 0.13614
7590.0000 0.13602
7592.0000 0.13589
7594.0000 0.13589
7596.0000 0.13577
7598.0000 0.13577
7600.0000 0.13564
7602.0000 0.13564
7604.0000 0.13552
7606.0000 0.13552
7608.0000 0.13539
7610.0000 0.13539
7612.0000 0.13527
7614.0000 0.13527
7616.0000 0.13515
7618.0000 0.13515
7620.0000 0.13502
7622.0000 0.13502
7624.0000 0.13502
7626.0000 0.1349
7628.0000 0.1349
7630.0000 0.13477
7632.0000 0.13477
7634.0000 0.13465
7636.0000 0.13465
7638.0000 0.13452
7640.0000 0.13452
7642.0000 0.1344
7644.0000 0.1344
7646.0000 0.13428
7648.0000 0.13428
7650.0000 0.13415
7652.0000 0.13415
7654.0000 0.13415
7656.0000 0.13403
7658.0000 0.13403
7660.0000 0.13391
7662.0000 0.13391
7664.0000 0.13378
7666.0000 0.13378
7668.0000 0.13378
7670.0000 0.13366
7672.0000 0.13366
7674.0000 0.13354
7676.0000 0.13354
7678.0000 0.13341
7680.0000 0.13341
7682.0000 0.13341
7684.0000 0.13329
7686.0000 0.13329
7688.0000 0.13317
7690.0000 0.13317
7692.0000 0.13305
7694.0000 0.1328
7696.0000 0.1328
7698.0000 0.1328
7700.0000 0.1328
7702.0000 0.1328
7704.0000 0.1328
7706.0000 0.1328
7708.0000 0.1328
7710.0000 0.1328
7712.0000 0.1328
7714.0000 0.1328
7716.0000 0.1328
7718.0000 0.13256
7720.0000 0.13256
7722.0000 0.13243
7724.0000 0.13219
7726.0000 0.13219
7728.0000 0.13195
7730.0000 0.13195
7732.0000 0.13195
7734.0000 0.1317
7736.0000 0.1317
7738.0000 0.1317
7740.0000 0.13158
7742.0000 0.13134
7744.0000 0.13134
7746.0000 0.13134
7748.0000 0.13134
7750.0000 0.13134
7752.0000 0.1311
7754.0000 0.1311
7756.0000 0.1311
7758.0000 0.1311
7760.0000 0.13086
7762.0000 0.13086
7764.0000 0.13086
7766.0000 0.13074
7768.0000 0.13074
7770.0000 0.13074
7772.0000 0.13074
7774.0000 0.13074
7776.0000 0.13074
7778.0000 0.13074
7780.0000 0.13074
7782.0000 0.1305
7784.0000 0.13026
7786.0000 0.13026
7788.0000 0.13002
7790.0000 0.1299
7792.0000 0.12966
7794.0000 0.12942
7796.0000 0.12918
7798.0000 0.12906
7800.0000 0.12906
7802.0000 0.12906
7804.0000 0.12906
7806.0000 0.12883
7808.0000 0.12883
7810.0000 0.12883
7812.0000 0.12883
7814.0000 0.12883
7816.0000 0.12883
7818.0000 0.12883
7820.0000 0.12883
7822.0000 0.12859
7824.0000 0.12859
7826.0000 0.12859
7828.0000 0.12859
7830.0000 0.12859
7832.0000 0.12847
7834.0000 0.12847
7836.0000 0.12823
7838.0000 0.12823
7840.0000 0.12823
7842.0000 0.12823
7844.0000 0.12823
7846.0000 0.12823
7848.0000 0.12823
7850.0000 0.12823
7852.0000 0.12823
7854.0000 0.12823
7856.0000 0.12823
7858.0000 0.12823
7860.0000 0.128
7862.0000 0.128
7864.0000 0.128
7866.0000 0.12776
7868.0000 0.12776
7870.0000 0.12776
7872.0000 0.12764
7874.0000 0.12741
7876.0000 0.12741
7878.0000 0.12741
7880.0000 0.12717
7882.0000 0.12717
7884.0000 0.12694
7886.0000 0.12694
7888.0000 0.12682
7890.0000 0.12682
7892.0000 0.12682
7894.0000 0.12682
7896.0000 0.12682
7898.0000 0.12682
7900.0000 0.12682
7902.0000 0.12682
7904.0000 0.12682
7906.0000 0.12682
7908.0000 0.12682
7910.0000 0.12659
7912.0000 0.12659
7914.0000 0.12659
7916.0000 0.12636
7918.0000 0.12636
7920.0000 0.12612
7922.0000 0.12601
7924.0000 0.12601
7926.0000 0.12601
7928.0000 0.12601
7930.0000 0.12601
7932.0000 0.12601
7934.0000 0.12601
7936.0000 0.12601
7938.0000 0.12601
7940.0000 0.12601
7942.0000 0.12578
7944.0000 0.12578
7946.0000 0.12578
7948.0000 0.12578
7950.0000 0.12555
7952.0000 0.12555
7954.0000 0.12555
7956.0000 0.12555
7958.0000 0.12555
7960.0000 0.12555
7962.0000 0.12555
7964.0000 0.12531
7966.0000 0.1252
7968.0000 0.1252
7970.0000 0.12497
7972.0000 0.12497
7974.0000 0.12497
7976.0000 0.12497
7978.0000 0.12474
7980.0000 0.12474
7982.0000 0.12474
7984.0000 0.12474
7986.0000 0.12474
7988.0000 0.12474
7990.0000 0.12474
7992.0000 0.12462
7994.0000 0.12462
7996.0000 0.12439
7998.0000 0.12439
8000.0000 0.12439
8002.0000 0.12439
8004.0000 0.12417
8006.0000 0.12417
8008.0000 0.12417
8010.0000 0.12417
8012.0000 0.12417
8014.0000 0.12417
8016.0000 0.12394
8018.0000 0.12394
8020.0000 0.12382
8022.0000 0.12359
8024.0000 0.12359
8026.0000 0.12359
8028.0000 0.12337
8030.0000 0.12337
8032.0000 0.12337
8034.0000 0.12337
8036.0000 0.12337
8038.0000 0.12337
8040.0000 0.12337
8042.0000 0.12359
8044.0000 0.12359
8046.0000 0.12359
8048.0000 0.12359
8050.0000 0.12359
8052.0000 0.12337
8054.0000 0.12314
8056.0000 0.12303
8058.0000 0.12303
8060.0000 0.1228
8062.0000 0.1228
8064.0000 0.12257
8066.0000 0.12257
8068.0000 0.12257
8070.0000 0.12257
8072.0000 0.1228
8074.0000 0.12257
8076.0000 0.12257
8078.0000 0.12257
8080.0000 0.12257
8082.0000 0.12257
8084.0000 0.12257
8086.0000 0.12235
8088.0000 0.12224
8090.0000 0.12224
8092.0000 0.12201
8094.0000 0.12201
8096.0000 0.12201
8098.0000 0.12201
8100.0000 0.12179
8102.0000 0.12179
8104.0000 0.12179
8106.0000 0.12179
8108.0000 0.12179
8110.0000 0.12167
8112.0000 0.12167
8114.0000 0.12167
8116.0000 0.12167
8118.0000 0.12145
8120.0000 0.12145
8122.0000 0.12145
8124.0000 0.12145
8126.0000 0.12145
8128.0000 0.12145
8130.0000 0.12145
8132.0000 0.12145
8134.0000 0.12145
8136.0000 0.12145
8138.0000 0.12123
8140.0000 0.12123
8142.0000 0.121
8144.0000 0.121
8146.0000 0.121
8148.0000 0.121
8150.0000 0.121
8152.0000 0.12089
8154.0000 0.12067
8156.0000 0.12067
8158.0000 0.12067
8160.0000 0.12045
8162.0000 0.12045
8164.0000 0.12045
8166.0000 0.12023
8168.0000 0.12023
8170.0000 0.12012
8172.0000 0.11989
8174.0000 0.11989
8176.0000 0.11989
8178.0000 0.11967
8180.0000 0.11967
8182.0000 0.11967
8184.0000 0.11967
8186.0000 0.11945
8188.0000 0.11934
8190.0000 0.11934
8192.0000 0.11934
8194.0000 0.11934
8196.0000 0.11934
8198.0000 0.11934
8200.0000 0.11934
8202.0000 0.11912
8204.0000 0.11912
8206.0000 0.11912
8208.0000 0.11912
8210.0000 0.11912
8212.0000 0.11912
8214.0000 0.11912
8216.0000 0.11934
8218.0000 0.11934
8220.0000 0.11934
8222.0000 0.11934
8224.0000 0.11934
8226.0000 0.11912
8228.0000 0.11912
8230.0000 0.1189
8232.0000 0.11858
8234.0000 0.11836
8236.0000 0.11814
8238.0000 0.11803
8240.0000 0.11781
8242.0000 0.1176
8244.0000 0.1176
8246.0000 0.1176
8248.0000 0.1176
8250.0000 0.1176
8252.0000 0.11781
8254.0000 0.11781
8256.0000 0.11781
8258.0000 0.11781
8260.0000 0.11781
8262.0000 0.11781
8264.0000 0.1176
8266.0000 0.1176
8268.0000 0.11738
8270.0000 0.11738
8272.0000 0.1176
8274.0000 0.1176
8276.0000 0.1176
8278.0000 0.1176
8280.0000 0.1176
8282.0000 0.1176
8284.0000 0.1176
8286.0000 0.1176
8288.0000 0.1176
8290.0000 0.1176
8292.0000 0.11738
8294.0000 0.11738
8296.0000 0.11738
8298.0000 0.11727
8300.0000 0.11727
8302.0000 0.11727
8304.0000 0.11706
8306.0000 0.11706
8308.0000 0.11706
8310.0000 0.11706
8312.0000 0.11706
8314.0000 0.11706
8316.0000 0.11706
8318.0000 0.11706
8320.0000 0.11684
8322.0000 0.11684
8324.0000 0.11684
8326.0000 0.11663
8328.0000 0.11652
8330.0000 0.11652
8332.0000 0.11652
8334.0000 0.11631
8336.0000 0.11631
8338.0000 0.11609
8340.0000 0.11609
8342.0000 0.11609
8344.0000 0.11588
8346.0000 0.11577
8348.0000 0.11577
8350.0000 0.11577
8352.0000 0.11588
8354.0000 0.11588
8356.0000 0.11577
8358.0000 0.11577
8360.0000 0.11577
8362.0000 0.11577
8364.0000 0.11556
8366.0000 0.11556
8368.0000 0.11556
8370.0000 0.11556
8372.0000 0.11556
8374.0000 0.11577
8376.0000 0.11577
8378.0000 0.11588
8380.0000 0.11588
8382.0000 0.11588
8384.0000 0.11588
8386.0000 0.11577
8388.0000 0.11577
8390.0000 0.11556
8392.0000 0.11534
8394.0000 0.11534
8396.0000 0.11513
8398.0000 0.11503
8400.0000 0.11503
8402.0000 0.11482
8404.0000 0.11482
8406.0000 0.11482
8408.0000 0.11482
8410.0000 0.11482
8412.0000 0.11482
8414.0000 0.1146
8416.0000 0.1146
8418.0000 0.1145
8420.0000 0.11429
8422.0000 0.11408
8424.0000 0.11408
8426.0000 0.11408
8428.0000 0.11387
8430.0000 0.11387
8432.0000 0.11376
8434.0000 0.11355
8436.0000 0.11355
8438.0000 0.11334
8440.0000 0.11334
8442.0000 0.11334
8444.0000 0.11334
8446.0000 0.11334
8448.0000 0.11334
8450.0000 0.11334
8452.0000 0.11334
8454.0000 0.11334
8456.0000 0.11334
8458.0000 0.11334
8460.0000 0.11334
8462.0000 0.11334
8464.0000 0.11334
8466.0000 0.11355
8468.0000 0.11355
8470.0000 0.11355
8472.0000 0.11376
8474.0000 0.11387
8476.0000 0.11387
8478.0000 0.11387
8480.0000 0.11376
8482.0000 0.11376
8484.0000 0.11355
8486.0000 0.11355
8488.0000 0.11355
8490.0000 0.11355
8492.0000 0.11376
8494.0000 0.11387
8496.0000 0.11387
8498.0000 0.11408
8500.0000 0.11408
8502.0000 0.11387
8504.0000 0.11387
8506.0000 0.11376
8508.0000 0.11355
8510.0000 0.11334
8512.0000 0.11303
8514.0000 0.11282
8516.0000 0.11262
8518.0000 0.11241
8520.0000 0.11231
8522.0000 0.1121
8524.0000 0.1121
8526.0000 0.11231
8528.0000 0.11241
8530.0000 0.11262
8532.0000 0.11282
8534.0000 0.11303
8536.0000 0.11314
8538.0000 0.11334
8540.0000 0.11355
8542.0000 0.11387
8544.0000 0.11387
8546.0000 0.11387
8548.0000 0.11387
8550.0000 0.11355
8552.0000 0.11334
8554.0000 0.11314
8556.0000 0.11282
8558.0000 0.11262
8560.0000 0.11231
8562.0000 0.11231
8564.0000 0.1121
8566.0000 0.1121
8568.0000 0.11169
8570.0000 0.11158
8572.0000 0.11117
8574.0000 0.11117
8576.0000 0.11087
8578.0000 0.11066
8580.0000 0.11066
8582.0000 0.11046
8584.0000 0.11046
8586.0000 0.11046
8588.0000 0.11036
8590.0000 0.11036
8592.0000 0.11015
8594.0000 0.11015
8596.0000 0.11015
8598.0000 0.11015
8600.0000 0.10995
8602.0000 0.10975
8604.0000 0.10965
8606.0000 0.10965
8608.0000 0.10945
8610.0000 0.10924
8612.0000 0.10924
8614.0000 0.10924
8616.0000 0.10904
8618.0000 0.10904
8620.0000 0.10894
8622.0000 0.10894
8624.0000 0.10894
8626.0000 0.10894
8628.0000 0.10904
8630.0000 0.10904
8632.0000 0.10924
8634.0000 0.10924
8636.0000 0.10945
8638.0000 0.10945
8640.0000 0.10965
8642.0000 0.10975
8644.0000 0.10995
8646.0000 0.11036
8648.0000 0.11066
8650.0000 0.11087
8652.0000 0.11117
8654.0000 0.11138
8656.0000 0.11158
8658.0000 0.11169
8660.0000 0.11189
8662.0000 0.11189
8664.0000 0.11189
8666.0000 0.11169
8668.0000 0.11158
8670.0000 0.11138
8672.0000 0.11107
8674.0000 0.11066
8676.0000 0.11036
8678.0000 0.10995
8680.0000 0.10945
8682.0000 0.10924
8684.0000 0.10894
8686.0000 0.10874
8688.0000 0.10854
8690.0000 0.10824
8692.0000 0.10824
8694.0000 0.10804
8696.0000 0.10775
8698.0000 0.10755
8700.0000 0.10715
8702.0000 0.10705
8704.0000 0.10686
8706.0000 0.10666
8708.0000 0.10646
8710.0000 0.10637
8712.0000 0.10637
8714.0000 0.10637
8716.0000 0.10637
8718.0000 0.10646
8720.0000 0.10666
8722.0000 0.10666
8724.0000 0.10666
8726.0000 0.10686
8728.0000 0.10686
8730.0000 0.10705
8732.0000 0.10715
8734.0000 0.10715
8736.0000 0.10735
8738.0000 0.10735
8740.0000 0.10755
8742.0000 0.10755
8744.0000 0.10785
8746.0000 0.10785
8748.0000 0.10804
8750.0000 0.10785
8752.0000 0.10785
8754.0000 0.10775
8756.0000 0.10755
8758.0000 0.10755
8760.0000 0.10735
8762.0000 0.10735
8764.0000 0.10715
8766.0000 0.10715
8768.0000 0.10705
8770.0000 0.10686
8772.0000 0.10666
8774.0000 0.10666
8776.0000 0.10637
8778.0000 0.10617
8780.0000 0.10597
8782.0000 0.10578
8784.0000 0.10568
8786.0000 0.10549
8788.0000 0.10549
8790.0000 0.10529
8792.0000 0.10529
8794.0000 0.1052
8796.0000 0.105
8798.0000 0.105
8800.0000 0.105
8802.0000 0.10481
8804.0000 0.10481
8806.0000 0.105
8808.0000 0.105
8810.0000 0.105
8812.0000 0.1052
8814.0000 0.10529
8816.0000 0.10529
8818.0000 0.10529
8820.0000 0.10529
8822.0000 0.10529
8824.0000 0.1052
8826.0000 0.105
8828.0000 0.105
8830.0000 0.105
8832.0000 0.1052
8834.0000 0.1052
8836.0000 0.10529
8838.0000 0.10529
8840.0000 0.10529
8842.0000 0.10529
8844.0000 0.10549
8846.0000 0.10549
8848.0000 0.10568
8850.0000 0.10578
8852.0000 0.10597
8854.0000 0.10597
8856.0000 0.10617
8858.0000 0.10617
8860.0000 0.10617
8862.0000 0.10597
8864.0000 0.10597
8866.0000 0.10568
8868.0000 0.10529
8870.0000 0.105
8872.0000 0.10481
8874.0000 0.10462
8876.0000 0.10433
8878.0000 0.10433
8880.0000 0.10414
8882.0000 0.10385
8884.0000 0.10385
8886.0000 0.10366
8888.0000 0.10347
8890.0000 0.10328
8892.0000 0.10318
8894.0000 0.10318
8896.0000 0.10299
8898.0000 0.10299
8900.0000 0.10299
8902.0000 0.10299
8904.0000 0.10299
8906.0000 0.10318
8908.0000 0.10318
8910.0000 0.10328
8912.0000 0.10347
8914.0000 0.10328
8916.0000 0.10318
8918.0000 0.10299
8920.0000 0.10299
8922.0000 0.10299
8924.0000 0.10299
8926.0000 0.10299
8928.0000 0.10299
8930.0000 0.10318
8932.0000 0.10299
8934.0000 0.10299
8936.0000 0.1028
8938.0000 0.1028
8940.0000 0.10252
8942.0000 0.10233
8944.0000 0.10214
8946.0000 0.10186
8948.0000 0.10167
8950.0000 0.10139
8952.0000 0.1012
8954.0000 0.10083
8956.0000 0.10074
8958.0000 0.10037
8960.0000 0.10018
8962.0000 0.10009
8964.0000 0.099724
8966.0000 0.09954
8968.0000 0.099449
8970.0000 0.099266
8972.0000 0.099083
8974.0000 0.098992
8976.0000 0.098809
8978.0000 0.098628
8980.0000 0.098356
8982.0000 0.097994
8984.0000 0.097724
8986.0000 0.097364
8988.0000 0.097185
8990.0000 0.097096
8992.0000 0.096917
8994.0000 0.096917
8996.0000 0.096739
8998.0000 0.096739
9000.0000 0.096739
9002.0000 0.096917
9004.0000 0.096917
9006.0000 0.097096
9008.0000 0.097096
9010.0000 0.097096
9012.0000 0.097185
9014.0000 0.097364
9016.0000 0.097364
9018.0000 0.097364
9020.0000 0.097364
9022.0000 0.097364
9024.0000 0.097364
9026.0000 0.097185
9028.0000 0.097096
9030.0000 0.097096
9032.0000 0.096917
9034.0000 0.096739
9036.0000 0.096739
9038.0000 0.09665
9040.0000 0.096472
9042.0000 0.096472
9044.0000 0.096294
9046.0000 0.096294
9048.0000 0.096294
9050.0000 0.096472
9052.0000 0.096472
9054.0000 0.096472
9056.0000 0.096472
9058.0000 0.096472
9060.0000 0.096294
9062.0000 0.096294
9064.0000 0.096117
9066.0000 0.096117
9068.0000 0.096117
9070.0000 0.096117
9072.0000 0.096029
9074.0000 0.095852
9076.0000 0.095852
9078.0000 0.095675
9080.0000 0.095675
9082.0000 0.095499
9084.0000 0.095499
9086.0000 0.095499
9088.0000 0.095411
9090.0000 0.095236
9092.0000 0.095236
9094.0000 0.09506
9096.0000 0.095236
9098.0000 0.095236
9100.0000 0.095236
9102.0000 0.095236
9104.0000 0.095411
9106.0000 0.095499
9108.0000 0.095675
9110.0000 0.095852
9112.0000 0.096029
9114.0000 0.096117
9116.0000 0.096117
9118.0000 0.096117
9120.0000 0.096117
9122.0000 0.096029
9124.0000 0.095852
9126.0000 0.095675
9128.0000 0.095675
9130.0000 0.095499
9132.0000 0.095499
9134.0000 0.095411
9136.0000 0.095236
9138.0000 0.095411
9140.0000 0.095499
9142.0000 0.095499
9144.0000 0.095675
9146.0000 0.095675
9148.0000 0.095852
9150.0000 0.095852
9152.0000 0.095675
9154.0000 0.095675
9156.0000 0.095499
9158.0000 0.095499
9160.0000 0.095236
9162.0000 0.095236
9164.0000 0.09506
9166.0000 0.09506
9168.0000 0.094798
9170.0000 0.094624
9172.0000 0.094449
9174.0000 0.094189
9176.0000 0.094016
9178.0000 0.093842
9180.0000 0.093756
9182.0000 0.093584
9184.0000 0.093411
9186.0000 0.093239
9188.0000 0.093154
9190.0000 0.092982
9192.0000 0.092811
9194.0000 0.092811
9196.0000 0.092811
9198.0000 0.092811
9200.0000 0.092982
