3200.0000 0.34293
3201.0000 0.34229
3202.0000 0.34229
3203.0000 0.34293
3204.0000 0.34324
3205.0000 0.34229
3206.0000 0.34229
3207.0000 0.34293
3208.0000 0.34324
3209.0000 0.34546
3210.0000 0.3477
3211.0000 0.34995
3212.0000 0.35156
3213.0000 0.35286
3214.0000 0.35286
3215.0000 0.35286
3216.0000 0.35318
3217.0000 0.35383
3218.0000 0.35449
3219.0000 0.35547
3220.0000 0.35678
3221.0000 0.35744
3222.0000 0.35843
3223.0000 0.35909
3224.0000 0.36008
3225.0000 0.36074
3226.0000 0.36208
3227.0000 0.36308
3228.0000 0.36375
3229.0000 0.36475
3230.0000 0.36475
3231.0000 0.36408
3232.0000 0.36308
3233.0000 0.36241
3234.0000 0.36141
3235.0000 0.36008
3236.0000 0.35843
3237.0000 0.35612
3238.0000 0.35449
3239.0000 0.35221
3240.0000 0.34995
3241.0000 0.34706
3242.0000 0.34451
3243.0000 0.34324
3244.0000 0.34229
3245.0000 0.34104
3246.0000 0.33947
3247.0000 0.33853
3248.0000 0.33791
3249.0000 0.33667
3250.0000 0.33512
3251.0000 0.33358
3252.0000 0.33297
3253.0000 0.33205
3254.0000 0.33205
3255.0000 0.33144
3256.0000 0.33052
3257.0000 0.32931
3258.0000 0.3284
3259.0000 0.32719
3260.0000 0.32719
3261.0000 0.32659
3262.0000 0.32629
3263.0000 0.32629
3264.0000 0.32629
3265.0000 0.32569
3266.0000 0.32569
3267.0000 0.32569
3268.0000 0.32629
3269.0000 0.32629
3270.0000 0.32569
3271.0000 0.32569
3272.0000 0.32569
3273.0000 0.32569
3274.0000 0.32569
3275.0000 0.32509
3276.0000 0.32509
3277.0000 0.32419
3278.0000 0.323
3279.0000 0.32211
3280.0000 0.32151
3281.0000 0.32151
3282.0000 0.32211
3283.0000 0.3227
3284.0000 0.32359
3285.0000 0.32359
3286.0000 0.323
3287.0000 0.3227
3288.0000 0.32151
3289.0000 0.32063
3290.0000 0.31886
3291.0000 0.31739
3292.0000 0.31652
3293.0000 0.31536
3294.0000 0.31477
3295.0000 0.31448
3296.0000 0.31448
3297.0000 0.31448
3298.0000 0.31448
3299.0000 0.31477
3300.0000 0.31536
3301.0000 0.31536
3302.0000 0.31536
3303.0000 0.31477
3304.0000 0.31448
3305.0000 0.31391
3306.0000 0.31304
3307.0000 0.31189
3308.0000 0.31132
3309.0000 0.31103
3310.0000 0.31046
3311.0000 0.31046
3312.0000 0.31046
3313.0000 0.31046
3314.0000 0.31046
3315.0000 0.31103
3316.0000 0.31132
3317.0000 0.31189
3318.0000 0.31304
3319.0000 0.31304
3320.0000 0.31246
3321.0000 0.31189
3322.0000 0.31103
3323.0000 0.30988
3324.0000 0.30903
3325.0000 0.30903
3326.0000 0.30903
3327.0000 0.30903
3328.0000 0.31046
3329.0000 0.31132
3330.0000 0.31189
3331.0000 0.31304
3332.0000 0.31304
3333.0000 0.31246
3334.0000 0.31246
3335.0000 0.31246
3336.0000 0.31246
3337.0000 0.31246
3338.0000 0.31333
3339.0000 0.31304
3340.0000 0.31304
3341.0000 0.31189
3342.0000 0.31132
3343.0000 0.31132
3344.0000 0.31132
3345.0000 0.31189
3346.0000 0.31189
3347.0000 0.31246
3348.0000 0.31333
3349.0000 0.31391
3350.0000 0.31391
3351.0000 0.31333
3352.0000 0.31189
3353.0000 0.31103
3354.0000 0.30931
3355.0000 0.30846
3356.0000 0.30846
3357.0000 0.30846
3358.0000 0.30846
3359.0000 0.30846
3360.0000 0.30846
3361.0000 0.30846
3362.0000 0.30789
3363.0000 0.30789
3364.0000 0.30846
3365.0000 0.30846
3366.0000 0.30846
3367.0000 0.30903
3368.0000 0.30903
3369.0000 0.30903
3370.0000 0.30931
3371.0000 0.30988
3372.0000 0.31103
3373.0000 0.31132
3374.0000 0.31189
3375.0000 0.31132
3376.0000 0.31103
3377.0000 0.30903
3378.0000 0.30704
3379.0000 0.30648
3380.0000 0.30648
3381.0000 0.30648
3382.0000 0.30591
3383.0000 0.30507
3384.0000 0.30451
3385.0000 0.30395
3386.0000 0.30311
3387.0000 0.30311
3388.0000 0.30367
3389.0000 0.30395
3390.0000 0.30395
3391.0000 0.30395
3392.0000 0.30311
3393.0000 0.30199
3394.0000 0.30116
3395.0000 0.30005
3396.0000 0.29923
3397.0000 0.29867
3398.0000 0.29785
3399.0000 0.2973
3400.0000 0.2973
3401.0000 0.29785
3402.0000 0.29867
3403.0000 0.29867
3404.0000 0.29923
3405.0000 0.29867
3406.0000 0.29813
3407.0000 0.29785
3408.0000 0.29785
3409.0000 0.2973
3410.0000 0.2973
3411.0000 0.2973
3412.0000 0.29676
3413.0000 0.29676
3414.0000 0.29594
3415.0000 0.29539
3416.0000 0.29485
3417.0000 0.29404
3418.0000 0.29268
3419.0000 0.29215
3420.0000 0.29215
3421.0000 0.29161
3422.0000 0.29161
3423.0000 0.29215
3424.0000 0.29107
3425.0000 0.29027
3426.0000 0.28973
3427.0000 0.2884
3428.0000 0.28787
3429.0000 0.28708
3430.0000 0.28708
3431.0000 0.28787
3432.0000 0.28787
3433.0000 0.2884
3434.0000 0.2884
3435.0000 0.2892
3436.0000 0.28973
3437.0000 0.2908
3438.0000 0.29161
3439.0000 0.29215
3440.0000 0.29215
3441.0000 0.29215
3442.0000 0.29215
3443.0000 0.29161
3444.0000 0.29107
3445.0000 0.2908
3446.0000 0.28973
3447.0000 0.28893
3448.0000 0.2884
3449.0000 0.28787
3450.0000 0.28787
3451.0000 0.28787
3452.0000 0.28787
3453.0000 0.28761
3454.0000 0.28708
3455.0000 0.28708
3456.0000 0.28708
3457.0000 0.28708
3458.0000 0.28787
3459.0000 0.28787
3460.0000 0.2884
3461.0000 0.28787
3462.0000 0.28787
3463.0000 0.28761
3464.0000 0.28708
3465.0000 0.28708
3466.0000 0.28708
3467.0000 0.28655
3468.0000 0.28602
3469.0000 0.28602
3470.0000 0.28576
3471.0000 0.28576
3472.0000 0.28602
3473.0000 0.28576
3474.0000 0.28523
3475.0000 0.28471
3476.0000 0.28392
3477.0000 0.28288
3478.0000 0.2821
3479.0000 0.28106
3480.0000 0.28028
3481.0000 0.27925
3482.0000 0.279
3483.0000 0.27797
3484.0000 0.27848
3485.0000 0.27925
3486.0000 0.27977
3487.0000 0.28054
3488.0000 0.28106
3489.0000 0.28158
3490.0000 0.2821
3491.0000 0.2821
3492.0000 0.2821
3493.0000 0.2821
3494.0000 0.28158
3495.0000 0.28158
3496.0000 0.28106
3497.0000 0.28054
3498.0000 0.28028
3499.0000 0.27977
3500.0000 0.27925
3501.0000 0.279
3502.0000 0.27848
3503.0000 0.27797
3504.0000 0.27746
3505.0000 0.27746
3506.0000 0.27746
3507.0000 0.27746
3508.0000 0.27746
3509.0000 0.27746
3510.0000 0.27797
3511.0000 0.27797
3512.0000 0.27848
3513.0000 0.27848
3514.0000 0.27848
3515.0000 0.27848
3516.0000 0.27848
3517.0000 0.27848
3518.0000 0.27848
3519.0000 0.27848
3520.0000 0.27848
3521.0000 0.279
3522.0000 0.27925
3523.0000 0.27925
3524.0000 0.27977
3525.0000 0.27977
3526.0000 0.27977
3527.0000 0.279
3528.0000 0.27797
3529.0000 0.2772
3530.0000 0.27619
3531.0000 0.27542
3532.0000 0.27441
3533.0000 0.27365
3534.0000 0.27315
3535.0000 0.27265
3536.0000 0.2724
3537.0000 0.27189
3538.0000 0.27089
3539.0000 0.27015
3540.0000 0.26915
3541.0000 0.26841
3542.0000 0.26792
3543.0000 0.26742
3544.0000 0.26742
3545.0000 0.26718
3546.0000 0.26742
3547.0000 0.26742
3548.0000 0.26742
3549.0000 0.26792
3550.0000 0.26792
3551.0000 0.26792
3552.0000 0.26742
3553.0000 0.26742
3554.0000 0.26718
3555.0000 0.26742
3556.0000 0.26742
3557.0000 0.26792
3558.0000 0.26841
3559.0000 0.2689
3560.0000 0.26915
3561.0000 0.26915
3562.0000 0.26915
3563.0000 0.26915
3564.0000 0.2689
3565.0000 0.2689
3566.0000 0.2689
3567.0000 0.2689
3568.0000 0.26841
3569.0000 0.26841
3570.0000 0.26841
3571.0000 0.26841
3572.0000 0.26841
3573.0000 0.26792
3574.0000 0.26792
3575.0000 0.26742
3576.0000 0.26718
3577.0000 0.26718
3578.0000 0.26669
3579.0000 0.26669
3580.0000 0.26619
3581.0000 0.26619
3582.0000 0.26571
3583.0000 0.26546
3584.0000 0.26497
3585.0000 0.26497
3586.0000 0.26448
3587.0000 0.26448
3588.0000 0.26448
3589.0000 0.26424
3590.0000 0.26424
3591.0000 0.26424
3592.0000 0.26424
3593.0000 0.26375
3594.0000 0.26375
3595.0000 0.26327
3596.0000 0.26278
3597.0000 0.26206
3598.0000 0.26206
3599.0000 0.26158
3600.0000 0.26158
3601.0000 0.2611
3602.0000 0.26158
3603.0000 0.26158
3604.0000 0.26158
3605.0000 0.26158
3606.0000 0.26158
3607.0000 0.26206
3608.0000 0.26254
3609.0000 0.26278
3610.0000 0.26278
3611.0000 0.26278
3612.0000 0.26278
3613.0000 0.26278
3614.0000 0.26278
3615.0000 0.26206
3616.0000 0.26158
3617.0000 0.26085
3618.0000 0.26038
3619.0000 0.26038
3620.0000 0.26038
3621.0000 0.2599
3622.0000 0.25918
3623.0000 0.2587
3624.0000 0.25823
3625.0000 0.25775
3626.0000 0.25775
3627.0000 0.25775
3628.0000 0.25775
3629.0000 0.25775
3630.0000 0.25751
3631.0000 0.25751
3632.0000 0.25751
3633.0000 0.25751
3634.0000 0.25751
3635.0000 0.25704
3636.0000 0.25704
3637.0000 0.25633
3638.0000 0.25586
3639.0000 0.25539
3640.0000 0.25539
3641.0000 0.25539
3642.0000 0.25539
3643.0000 0.25586
3644.0000 0.25586
3645.0000 0.25586
3646.0000 0.25586
3647.0000 0.25539
3648.0000 0.25492
3649.0000 0.25468
3650.0000 0.25375
3651.0000 0.25258
3652.0000 0.25211
3653.0000 0.25142
3654.0000 0.25096
3655.0000 0.2505
3656.0000 0.2498
3657.0000 0.24934
3658.0000 0.24934
3659.0000 0.24888
3660.0000 0.24888
3661.0000 0.24866
3662.0000 0.2482
3663.0000 0.2482
3664.0000 0.24774
3665.0000 0.24774
3666.0000 0.24729
3667.0000 0.24774
3668.0000 0.24774
3669.0000 0.24729
3670.0000 0.24729
3671.0000 0.24729
3672.0000 0.24729
3673.0000 0.24729
3674.0000 0.24706
3675.0000 0.24729
3676.0000 0.24774
3677.0000 0.2482
3678.0000 0.24866
3679.0000 0.24888
3680.0000 0.24888
3681.0000 0.24934
3682.0000 0.24934
3683.0000 0.24934
3684.0000 0.24934
3685.0000 0.24934
3686.0000 0.24866
3687.0000 0.2482
3688.0000 0.24729
3689.0000 0.24706
3690.0000 0.24615
3691.0000 0.24547
3692.0000 0.24457
3693.0000 0.24344
3694.0000 0.243
3695.0000 0.243
3696.0000 0.243
3697.0000 0.243
3698.0000 0.24344
3699.0000 0.24344
3700.0000 0.24389
3701.0000 0.24389
3702.0000 0.24457
3703.0000 0.24457
3704.0000 0.24412
3705.0000 0.24412
3706.0000 0.24412
3707.0000 0.24389
3708.0000 0.24389
3709.0000 0.24344
3710.0000 0.243
3711.0000 0.24277
3712.0000 0.24233
3713.0000 0.24188
3714.0000 0.24188
3715.0000 0.24188
3716.0000 0.24233
3717.0000 0.24277
3718.0000 0.243
3719.0000 0.243
3720.0000 0.243
3721.0000 0.243
3722.0000 0.24233
3723.0000 0.24188
3724.0000 0.24143
3725.0000 0.24143
3726.0000 0.24143
3727.0000 0.24143
3728.0000 0.24188
3729.0000 0.24233
3730.0000 0.243
3731.0000 0.24344
3732.0000 0.24389
3733.0000 0.24457
3734.0000 0.24502
3735.0000 0.24457
3736.0000 0.24412
3737.0000 0.24344
3738.0000 0.24233
3739.0000 0.24121
3740.0000 0.24143
3741.0000 0.24143
3742.0000 0.24143
3743.0000 0.24143
3744.0000 0.24121
3745.0000 0.24077
3746.0000 0.24077
3747.0000 0.24033
3748.0000 0.24033
3749.0000 0.23988
3750.0000 0.23988
3751.0000 0.23988
3752.0000 0.23966
3753.0000 0.23922
3754.0000 0.23878
3755.0000 0.23834
3756.0000 0.23812
3757.0000 0.23812
3758.0000 0.23812
3759.0000 0.23768
3760.0000 0.23725
3761.0000 0.23725
3762.0000 0.23725
3763.0000 0.23768
3764.0000 0.23768
3765.0000 0.23768
3766.0000 0.23725
3767.0000 0.23725
3768.0000 0.23681
3769.0000 0.23659
3770.0000 0.23659
3771.0000 0.23616
3772.0000 0.23681
3773.0000 0.23725
3774.0000 0.23812
3775.0000 0.23878
3776.0000 0.23922
3777.0000 0.23834
3778.0000 0.23768
3779.0000 0.23659
3780.0000 0.23572
3781.0000 0.23507
3782.0000 0.23464
3783.0000 0.23421
3784.0000 0.23399
3785.0000 0.23313
3786.0000 0.2327
3787.0000 0.23206
3788.0000 0.23163
3789.0000 0.23099
3790.0000 0.23057
3791.0000 0.22972
3792.0000 0.22909
3793.0000 0.22866
3794.0000 0.22866
3795.0000 0.22866
3796.0000 0.22909
3797.0000 0.22951
3798.0000 0.23014
3799.0000 0.23099
3800.0000 0.23163
3801.0000 0.23249
3802.0000 0.23313
3803.0000 0.23356
3804.0000 0.23399
3805.0000 0.23421
3806.0000 0.23464
3807.0000 0.23507
3808.0000 0.23572
3809.0000 0.23616
3810.0000 0.23616
3811.0000 0.23681
3812.0000 0.23768
3813.0000 0.23768
3814.0000 0.23768
3815.0000 0.23768
3816.0000 0.23725
3817.0000 0.23659
3818.0000 0.23616
3819.0000 0.2355
3820.0000 0.23507
3821.0000 0.23464
3822.0000 0.23421
3823.0000 0.23356
3824.0000 0.23313
3825.0000 0.23206
3826.0000 0.23099
3827.0000 0.23014
3828.0000 0.22951
3829.0000 0.22909
3830.0000 0.22909
3831.0000 0.22866
3832.0000 0.22866
3833.0000 0.22845
3834.0000 0.22803
3835.0000 0.22803
3836.0000 0.22845
3837.0000 0.22909
3838.0000 0.22951
3839.0000 0.23057
3840.0000 0.23121
3841.0000 0.23206
3842.0000 0.23249
3843.0000 0.23313
3844.0000 0.23399
3845.0000 0.23464
3846.0000 0.2355
3847.0000 0.23616
3848.0000 0.23725
3849.0000 0.23812
3850.0000 0.23878
3851.0000 0.23878
3852.0000 0.23922
3853.0000 0.23922
3854.0000 0.23922
3855.0000 0.23922
3856.0000 0.23988
3857.0000 0.24033
3858.0000 0.24077
3859.0000 0.24033
3860.0000 0.24033
3861.0000 0.23966
3862.0000 0.23878
3863.0000 0.23878
3864.0000 0.23812
3865.0000 0.23812
3866.0000 0.23768
3867.0000 0.23768
3868.0000 0.23768
3869.0000 0.23812
3870.0000 0.23812
3871.0000 0.23768
3872.0000 0.23725
3873.0000 0.23659
3874.0000 0.23616
3875.0000 0.23507
3876.0000 0.23421
3877.0000 0.23313
3878.0000 0.23163
3879.0000 0.23057
3880.0000 0.22909
3881.0000 0.22803
3882.0000 0.22657
3883.0000 0.22511
3884.0000 0.22408
3885.0000 0.22264
3886.0000 0.22182
3887.0000 0.22121
3888.0000 0.2208
3889.0000 0.22121
3890.0000 0.22161
3891.0000 0.22223
3892.0000 0.22325
3893.0000 0.22408
3894.0000 0.22553
3895.0000 0.22657
3896.0000 0.22803
3897.0000 0.22909
3898.0000 0.23014
3899.0000 0.23121
3900.0000 0.23206
3901.0000 0.23313
3902.0000 0.23421
3903.0000 0.23507
3904.0000 0.2355
3905.0000 0.23572
3906.0000 0.23616
3907.0000 0.23659
3908.0000 0.23659
3909.0000 0.23681
3910.0000 0.23725
3911.0000 0.23725
3912.0000 0.23768
3913.0000 0.23812
3914.0000 0.23812
3915.0000 0.23812
3916.0000 0.23812
3917.0000 0.23812
3918.0000 0.23768
3919.0000 0.23768
3920.0000 0.23725
3921.0000 0.23725
3922.0000 0.23681
3923.0000 0.23659
3924.0000 0.23616
3925.0000 0.23572
3926.0000 0.2355
3927.0000 0.23507
3928.0000 0.23421
3929.0000 0.23356
3930.0000 0.23356
3931.0000 0.23313
3932.0000 0.23313
3933.0000 0.23313
3934.0000 0.23356
3935.0000 0.23356
3936.0000 0.23356
3937.0000 0.23356
3938.0000 0.23356
3939.0000 0.23399
3940.0000 0.23399
3941.0000 0.23399
3942.0000 0.23356
3943.0000 0.23356
3944.0000 0.23313
3945.0000 0.23313
3946.0000 0.23313
3947.0000 0.23313
3948.0000 0.23313
3949.0000 0.23249
3950.0000 0.23206
3951.0000 0.22951
3952.0000 0.22866
3953.0000 0.22803
3954.0000 0.22657
3955.0000 0.22553
3956.0000 0.22428
3957.0000 0.22325
3958.0000 0.22223
3959.0000 0.22121
3960.0000 0.21979
3961.0000 0.21837
3962.0000 0.21597
3963.0000 0.2138
3964.0000 0.21184
3965.0000 0.21009
3966.0000 0.20855
3967.0000 0.20721
3968.0000 0.20606
3969.0000 0.20549
3970.0000 0.20512
3971.0000 0.20512
3972.0000 0.20512
3973.0000 0.20587
3974.0000 0.20682
3975.0000 0.20816
3976.0000 0.20951
3977.0000 0.21086
3978.0000 0.21223
3979.0000 0.21321
3980.0000 0.21458
3981.0000 0.21558
3982.0000 0.21657
3983.0000 0.21757
3984.0000 0.21878
3985.0000 0.21979
3986.0000 0.2208
3987.0000 0.22182
3988.0000 0.22264
3989.0000 0.22325
3990.0000 0.22408
3991.0000 0.2247
3992.0000 0.22553
3993.0000 0.22615
3994.0000 0.22657
3995.0000 0.22699
3996.0000 0.2272
3997.0000 0.2272
3998.0000 0.2272
3999.0000 0.2272
4000.0000 0.2272
4001.0000 0.2272
4002.0000 0.22699
4003.0000 0.22699
4004.0000 0.22699
4005.0000 0.22699
4006.0000 0.22657
4007.0000 0.22615
4008.0000 0.22615
4009.0000 0.22574
4010.0000 0.22553
4011.0000 0.22511
4012.0000 0.2247
4013.0000 0.2247
4014.0000 0.2247
4015.0000 0.22428
4016.0000 0.22408
4017.0000 0.22408
4018.0000 0.22408
4019.0000 0.22408
4020.0000 0.22408
4021.0000 0.22408
4022.0000 0.22408
4023.0000 0.22408
4024.0000 0.22367
4025.0000 0.22367
4026.0000 0.22367
4027.0000 0.22408
4028.0000 0.22408
4029.0000 0.22408
4030.0000 0.22408
4031.0000 0.22367
4032.0000 0.22367
4033.0000 0.22325
4034.0000 0.22325
4035.0000 0.22325
4036.0000 0.22284
4037.0000 0.22284
4038.0000 0.22264
4039.0000 0.22264
4040.0000 0.22264
4041.0000 0.22223
4042.0000 0.22223
4043.0000 0.22223
4044.0000 0.22223
4045.0000 0.22264
4046.0000 0.22264
4047.0000 0.22223
4048.0000 0.22223
4049.0000 0.22223
4050.0000 0.22223
4051.0000 0.22182
4052.0000 0.22182
4053.0000 0.22182
4054.0000 0.22161
4055.0000 0.22121
4056.0000 0.22121
4057.0000 0.22121
4058.0000 0.22121
4059.0000 0.22121
4060.0000 0.22161
4061.0000 0.22161
4062.0000 0.22182
4063.0000 0.22182
4064.0000 0.22182
4065.0000 0.22161
4066.0000 0.22121
4067.0000 0.22121
4068.0000 0.2208
4069.0000 0.2208
4070.0000 0.22039
4071.0000 0.22039
4072.0000 0.22039
4073.0000 0.22019
4074.0000 0.21979
4075.0000 0.21979
4076.0000 0.21938
4077.0000 0.21898
4078.0000 0.21878
4079.0000 0.21797
4080.0000 0.21757
4081.0000 0.21697
4082.0000 0.21637
4083.0000 0.21558
4084.0000 0.21458
4085.0000 0.2136
4086.0000 0.21223
4087.0000 0.21106
4088.0000 0.20989
4089.0000 0.20855
4090.0000 0.20682
4091.0000 0.20549
4092.0000 0.2038
4093.0000 0.20193
4094.0000 0.19971
4095.0000 0.1977
4096.0000 0.19552
4097.0000 0.19373
4098.0000 0.19213
4099.0000 0.1909
4100.0000 0.18967
4101.0000 0.18915
4102.0000 0.1888
4103.0000 0.18932
4104.0000 0.19002
4105.0000 0.19178
4106.0000 0.19337
4107.0000 0.19552
4108.0000 0.19751
4109.0000 0.19934
4110.0000 0.201
4111.0000 0.20286
4112.0000 0.20417
4113.0000 0.20587
4114.0000 0.20721
4115.0000 0.20855
4116.0000 0.20951
4117.0000 0.21047
4118.0000 0.21086
4119.0000 0.21145
4120.0000 0.21184
4121.0000 0.21223
4122.0000 0.21242
4123.0000 0.21281
4124.0000 0.21281
4125.0000 0.21281
4126.0000 0.21281
4127.0000 0.21242
4128.0000 0.21242
4129.0000 0.21242
4130.0000 0.21223
4131.0000 0.21223
4132.0000 0.21223
4133.0000 0.21184
4134.0000 0.21184
4135.0000 0.21145
4136.0000 0.21145
4137.0000 0.21106
4138.0000 0.21086
4139.0000 0.21086
4140.0000 0.21086
4141.0000 0.21086
4142.0000 0.21047
4143.0000 0.21047
4144.0000 0.21009
4145.0000 0.21009
4146.0000 0.20989
4147.0000 0.20989
4148.0000 0.20951
4149.0000 0.20951
4150.0000 0.20912
4151.0000 0.20912
4152.0000 0.20874
4153.0000 0.20874
4154.0000 0.20874
4155.0000 0.20855
4156.0000 0.20855
4157.0000 0.20816
4158.0000 0.20816
4159.0000 0.20778
4160.0000 0.20778
4161.0000 0.20778
4162.0000 0.20778
4163.0000 0.2074
4164.0000 0.2074
4165.0000 0.20778
4166.0000 0.20778
4167.0000 0.20778
4168.0000 0.20778
4169.0000 0.20778
4170.0000 0.2074
4171.0000 0.20721
4172.0000 0.20721
4173.0000 0.20721
4174.0000 0.20721
4175.0000 0.20721
4176.0000 0.2074
4177.0000 0.20721
4178.0000 0.20721
4179.0000 0.20721
4180.0000 0.20721
4181.0000 0.20721
4182.0000 0.20721
4183.0000 0.20682
4184.0000 0.20682
4185.0000 0.20682
4186.0000 0.20644
4187.0000 0.20644
4188.0000 0.20606
4189.0000 0.20587
4190.0000 0.20587
4191.0000 0.20549
4192.0000 0.20549
4193.0000 0.20549
4194.0000 0.20512
4195.0000 0.20512
4196.0000 0.20512
4197.0000 0.20512
4198.0000 0.20512
4199.0000 0.20512
4200.0000 0.20512
4201.0000 0.20512
4202.0000 0.20474
4203.0000 0.20474
4204.0000 0.20455
4205.0000 0.20455
4206.0000 0.20455
4207.0000 0.20417
4208.0000 0.20417
4209.0000 0.2038
4210.0000 0.2038
4211.0000 0.2038
4212.0000 0.20417
4213.0000 0.20417
4214.0000 0.20417
4215.0000 0.20417
4216.0000 0.20417
4217.0000 0.20417
4218.0000 0.20455
4219.0000 0.20455
4220.0000 0.20455
4221.0000 0.20474
4222.0000 0.20474
4223.0000 0.20512
4224.0000 0.20512
4225.0000 0.20512
4226.0000 0.20512
4227.0000 0.20512
4228.0000 0.20474
4229.0000 0.20455
4230.0000 0.20455
4231.0000 0.20417
4232.0000 0.20417
4233.0000 0.2038
4234.0000 0.20361
4235.0000 0.20324
4236.0000 0.20286
4237.0000 0.20286
4238.0000 0.20249
4239.0000 0.2023
4240.0000 0.2023
4241.0000 0.20193
4242.0000 0.20193
4243.0000 0.2023
4244.0000 0.2023
4245.0000 0.2023
4246.0000 0.2023
4247.0000 0.20249
4248.0000 0.2023
4249.0000 0.2023
4250.0000 0.2023
4251.0000 0.20193
4252.0000 0.20156
4253.0000 0.20156
4254.0000 0.20119
4255.0000 0.201
4256.0000 0.20063
4257.0000 0.20063
4258.0000 0.20063
4259.0000 0.20026
4260.0000 0.20026
4261.0000 0.20026
4262.0000 0.20026
4263.0000 0.19989
4264.0000 0.19989
4265.0000 0.19989
4266.0000 0.19989
4267.0000 0.19989
4268.0000 0.19989
4269.0000 0.19989
4270.0000 0.19989
4271.0000 0.19971
4272.0000 0.19971
4273.0000 0.19971
4274.0000 0.19934
4275.0000 0.19934
4276.0000 0.19934
4277.0000 0.19934
4278.0000 0.19934
4279.0000 0.19971
4280.0000 0.19971
4281.0000 0.19971
4282.0000 0.19971
4283.0000 0.19971
4284.0000 0.19971
4285.0000 0.19971
4286.0000 0.19934
4287.0000 0.19934
4288.0000 0.19934
4289.0000 0.19898
4290.0000 0.19898
4291.0000 0.19898
4292.0000 0.19861
4293.0000 0.19843
4294.0000 0.19806
4295.0000 0.1977
4296.0000 0.1977
4297.0000 0.19751
4298.0000 0.19715
4299.0000 0.19715
4300.0000 0.19679
4301.0000 0.19679
4302.0000 0.19643
4303.0000 0.19643
4304.0000 0.19643
4305.0000 0.19643
4306.0000 0.19625
4307.0000 0.19625
4308.0000 0.19625
4309.0000 0.19625
4310.0000 0.19625
4311.0000 0.19625
4312.0000 0.19588
4313.0000 0.19588
4314.0000 0.19588
4315.0000 0.19588
4316.0000 0.19588
4317.0000 0.19552
4318.0000 0.19516
4319.0000 0.19498
4320.0000 0.19427
4321.0000 0.19391
4322.0000 0.19337
4323.0000 0.19249
4324.0000 0.19178
4325.0000 0.19055
4326.0000 0.18967
4327.0000 0.18811
4328.0000 0.18672
4329.0000 0.18518
4330.0000 0.18315
4331.0000 0.18113
4332.0000 0.17881
4333.0000 0.1762
4334.0000 0.17378
4335.0000 0.17187
4336.0000 0.16967
4337.0000 0.16796
4338.0000 0.16642
4339.0000 0.16581
4340.0000 0.16535
4341.0000 0.16565
4342.0000 0.16642
4343.0000 0.16749
4344.0000 0.16936
4345.0000 0.17124
4346.0000 0.17346
4347.0000 0.17571
4348.0000 0.17766
4349.0000 0.17964
4350.0000 0.18113
4351.0000 0.18281
4352.0000 0.18433
4353.0000 0.18552
4354.0000 0.18672
4355.0000 0.18793
4356.0000 0.1888
4357.0000 0.18967
4358.0000 0.19037
4359.0000 0.1909
4360.0000 0.19125
4361.0000 0.1916
4362.0000 0.19178
4363.0000 0.19178
4364.0000 0.19178
4365.0000 0.19213
4366.0000 0.19213
4367.0000 0.19213
4368.0000 0.19213
4369.0000 0.19249
4370.0000 0.19249
4371.0000 0.19249
4372.0000 0.19249
4373.0000 0.19249
4374.0000 0.19249
4375.0000 0.19249
4376.0000 0.19249
4377.0000 0.19249
4378.0000 0.19249
4379.0000 0.19213
4380.0000 0.19213
4381.0000 0.19213
4382.0000 0.19213
4383.0000 0.19178
4384.0000 0.19178
4385.0000 0.1916
4386.0000 0.19125
4387.0000 0.19125
4388.0000 0.1909
4389.0000 0.1909
4390.0000 0.19055
4391.0000 0.19055
4392.0000 0.19037
4393.0000 0.19002
4394.0000 0.19002
4395.0000 0.19002
4396.0000 0.18967
4397.0000 0.18967
4398.0000 0.18967
4399.0000 0.18967
4400.0000 0.18967
4401.0000 0.18932
4402.0000 0.18932
4403.0000 0.18915
4404.0000 0.18915
4405.0000 0.1888
4406.0000 0.1888
4407.0000 0.18845
4408.0000 0.18845
4409.0000 0.18845
4410.0000 0.18811
4411.0000 0.18793
4412.0000 0.18793
4413.0000 0.18793
4414.0000 0.18759
4415.0000 0.18759
4416.0000 0.18759
4417.0000 0.18724
4418.0000 0.18724
4419.0000 0.18707
4420.0000 0.18672
4421.0000 0.18672
4422.0000 0.18672
4423.0000 0.18672
4424.0000 0.18638
4425.0000 0.18638
4426.0000 0.18638
4427.0000 0.18638
4428.0000 0.18638
4429.0000 0.18638
4430.0000 0.18604
4431.0000 0.18604
4432.0000 0.18604
4433.0000 0.18587
4434.0000 0.18552
4435.0000 0.18552
4436.0000 0.18552
4437.0000 0.18552
4438.0000 0.18552
4439.0000 0.18552
4440.0000 0.18518
4441.0000 0.18518
4442.0000 0.18518
4443.0000 0.18518
4444.0000 0.18518
4445.0000 0.18518
4446.0000 0.18484
4447.0000 0.18484
4448.0000 0.18484
4449.0000 0.18467
4450.0000 0.18467
4451.0000 0.18467
4452.0000 0.18467
4453.0000 0.18433
4454.0000 0.18433
4455.0000 0.18399
4456.0000 0.18399
4457.0000 0.18399
4458.0000 0.18365
4459.0000 0.18365
4460.0000 0.18348
4461.0000 0.18348
4462.0000 0.18348
4463.0000 0.18315
4464.0000 0.18315
4465.0000 0.18281
4466.0000 0.18281
4467.0000 0.18281
4468.0000 0.18247
4469.0000 0.18231
4470.0000 0.18231
4471.0000 0.18197
4472.0000 0.18197
4473.0000 0.18163
4474.0000 0.18147
4475.0000 0.18113
4476.0000 0.18113
4477.0000 0.1808
4478.0000 0.1808
4479.0000 0.1808
4480.0000 0.1808
4481.0000 0.1808
4482.0000 0.18047
4483.0000 0.18047
4484.0000 0.18047
4485.0000 0.1803
4486.0000 0.17997
4487.0000 0.17997
4488.0000 0.17997
4489.0000 0.17964
4490.0000 0.17964
4491.0000 0.17964
4492.0000 0.17964
4493.0000 0.17964
4494.0000 0.17964
4495.0000 0.17964
4496.0000 0.17964
4497.0000 0.17931
4498.0000 0.17914
4499.0000 0.17914
4500.0000 0.17914
4501.0000 0.17881
4502.0000 0.17881
4503.0000 0.17881
4504.0000 0.17848
4505.0000 0.17848
4506.0000 0.17848
4507.0000 0.17848
4508.0000 0.17816
4509.0000 0.17799
4510.0000 0.17799
4511.0000 0.17799
4512.0000 0.17799
4513.0000 0.17799
4514.0000 0.17799
4515.0000 0.17799
4516.0000 0.17766
4517.0000 0.17766
4518.0000 0.17799
4519.0000 0.17799
4520.0000 0.17799
4521.0000 0.17799
4522.0000 0.17799
4523.0000 0.17799
4524.0000 0.17799
4525.0000 0.17799
4526.0000 0.17799
4527.0000 0.17799
4528.0000 0.17799
4529.0000 0.17799
4530.0000 0.17766
4531.0000 0.17766
4532.0000 0.17766
4533.0000 0.17734
4534.0000 0.17685
4535.0000 0.17652
4536.0000 0.1762
4537.0000 0.17571
4538.0000 0.17539
4539.0000 0.17507
4540.0000 0.17507
4541.0000 0.17507
4542.0000 0.17507
4543.0000 0.17507
4544.0000 0.17507
4545.0000 0.17539
4546.0000 0.17539
4547.0000 0.17571
4548.0000 0.17571
4549.0000 0.17604
4550.0000 0.17604
4551.0000 0.1762
4552.0000 0.1762
4553.0000 0.1762
4554.0000 0.1762
4555.0000 0.1762
4556.0000 0.1762
4557.0000 0.17604
4558.0000 0.17604
4559.0000 0.17571
4560.0000 0.17571
4561.0000 0.17539
4562.0000 0.17539
4563.0000 0.17539
4564.0000 0.17507
4565.0000 0.17507
4566.0000 0.17507
4567.0000 0.17507
4568.0000 0.17507
4569.0000 0.17507
4570.0000 0.17507
4571.0000 0.1749
4572.0000 0.17458
4573.0000 0.17458
4574.0000 0.17458
4575.0000 0.17426
4576.0000 0.17426
4577.0000 0.17426
4578.0000 0.17426
4579.0000 0.17426
4580.0000 0.17426
4581.0000 0.17426
4582.0000 0.17426
4583.0000 0.17426
4584.0000 0.17394
4585.0000 0.17378
4586.0000 0.17378
4587.0000 0.17378
4588.0000 0.17346
4589.0000 0.17346
4590.0000 0.17346
4591.0000 0.17314
4592.0000 0.17314
4593.0000 0.17282
4594.0000 0.17266
4595.0000 0.17235
4596.0000 0.17235
4597.0000 0.17203
4598.0000 0.17203
4599.0000 0.17203
4600.0000 0.17187
4601.0000 0.17155
4602.0000 0.17155
4603.0000 0.17124
4604.0000 0.17124
4605.0000 0.17092
4606.0000 0.17092
4607.0000 0.17092
4608.0000 0.17092
4609.0000 0.17077
4610.0000 0.17077
4611.0000 0.17045
4612.0000 0.17045
4613.0000 0.17045
4614.0000 0.17045
4615.0000 0.17045
4616.0000 0.17045
4617.0000 0.17045
4618.0000 0.17045
4619.0000 0.17014
4620.0000 0.17014
4621.0000 0.17014
4622.0000 0.17014
4623.0000 0.16982
4624.0000 0.16982
4625.0000 0.16982
4626.0000 0.16982
4627.0000 0.16982
4628.0000 0.16982
4629.0000 0.16967
4630.0000 0.16967
4631.0000 0.16967
4632.0000 0.16967
4633.0000 0.16936
4634.0000 0.16936
4635.0000 0.16936
4636.0000 0.16936
4637.0000 0.16904
4638.0000 0.16904
4639.0000 0.16904
4640.0000 0.16904
4641.0000 0.16904
4642.0000 0.16904
4643.0000 0.16904
4644.0000 0.16873
4645.0000 0.16858
4646.0000 0.16858
4647.0000 0.16858
4648.0000 0.16858
4649.0000 0.16827
4650.0000 0.16827
4651.0000 0.16827
4652.0000 0.16796
4653.0000 0.16796
4654.0000 0.16765
4655.0000 0.16749
4656.0000 0.16749
4657.0000 0.16719
4658.0000 0.16719
4659.0000 0.16688
4660.0000 0.16688
4661.0000 0.16688
4662.0000 0.16672
4663.0000 0.16672
4664.0000 0.16642
4665.0000 0.16642
4666.0000 0.16642
4667.0000 0.16611
4668.0000 0.16611
4669.0000 0.16581
4670.0000 0.16565
4671.0000 0.16535
4672.0000 0.16474
4673.0000 0.16429
4674.0000 0.16353
4675.0000 0.16293
4676.0000 0.16218
4677.0000 0.16114
4678.0000 0.1601
4679.0000 0.15907
4680.0000 0.15776
4681.0000 0.1566
4682.0000 0.15531
4683.0000 0.15389
4684.0000 0.15332
4685.0000 0.1529
4686.0000 0.15318
4687.0000 0.15332
4688.0000 0.15389
4689.0000 0.15488
4690.0000 0.1556
4691.0000 0.1566
4692.0000 0.15762
4693.0000 0.15864
4694.0000 0.15966
4695.0000 0.1604
4696.0000 0.16114
4697.0000 0.16173
4698.0000 0.16218
4699.0000 0.16248
4700.0000 0.16144
4702.0000 0.16084
4704.0000 0.16114
4706.0000 0.16173
4708.0000 0.16188
4710.0000 0.16218
4712.0000 0.16218
4714.0000 0.16218
4716.0000 0.16218
4718.0000 0.16248
4720.0000 0.16248
4722.0000 0.16218
4724.0000 0.16218
4726.0000 0.16218
4728.0000 0.16188
4730.0000 0.16188
4732.0000 0.16173
4734.0000 0.16173
4736.0000 0.16173
4738.0000 0.16144
4740.0000 0.16144
4742.0000 0.16144
4744.0000 0.16114
4746.0000 0.16114
4748.0000 0.16084
4750.0000 0.16084
4752.0000 0.16069
4754.0000 0.1604
4756.0000 0.1604
4758.0000 0.1604
4760.0000 0.1601
4762.0000 0.1601
4764.0000 0.15981
4766.0000 0.15966
4768.0000 0.15937
4770.0000 0.15907
4772.0000 0.15878
4774.0000 0.15864
4776.0000 0.15834
4778.0000 0.15805
4780.0000 0.15805
4782.0000 0.15805
4784.0000 0.15805
4786.0000 0.15776
4788.0000 0.15762
4790.0000 0.15762
4792.0000 0.15762
4794.0000 0.15733
4796.0000 0.15733
4798.0000 0.15704
4800.0000 0.15704
4802.0000 0.15689
4804.0000 0.1566
4806.0000 0.1566
4808.0000 0.1566
4810.0000 0.15631
4812.0000 0.15631
4814.0000 0.15603
4816.0000 0.15603
4818.0000 0.15588
4820.0000 0.1556
4822.0000 0.1556
4824.0000 0.1556
4826.0000 0.1556
4828.0000 0.1556
4830.0000 0.1556
4832.0000 0.15531
4834.0000 0.15502
4836.0000 0.15488
4838.0000 0.1546
4840.0000 0.15389
4842.0000 0.15332
4844.0000 0.15234
4846.0000 0.15122
4848.0000 0.14997
4850.0000 0.14873
4852.0000 0.14682
4854.0000 0.14521
4856.0000 0.14361
4858.0000 0.14204
4860.0000 0.14048
4862.0000 0.13932
4864.0000 0.13906
4866.0000 0.13868
4868.0000 0.13868
4870.0000 0.13996
4872.0000 0.14112
4874.0000 0.14269
4876.0000 0.14454
4878.0000 0.14642
4880.0000 0.14832
4882.0000 0.14942
4884.0000 0.15094
4886.0000 0.15191
4888.0000 0.15219
4890.0000 0.15234
4892.0000 0.15262
4894.0000 0.15234
4896.0000 0.15219
4898.0000 0.15191
4900.0000 0.15164
4902.0000 0.15136
4904.0000 0.15136
4906.0000 0.15122
4908.0000 0.15094
4910.0000 0.15066
4912.0000 0.15066
4914.0000 0.15038
4916.0000 0.15024
4918.0000 0.15024
4920.0000 0.15024
4922.0000 0.15024
4924.0000 0.15038
4926.0000 0.15038
4928.0000 0.15066
4930.0000 0.15038
4932.0000 0.15038
4934.0000 0.15038
4936.0000 0.15024
4938.0000 0.14997
4940.0000 0.14997
4942.0000 0.14997
4944.0000 0.14969
4946.0000 0.14969
4948.0000 0.14969
4950.0000 0.14969
4952.0000 0.14942
4954.0000 0.14928
4956.0000 0.14928
4958.0000 0.149
4960.0000 0.149
4962.0000 0.14873
4964.0000 0.14859
4966.0000 0.14832
4968.0000 0.14832
4970.0000 0.14805
4972.0000 0.14805
4974.0000 0.14777
4976.0000 0.14777
4978.0000 0.14777
4980.0000 0.14764
4982.0000 0.14737
4984.0000 0.14737
4986.0000 0.1471
4988.0000 0.1471
4990.0000 0.1471
4992.0000 0.14682
4994.0000 0.14682
4996.0000 0.14682
4998.0000 0.14682
5000.0000 0.14669
5002.0000 0.14669
5004.0000 0.14642
5006.0000 0.14642
5008.0000 0.14642
5010.0000 0.14642
5012.0000 0.14615
5014.0000 0.14615
5016.0000 0.14615
5018.0000 0.14615
5020.0000 0.14588
5022.0000 0.14575
5024.0000 0.14548
5026.0000 0.14548
5028.0000 0.14521
5030.0000 0.14521
5032.0000 0.14521
5034.0000 0.14494
5036.0000 0.14481
5038.0000 0.14481
5040.0000 0.14454
5042.0000 0.14428
5044.0000 0.14428
5046.0000 0.14415
5048.0000 0.14388
5050.0000 0.14388
5052.0000 0.14361
5054.0000 0.14361
5056.0000 0.14335
5058.0000 0.14335
5060.0000 0.14335
5062.0000 0.14335
5064.0000 0.14322
5066.0000 0.14295
5068.0000 0.14295
5070.0000 0.14295
5072.0000 0.14295
5074.0000 0.14269
5076.0000 0.14243
5078.0000 0.1423
5080.0000 0.1423
5082.0000 0.14204
5084.0000 0.14204
5086.0000 0.14177
5088.0000 0.14177
5090.0000 0.14151
5092.0000 0.14138
5094.0000 0.14138
5096.0000 0.14112
5098.0000 0.14112
5100.0000 0.14086
5102.0000 0.14086
5104.0000 0.14086
5106.0000 0.1406
5108.0000 0.1406
5110.0000 0.14048
5112.0000 0.14048
5114.0000 0.14048
5116.0000 0.14022
5118.0000 0.14022
5120.0000 0.13996
5122.0000 0.13996
5124.0000 0.13996
5126.0000 0.13983
5128.0000 0.13983
5130.0000 0.13957
5132.0000 0.13957
5134.0000 0.13957
5136.0000 0.13957
5138.0000 0.13932
5140.0000 0.13932
5142.0000 0.13932
5144.0000 0.13906
5146.0000 0.13906
5148.0000 0.13906
5150.0000 0.1388
5152.0000 0.1388
5154.0000 0.13868
5156.0000 0.13868
5158.0000 0.13855
5160.0000 0.13842
5162.0000 0.13829
5164.0000 0.13829
5166.0000 0.13816
5168.0000 0.13804
5170.0000 0.13804
5172.0000 0.13791
5174.0000 0.13778
5176.0000 0.13778
5178.0000 0.13766
5180.0000 0.13753
5182.0000 0.13753
5184.0000 0.1374
5186.0000 0.13728
5188.0000 0.13715
5190.0000 0.13715
5192.0000 0.13702
5194.0000 0.1369
5196.0000 0.1369
5198.0000 0.13677
5200.0000 0.13665
5202.0000 0.13652
5204.0000 0.13652
5206.0000 0.13639
5208.0000 0.13627
5210.0000 0.13614
5212.0000 0.13602
5214.0000 0.13602
5216.0000 0.13577
5218.0000 0.13577
5220.0000 0.13577
5222.0000 0.13564
5224.0000 0.13564
5226.0000 0.13539
5228.0000 0.13539
5230.0000 0.13539
5232.0000 0.13515
5234.0000 0.13515
5236.0000 0.1349
5238.0000 0.13477
5240.0000 0.13452
5242.0000 0.13452
5244.0000 0.13428
5246.0000 0.13428
5248.0000 0.13428
5250.0000 0.13403
5252.0000 0.13403
5254.0000 0.13391
5256.0000 0.13391
5258.0000 0.13391
5260.0000 0.13391
5262.0000 0.13391
5264.0000 0.13391
5266.0000 0.13391
5268.0000 0.13391
5270.0000 0.13391
5272.0000 0.13391
5274.0000 0.13366
5276.0000 0.13366
5278.0000 0.13341
5280.0000 0.13341
5282.0000 0.13317
5284.0000 0.13305
5286.0000 0.1328
5288.0000 0.13256
5290.0000 0.13243
5292.0000 0.13219
5294.0000 0.13195
5296.0000 0.13195
5298.0000 0.1317
5300.0000 0.1317
5302.0000 0.13158
5304.0000 0.13134
5306.0000 0.13134
5308.0000 0.1311
5310.0000 0.1311
5312.0000 0.1311
5314.0000 0.1311
5316.0000 0.13086
5318.0000 0.13086
5320.0000 0.13086
5322.0000 0.13074
5324.0000 0.13074
5326.0000 0.13074
5328.0000 0.13074
5330.0000 0.1305
5332.0000 0.1305
5334.0000 0.13026
5336.0000 0.13026
5338.0000 0.13002
5340.0000 0.1299
5342.0000 0.1299
5344.0000 0.12966
5346.0000 0.12966
5348.0000 0.12942
5350.0000 0.12942
5352.0000 0.12906
5354.0000 0.12906
5356.0000 0.12906
5358.0000 0.12883
5360.0000 0.12883
5362.0000 0.12883
5364.0000 0.12859
5366.0000 0.12859
5368.0000 0.12859
5370.0000 0.12859
5372.0000 0.12847
5374.0000 0.12847
5376.0000 0.12823
5378.0000 0.12823
5380.0000 0.12823
5382.0000 0.128
5384.0000 0.128
5386.0000 0.12776
5388.0000 0.12776
5390.0000 0.12764
5392.0000 0.12741
5394.0000 0.12717
5396.0000 0.12694
5398.0000 0.12682
5400.0000 0.12636
5402.0000 0.12601
5404.0000 0.12555
5406.0000 0.1252
5408.0000 0.12474
5410.0000 0.12462
5412.0000 0.12417
5414.0000 0.12394
5416.0000 0.12394
5418.0000 0.12394
5420.0000 0.12417
5422.0000 0.12439
5424.0000 0.12462
5426.0000 0.12474
5428.0000 0.12497
5430.0000 0.1252
5432.0000 0.12555
5434.0000 0.12555
5436.0000 0.12555
5438.0000 0.12578
5440.0000 0.12555
5442.0000 0.12555
5444.0000 0.12555
5446.0000 0.12555
5448.0000 0.12531
5450.0000 0.1252
5452.0000 0.1252
5454.0000 0.12497
5456.0000 0.12497
5458.0000 0.12474
5460.0000 0.12474
5462.0000 0.12462
5464.0000 0.12462
5466.0000 0.12439
5468.0000 0.12439
5470.0000 0.12439
5472.0000 0.12417
5474.0000 0.12417
5476.0000 0.12394
5478.0000 0.12394
5480.0000 0.12382
5482.0000 0.12359
5484.0000 0.12359
5486.0000 0.12337
5488.0000 0.12337
5490.0000 0.12314
5492.0000 0.12303
5494.0000 0.12303
5496.0000 0.12303
5498.0000 0.1228
5500.0000 0.1228
5502.0000 0.1228
5504.0000 0.12257
5506.0000 0.12257
5508.0000 0.12257
5510.0000 0.12257
5512.0000 0.12257
5514.0000 0.12235
5516.0000 0.12235
5518.0000 0.12224
5520.0000 0.12224
5522.0000 0.12201
5524.0000 0.12201
5526.0000 0.12201
5528.0000 0.12201
5530.0000 0.12179
5532.0000 0.12179
5534.0000 0.12179
5536.0000 0.12179
5538.0000 0.12179
5540.0000 0.12167
5542.0000 0.12145
5544.0000 0.12145
5546.0000 0.12123
5548.0000 0.12123
5550.0000 0.121
5552.0000 0.12089
5554.0000 0.12089
5556.0000 0.12067
5558.0000 0.12067
5560.0000 0.12067
5562.0000 0.12045
5564.0000 0.12045
5566.0000 0.12045
5568.0000 0.12045
5570.0000 0.12023
5572.0000 0.12023
5574.0000 0.12023
5576.0000 0.12012
5578.0000 0.12012
5580.0000 0.12012
5582.0000 0.11989
5584.0000 0.11989
5586.0000 0.11989
5588.0000 0.11989
5590.0000 0.11989
5592.0000 0.11967
5594.0000 0.11967
5596.0000 0.11945
5598.0000 0.11934
5600.0000 0.11934
5602.0000 0.11912
5604.0000 0.11912
5606.0000 0.11912
5608.0000 0.1189
5610.0000 0.1189
5612.0000 0.1189
5614.0000 0.11869
5616.0000 0.11858
5618.0000 0.11858
5620.0000 0.11836
5622.0000 0.11836
5624.0000 0.11814
5626.0000 0.11814
5628.0000 0.11803
5630.0000 0.11781
5632.0000 0.11781
5634.0000 0.11781
5636.0000 0.1176
5638.0000 0.1176
5640.0000 0.11738
5642.0000 0.11738
5644.0000 0.11738
5646.0000 0.11738
5648.0000 0.11727
5650.0000 0.11727
5652.0000 0.11706
5654.0000 0.11706
5656.0000 0.11684
5658.0000 0.11684
5660.0000 0.11684
5662.0000 0.11663
5664.0000 0.11652
5666.0000 0.11652
5668.0000 0.11631
5670.0000 0.11631
5672.0000 0.11631
5674.0000 0.11609
5676.0000 0.11609
5678.0000 0.11609
5680.0000 0.11609
5682.0000 0.11588
5684.0000 0.11577
5686.0000 0.11577
5688.0000 0.11556
5690.0000 0.11556
5692.0000 0.11534
5694.0000 0.11534
5696.0000 0.11534
5698.0000 0.11534
5700.0000 0.11534
5702.0000 0.11513
5704.0000 0.11513
5706.0000 0.11513
5708.0000 0.11503
5710.0000 0.11503
5712.0000 0.11503
5714.0000 0.11503
5716.0000 0.11482
5718.0000 0.11482
5720.0000 0.11482
5722.0000 0.1146
5724.0000 0.1146
5726.0000 0.1146
5728.0000 0.1145
5730.0000 0.1145
5732.0000 0.1145
5734.0000 0.1145
5736.0000 0.11429
5738.0000 0.11429
5740.0000 0.11429
5742.0000 0.11429
5744.0000 0.11429
5746.0000 0.11408
5748.0000 0.11408
5750.0000 0.11408
5752.0000 0.11387
5754.0000 0.11387
5756.0000 0.11387
5758.0000 0.11376
5760.0000 0.11355
5762.0000 0.11355
5764.0000 0.11355
5766.0000 0.11355
5768.0000 0.11334
5770.0000 0.11334
5772.0000 0.11334
5774.0000 0.11314
5776.0000 0.11303
5778.0000 0.11303
5780.0000 0.11303
5782.0000 0.11282
5784.0000 0.11282
5786.0000 0.11282
5788.0000 0.11282
5790.0000 0.11262
5792.0000 0.11262
5794.0000 0.11262
5796.0000 0.11241
5798.0000 0.11231
5800.0000 0.11231
5802.0000 0.11231
5804.0000 0.1121
5806.0000 0.1121
5808.0000 0.1121
5810.0000 0.1121
5812.0000 0.1121
5814.0000 0.11189
5816.0000 0.11189
5818.0000 0.11189
5820.0000 0.11169
5822.0000 0.11158
5824.0000 0.11158
5826.0000 0.11158
5828.0000 0.11138
5830.0000 0.11138
5832.0000 0.11117
5834.0000 0.11117
5836.0000 0.11107
5838.0000 0.11087
5840.0000 0.11087
5842.0000 0.11066
5844.0000 0.11066
5846.0000 0.11066
5848.0000 0.11046
5850.0000 0.11046
5852.0000 0.11046
5854.0000 0.11036
5856.0000 0.11015
5858.0000 0.11015
5860.0000 0.11015
5862.0000 0.11015
5864.0000 0.11015
5866.0000 0.10995
5868.0000 0.10995
5870.0000 0.10995
5872.0000 0.10975
5874.0000 0.10965
5876.0000 0.10965
5878.0000 0.10945
5880.0000 0.10945
5882.0000 0.10945
5884.0000 0.10945
5886.0000 0.10924
5888.0000 0.10924
5890.0000 0.10924
5892.0000 0.10924
5894.0000 0.10904
5896.0000 0.10894
5898.0000 0.10894
5900.0000 0.10894
5902.0000 0.10874
5904.0000 0.10874
5906.0000 0.10874
5908.0000 0.10874
5910.0000 0.10854
5912.0000 0.10854
5914.0000 0.10844
5916.0000 0.10824
5918.0000 0.10824
5920.0000 0.10824
5922.0000 0.10804
5924.0000 0.10804
5926.0000 0.10804
5928.0000 0.10804
5930.0000 0.10804
5932.0000 0.10804
5934.0000 0.10785
5936.0000 0.10785
5938.0000 0.10785
5940.0000 0.10775
5942.0000 0.10755
5944.0000 0.10755
5946.0000 0.10755
5948.0000 0.10735
5950.0000 0.10735
5952.0000 0.10735
5954.0000 0.10735
5956.0000 0.10715
5958.0000 0.10715
5960.0000 0.10715
5962.0000 0.10715
5964.0000 0.10705
5966.0000 0.10686
5968.0000 0.10686
5970.0000 0.10686
5972.0000 0.10686
5974.0000 0.10666
5976.0000 0.10666
5978.0000 0.10666
5980.0000 0.10666
5982.0000 0.10646
5984.0000 0.10646
5986.0000 0.10637
5988.0000 0.10637
5990.0000 0.10637
5992.0000 0.10637
5994.0000 0.10617
5996.0000 0.10617
5998.0000 0.10617
6000.0000 0.10617
6002.0000 0.10597
6004.0000 0.10597
6006.0000 0.10597
6008.0000 0.10578
6010.0000 0.10568
6012.0000 0.10568
6014.0000 0.10568
6016.0000 0.10568
6018.0000 0.10549
6020.0000 0.10549
6022.0000 0.10549
6024.0000 0.10529
6026.0000 0.10529
6028.0000 0.10529
6030.0000 0.1052
6032.0000 0.1052
6034.0000 0.105
6036.0000 0.105
6038.0000 0.105
6040.0000 0.10481
6042.0000 0.10481
6044.0000 0.10481
6046.0000 0.10481
6048.0000 0.10462
6050.0000 0.10462
6052.0000 0.10462
6054.0000 0.10462
6056.0000 0.10452
6058.0000 0.10433
6060.0000 0.10433
6062.0000 0.10433
6064.0000 0.10414
6066.0000 0.10414
6068.0000 0.10414
6070.0000 0.10414
6072.0000 0.10394
6074.0000 0.10385
6076.0000 0.10385
6078.0000 0.10385
6080.0000 0.10385
6082.0000 0.10366
6084.0000 0.10366
6086.0000 0.10366
6088.0000 0.10347
6090.0000 0.10347
6092.0000 0.10347
6094.0000 0.10328
6096.0000 0.10328
6098.0000 0.10318
6100.0000 0.10318
6102.0000 0.10318
6104.0000 0.10318
6106.0000 0.10299
6108.0000 0.10299
6110.0000 0.10299
6112.0000 0.1028
6114.0000 0.1028
6116.0000 0.1028
6118.0000 0.10261
6120.0000 0.10261
6122.0000 0.10252
6124.0000 0.10252
6126.0000 0.10252
6128.0000 0.10252
6130.0000 0.10252
6132.0000 0.10233
6134.0000 0.10233
6136.0000 0.10233
6138.0000 0.10214
6140.0000 0.10214
6142.0000 0.10214
6144.0000 0.10205
6146.0000 0.10186
6148.0000 0.10186
6150.0000 0.10167
6152.0000 0.10167
6154.0000 0.10167
6156.0000 0.10148
6158.0000 0.10148
6160.0000 0.10139
6162.0000 0.1012
6164.0000 0.10102
6166.0000 0.10102
6168.0000 0.10083
6170.0000 0.10083
6172.0000 0.10074
6174.0000 0.10074
6176.0000 0.10074
6178.0000 0.10055
6180.0000 0.10055
6182.0000 0.10037
6184.0000 0.10037
6186.0000 0.10018
6188.0000 0.10009
6190.0000 0.10009
6192.0000 0.099908
6194.0000 0.099908
6196.0000 0.099908
6198.0000 0.099724
6200.0000 0.099724
6202.0000 0.099724
6204.0000 0.099724
6206.0000 0.09954
6208.0000 0.099449
6210.0000 0.099449
6212.0000 0.099449
6214.0000 0.099266
6216.0000 0.099083
6218.0000 0.099083
6220.0000 0.098992
6222.0000 0.098809
6224.0000 0.098809
6226.0000 0.098628
6228.0000 0.098628
6230.0000 0.098628
6232.0000 0.098447
6234.0000 0.098447
6236.0000 0.098447
6238.0000 0.098447
6240.0000 0.098447
6242.0000 0.098447
6244.0000 0.098447
6246.0000 0.098356
6248.0000 0.098356
6250.0000 0.098174
6252.0000 0.098174
6254.0000 0.098174
6256.0000 0.097994
6258.0000 0.097994
6260.0000 0.097994
6262.0000 0.097994
6264.0000 0.097994
6266.0000 0.097813
6268.0000 0.097724
6270.0000 0.097724
6272.0000 0.097544
6274.0000 0.097544
6276.0000 0.097364
6278.0000 0.097185
6280.0000 0.097096
6282.0000 0.097096
6284.0000 0.097096
6286.0000 0.097096
6288.0000 0.097096
6290.0000 0.097096
6292.0000 0.096917
6294.0000 0.096917
6296.0000 0.096917
6298.0000 0.096917
6300.0000 0.096739
6302.0000 0.096739
6304.0000 0.096739
6306.0000 0.096739
6308.0000 0.096739
6310.0000 0.096739
6312.0000 0.096739
6314.0000 0.096739
6316.0000 0.09665
6318.0000 0.09665
6320.0000 0.096472
6322.0000 0.096472
6324.0000 0.096472
6326.0000 0.096472
6328.0000 0.096472
6330.0000 0.096472
6332.0000 0.096294
6334.0000 0.096294
6336.0000 0.096294
6338.0000 0.096117
6340.0000 0.096117
6342.0000 0.096029
6344.0000 0.095852
6346.0000 0.095852
6348.0000 0.095675
6350.0000 0.095675
6352.0000 0.095499
6354.0000 0.095499
6356.0000 0.095499
6358.0000 0.095411
6360.0000 0.095411
6362.0000 0.095411
6364.0000 0.095236
6366.0000 0.095236
6368.0000 0.095236
6370.0000 0.09506
6372.0000 0.09506
6374.0000 0.09506
6376.0000 0.094885
6378.0000 0.094798
6380.0000 0.094798
6382.0000 0.094624
6384.0000 0.094624
6386.0000 0.094624
6388.0000 0.094449
6390.0000 0.094449
6392.0000 0.094449
6394.0000 0.094276
6396.0000 0.094449
6398.0000 0.094449
6400.0000 0.094449
6402.0000 0.094449
6404.0000 0.094449
6406.0000 0.094449
6408.0000 0.094276
6410.0000 0.094276
6412.0000 0.094276
6414.0000 0.094276
6416.0000 0.094189
6418.0000 0.094189
6420.0000 0.094189
6422.0000 0.094016
6424.0000 0.094016
6426.0000 0.094016
6428.0000 0.093842
6430.0000 0.093842
6432.0000 0.093842
6434.0000 0.093842
6436.0000 0.093842
6438.0000 0.093756
6440.0000 0.093756
6442.0000 0.093756
6444.0000 0.093584
6446.0000 0.093584
6448.0000 0.093584
6450.0000 0.093584
6452.0000 0.093584
6454.0000 0.093584
6456.0000 0.093411
6458.0000 0.093411
6460.0000 0.093411
6462.0000 0.093239
6464.0000 0.093239
6466.0000 0.093239
6468.0000 0.093154
6470.0000 0.092982
6472.0000 0.092982
6474.0000 0.092982
6476.0000 0.092811
6478.0000 0.092811
6480.0000 0.092811
6482.0000 0.09264
6484.0000 0.092555
6486.0000 0.092555
6488.0000 0.092385
6490.0000 0.092385
6492.0000 0.092215
6494.0000 0.092045
6496.0000 0.09196
6498.0000 0.091791
6500.0000 0.091791
6502.0000 0.091622
6504.0000 0.091369
6506.0000 0.091201
6508.0000 0.090949
6510.0000 0.090615
6512.0000 0.090365
6514.0000 0.090033
6516.0000 0.089784
6518.0000 0.089619
6520.0000 0.089207
6522.0000 0.089043
6524.0000 0.088879
6526.0000 0.088634
6528.0000 0.088471
6530.0000 0.088308
6532.0000 0.088064
6534.0000 0.087902
6536.0000 0.087659
6538.0000 0.087337
6540.0000 0.087096
6542.0000 0.086536
6544.0000 0.08598
6546.0000 0.085428
6548.0000 0.084489
6550.0000 0.083791
6552.0000 0.08287
6554.0000 0.081808
6556.0000 0.080909
6558.0000 0.08002
6560.0000 0.079214
6562.0000 0.078487
6564.0000 0.077983
6566.0000 0.077983
6568.0000 0.077983
6570.0000 0.078199
6572.0000 0.07885
6574.0000 0.079579
6576.0000 0.080389
6578.0000 0.081283
6580.0000 0.082186
6582.0000 0.0831
6584.0000 0.083791
6586.0000 0.084489
6588.0000 0.085114
6590.0000 0.085664
6592.0000 0.08598
6594.0000 0.086377
6596.0000 0.086776
6598.0000 0.086936
6600.0000 0.087176
6602.0000 0.087337
6604.0000 0.087659
6606.0000 0.087741
6608.0000 0.087902
6610.0000 0.088064
6612.0000 0.088226
6614.0000 0.088308
6616.0000 0.088308
6618.0000 0.088471
6620.0000 0.088471
6622.0000 0.088471
6624.0000 0.088471
6626.0000 0.088471
6628.0000 0.088471
6630.0000 0.088471
6632.0000 0.088471
6634.0000 0.088471
6636.0000 0.088471
6638.0000 0.088471
6640.0000 0.088471
6642.0000 0.088308
6644.0000 0.088308
6646.0000 0.088308
6648.0000 0.088308
6650.0000 0.088308
6652.0000 0.088226
6654.0000 0.088226
6656.0000 0.088064
6658.0000 0.088064
6660.0000 0.088064
6662.0000 0.087902
6664.0000 0.087902
6666.0000 0.087741
6668.0000 0.087741
6670.0000 0.087741
6672.0000 0.087659
6674.0000 0.087659
6676.0000 0.087498
6678.0000 0.087498
6680.0000 0.087498
6682.0000 0.087498
6684.0000 0.087498
6686.0000 0.087337
6688.0000 0.087337
6690.0000 0.087337
6692.0000 0.087176
6694.0000 0.087096
6696.0000 0.087096
6698.0000 0.087096
6700.0000 0.086936
6702.0000 0.086936
6704.0000 0.086776
6706.0000 0.086776
6708.0000 0.086617
6710.0000 0.086536
6712.0000 0.086536
6714.0000 0.086377
6716.0000 0.086377
6718.0000 0.086218
6720.0000 0.086218
6722.0000 0.086218
6724.0000 0.086139
6726.0000 0.086139
6728.0000 0.08598
6730.0000 0.08598
6732.0000 0.08598
6734.0000 0.08598
6736.0000 0.08598
6738.0000 0.08598
6740.0000 0.08598
6742.0000 0.085822
6744.0000 0.085822
6746.0000 0.085822
6748.0000 0.085822
6750.0000 0.085664
6752.0000 0.085664
6754.0000 0.085664
6756.0000 0.085585
6758.0000 0.085428
6760.0000 0.085428
6762.0000 0.085428
6764.0000 0.085271
6766.0000 0.085271
6768.0000 0.085271
6770.0000 0.085271
6772.0000 0.085271
6774.0000 0.085271
6776.0000 0.085271
6778.0000 0.085271
6780.0000 0.085271
6782.0000 0.085271
6784.0000 0.085114
6786.0000 0.085114
6788.0000 0.085114
6790.0000 0.085035
6792.0000 0.085035
6794.0000 0.084879
6796.0000 0.084879
6798.0000 0.084723
6800.0000 0.084723
6802.0000 0.084723
6804.0000 0.084567
6806.0000 0.084567
6808.0000 0.084489
6810.0000 0.084489
6812.0000 0.084333
6814.0000 0.084333
6816.0000 0.084178
6818.0000 0.084178
6820.0000 0.084178
6822.0000 0.084178
6824.0000 0.084178
6826.0000 0.084178
6828.0000 0.084178
6830.0000 0.084178
6832.0000 0.084178
6834.0000 0.084023
6836.0000 0.084023
6838.0000 0.083946
6840.0000 0.083946
6842.0000 0.083946
6844.0000 0.083946
6846.0000 0.083869
6848.0000 0.083869
6850.0000 0.083869
6852.0000 0.083791
6854.0000 0.083791
6856.0000 0.083791
6858.0000 0.083714
6860.0000 0.083714
6862.0000 0.083637
6864.0000 0.083637
6866.0000 0.083637
6868.0000 0.08356
6870.0000 0.08356
6872.0000 0.08356
6874.0000 0.083483
6876.0000 0.083483
6878.0000 0.083406
6880.0000 0.083406
6882.0000 0.083406
6884.0000 0.08333
6886.0000 0.08333
6888.0000 0.083253
6890.0000 0.083253
6892.0000 0.083253
6894.0000 0.083176
6896.0000 0.083176
6898.0000 0.0831
6900.0000 0.0831
6902.0000 0.083023
6904.0000 0.083023
6906.0000 0.083023
6908.0000 0.082947
6910.0000 0.082947
6912.0000 0.08287
6914.0000 0.08287
6916.0000 0.082794
6918.0000 0.082794
6920.0000 0.082718
6922.0000 0.082718
6924.0000 0.082718
6926.0000 0.082642
6928.0000 0.082642
6930.0000 0.082566
6932.0000 0.082566
6934.0000 0.08249
6936.0000 0.08249
6938.0000 0.082414
6940.0000 0.082414
6942.0000 0.082338
6944.0000 0.082338
6946.0000 0.082262
6948.0000 0.082262
6950.0000 0.082186
6952.0000 0.082186
6954.0000 0.082186
6956.0000 0.082035
6958.0000 0.081959
6960.0000 0.081959
6962.0000 0.081959
6964.0000 0.081808
6966.0000 0.081808
6968.0000 0.081808
6970.0000 0.081808
6972.0000 0.081808
6974.0000 0.081808
6976.0000 0.081808
6978.0000 0.081658
6980.0000 0.081658
6982.0000 0.081658
6984.0000 0.081658
6986.0000 0.081658
6988.0000 0.081658
6990.0000 0.081658
6992.0000 0.081658
6994.0000 0.081658
6996.0000 0.081658
6998.0000 0.081508
7000.0000 0.081508
7002.0000 0.081508
7004.0000 0.081508
7006.0000 0.081433
7008.0000 0.081433
7010.0000 0.081433
7012.0000 0.081433
7014.0000 0.081433
7016.0000 0.081283
7018.0000 0.081283
7020.0000 0.081283
7022.0000 0.081133
7024.0000 0.081133
7026.0000 0.081059
7028.0000 0.081059
7030.0000 0.081059
7032.0000 0.081059
7034.0000 0.081059
7036.0000 0.081059
7038.0000 0.081133
7040.0000 0.081133
7042.0000 0.081133
7044.0000 0.081133
7046.0000 0.081133
7048.0000 0.081059
7050.0000 0.081059
7052.0000 0.080909
7054.0000 0.08076
7056.0000 0.08076
7058.0000 0.080612
7060.0000 0.080612
7062.0000 0.080538
7064.0000 0.080389
7066.0000 0.080389
7068.0000 0.080242
7070.0000 0.080242
7072.0000 0.080094
7074.0000 0.08002
7076.0000 0.08002
7078.0000 0.079873
7080.0000 0.079873
7082.0000 0.079726
7084.0000 0.079726
7086.0000 0.079726
7088.0000 0.079726
7090.0000 0.079579
7092.0000 0.079506
7094.0000 0.079506
7096.0000 0.079506
7098.0000 0.079506
7100.0000 0.07936
7102.0000 0.07936
7104.0000 0.07936
7106.0000 0.07936
7108.0000 0.07936
7110.0000 0.07936
7112.0000 0.07936
7114.0000 0.079214
7116.0000 0.079214
7118.0000 0.079214
7120.0000 0.078995
7122.0000 0.078995
7124.0000 0.07885
7126.0000 0.078704
7128.0000 0.078632
7130.0000 0.078487
7132.0000 0.078487
7134.0000 0.078343
7136.0000 0.078199
7138.0000 0.078199
7140.0000 0.078127
7142.0000 0.077983
7144.0000 0.077983
7146.0000 0.077983
7148.0000 0.077983
7150.0000 0.077983
7152.0000 0.077983
7154.0000 0.078127
7156.0000 0.078127
7158.0000 0.078127
7160.0000 0.078127
7162.0000 0.078127
7164.0000 0.078199
7166.0000 0.078199
7168.0000 0.078127
7170.0000 0.078127
7172.0000 0.078127
7174.0000 0.077983
7176.0000 0.077983
7178.0000 0.077983
7180.0000 0.077983
7182.0000 0.077839
7184.0000 0.077839
7186.0000 0.077696
7188.0000 0.077625
7190.0000 0.077625
7192.0000 0.077482
7194.0000 0.077339
7196.0000 0.077339
7198.0000 0.077339
7200.0000 0.077197
7202.0000 0.077126
7204.0000 0.077126
7206.0000 0.077126
7208.0000 0.076984
7210.0000 0.077126
7212.0000 0.077197
7214.0000 0.077339
7216.0000 0.077339
7218.0000 0.077482
7220.0000 0.077482
7222.0000 0.077482
7224.0000 0.077482
7226.0000 0.077482
7228.0000 0.077339
7230.0000 0.077339
7232.0000 0.077339
7234.0000 0.077339
7236.0000 0.077339
7238.0000 0.077197
7240.0000 0.077197
7242.0000 0.077197
7244.0000 0.077197
7246.0000 0.077197
7248.0000 0.077197
7250.0000 0.077197
7252.0000 0.077126
7254.0000 0.077126
7256.0000 0.077126
7258.0000 0.077126
7260.0000 0.077126
7262.0000 0.076984
7264.0000 0.076984
7266.0000 0.076984
7268.0000 0.076984
7270.0000 0.076842
7272.0000 0.076842
7274.0000 0.076772
7276.0000 0.076772
7278.0000 0.07663
7280.0000 0.07663
7282.0000 0.07663
7284.0000 0.076772
7286.0000 0.076842
7288.0000 0.076842
7290.0000 0.076842
7292.0000 0.076842
7294.0000 0.076842
7296.0000 0.076842
7298.0000 0.076772
7300.0000 0.07663
7302.0000 0.07663
7304.0000 0.07663
7306.0000 0.076489
7308.0000 0.076489
7310.0000 0.076489
7312.0000 0.076489
7314.0000 0.076348
7316.0000 0.076348
7318.0000 0.076348
7320.0000 0.076278
7322.0000 0.076138
7324.0000 0.076138
7326.0000 0.075998
7328.0000 0.075998
7330.0000 0.075858
7332.0000 0.075858
7334.0000 0.075858
7336.0000 0.075858
7338.0000 0.075788
7340.0000 0.075788
7342.0000 0.075648
7344.0000 0.075648
7346.0000 0.075648
7348.0000 0.075648
7350.0000 0.075648
7352.0000 0.075648
7354.0000 0.075648
7356.0000 0.075648
7358.0000 0.075648
7360.0000 0.075509
7362.0000 0.075509
7364.0000 0.075509
7366.0000 0.075509
7368.0000 0.075509
7370.0000 0.07537
7372.0000 0.07537
7374.0000 0.07537
7376.0000 0.07537
7378.0000 0.07537
7380.0000 0.075301
7382.0000 0.075301
7384.0000 0.075301
7386.0000 0.075162
7388.0000 0.075162
7390.0000 0.075024
7392.0000 0.075024
7394.0000 0.075024
7396.0000 0.074886
7398.0000 0.074886
7400.0000 0.074886
7402.0000 0.074817
7404.0000 0.074817
7406.0000 0.074817
7408.0000 0.074817
7410.0000 0.074679
7412.0000 0.074679
7414.0000 0.074679
7416.0000 0.074679
7418.0000 0.074679
7420.0000 0.074679
7422.0000 0.074679
7424.0000 0.074679
7426.0000 0.074679
7428.0000 0.074679
7430.0000 0.074542
7432.0000 0.074542
7434.0000 0.074542
7436.0000 0.074542
7438.0000 0.074473
7440.0000 0.074336
7442.0000 0.074199
7444.0000 0.074199
7446.0000 0.074063
7448.0000 0.074063
7450.0000 0.074063
7452.0000 0.073995
7454.0000 0.073995
7456.0000 0.073995
7458.0000 0.073995
7460.0000 0.073995
7462.0000 0.073995
7464.0000 0.073858
7466.0000 0.073858
7468.0000 0.073858
7470.0000 0.073858
7472.0000 0.073858
7474.0000 0.073858
7476.0000 0.073858
7478.0000 0.073858
7480.0000 0.073722
7482.0000 0.073722
7484.0000 0.073722
7486.0000 0.073722
7488.0000 0.073722
7490.0000 0.073722
7492.0000 0.073587
7494.0000 0.073587
7496.0000 0.073519
7498.0000 0.073519
7500.0000 0.073519
7502.0000 0.073519
7504.0000 0.073384
7506.0000 0.073384
7508.0000 0.073384
7510.0000 0.073249
7512.0000 0.073249
7514.0000 0.073249
7516.0000 0.073114
7518.0000 0.073047
7520.0000 0.073047
7522.0000 0.073047
7524.0000 0.072912
7526.0000 0.072912
7528.0000 0.072912
7530.0000 0.072912
7532.0000 0.072912
7534.0000 0.072912
7536.0000 0.073047
7538.0000 0.073047
7540.0000 0.073047
7542.0000 0.073047
7544.0000 0.073047
7546.0000 0.073047
7548.0000 0.072912
7550.0000 0.072845
7552.0000 0.072778
7554.0000 0.072778
7556.0000 0.072778
7558.0000 0.072711
7560.0000 0.072711
7562.0000 0.072644
7564.0000 0.072644
7566.0000 0.072644
7568.0000 0.072577
7570.0000 0.072577
7572.0000 0.072577
7574.0000 0.07251
7576.0000 0.07251
7578.0000 0.072444
7580.0000 0.072444
7582.0000 0.072444
7584.0000 0.072377
7586.0000 0.072377
7588.0000 0.07231
7590.0000 0.07231
7592.0000 0.072244
7594.0000 0.072244
7596.0000 0.072177
7598.0000 0.072177
7600.0000 0.072177
7602.0000 0.072111
7604.0000 0.072111
7606.0000 0.072044
7608.0000 0.072044
7610.0000 0.071978
7612.0000 0.071978
7614.0000 0.071911
7616.0000 0.071911
7618.0000 0.071845
7620.0000 0.071845
7622.0000 0.071779
7624.0000 0.071779
7626.0000 0.071713
7628.0000 0.071713
7630.0000 0.071647
7632.0000 0.071581
7634.0000 0.071581
7636.0000 0.071516
7638.0000 0.071516
7640.0000 0.07145
7642.0000 0.07145
7644.0000 0.071384
7646.0000 0.071318
7648.0000 0.071318
7650.0000 0.071253
7652.0000 0.071253
7654.0000 0.071187
7656.0000 0.071121
7658.0000 0.071121
7660.0000 0.071056
7662.0000 0.071056
7664.0000 0.07099
7666.0000 0.070925
7668.0000 0.070925
7670.0000 0.07086
7672.0000 0.070795
7674.0000 0.070795
7676.0000 0.070729
7678.0000 0.070664
7680.0000 0.070664
7682.0000 0.070599
7684.0000 0.070534
7686.0000 0.070534
7688.0000 0.070469
7690.0000 0.070404
7692.0000 0.070275
7694.0000 0.070275
7696.0000 0.070145
7698.0000 0.070145
7700.0000 0.070145
7702.0000 0.070081
7704.0000 0.070081
7706.0000 0.069952
7708.0000 0.069952
7710.0000 0.070081
7712.0000 0.070081
7714.0000 0.070081
7716.0000 0.070081
7718.0000 0.069952
7720.0000 0.069952
7722.0000 0.069952
7724.0000 0.069823
7726.0000 0.069823
7728.0000 0.069695
7730.0000 0.06963
7732.0000 0.069502
7734.0000 0.069502
7736.0000 0.069375
7738.0000 0.069375
7740.0000 0.069375
7742.0000 0.069375
7744.0000 0.069375
7746.0000 0.069375
7748.0000 0.069375
7750.0000 0.069375
7752.0000 0.069375
7754.0000 0.069375
7756.0000 0.069375
7758.0000 0.069375
7760.0000 0.069375
7762.0000 0.069247
7764.0000 0.069247
7766.0000 0.069247
7768.0000 0.069247
7770.0000 0.069247
7772.0000 0.069183
7774.0000 0.069183
7776.0000 0.069183
7778.0000 0.069183
7780.0000 0.069056
7782.0000 0.069056
7784.0000 0.069056
7786.0000 0.069056
7788.0000 0.068929
7790.0000 0.068929
7792.0000 0.068929
7794.0000 0.068802
7796.0000 0.068738
7798.0000 0.068738
7800.0000 0.068612
7802.0000 0.068612
7804.0000 0.068486
7806.0000 0.068486
7808.0000 0.068486
7810.0000 0.068486
7812.0000 0.068423
7814.0000 0.068423
7816.0000 0.068423
7818.0000 0.068423
7820.0000 0.068296
7822.0000 0.068296
7824.0000 0.068296
7826.0000 0.068296
7828.0000 0.068296
7830.0000 0.068296
7832.0000 0.068171
7834.0000 0.068171
7836.0000 0.068171
7838.0000 0.068046
7840.0000 0.068046
7842.0000 0.068046
7844.0000 0.068046
7846.0000 0.067983
7848.0000 0.067983
7850.0000 0.067983
7852.0000 0.068046
7854.0000 0.068046
7856.0000 0.068046
7858.0000 0.068046
7860.0000 0.068046
7862.0000 0.068046
7864.0000 0.067983
7866.0000 0.067983
7868.0000 0.067858
7870.0000 0.067858
7872.0000 0.067858
7874.0000 0.067858
7876.0000 0.067858
7878.0000 0.067858
7880.0000 0.067858
7882.0000 0.067733
7884.0000 0.067733
7886.0000 0.067733
7888.0000 0.067733
7890.0000 0.067733
7892.0000 0.067733
7894.0000 0.067733
7896.0000 0.067733
7898.0000 0.067733
7900.0000 0.067733
7902.0000 0.067733
7904.0000 0.067608
7906.0000 0.067608
7908.0000 0.067608
7910.0000 0.067546
7912.0000 0.067546
7914.0000 0.067421
7916.0000 0.067421
7918.0000 0.067421
7920.0000 0.067421
7922.0000 0.067421
7924.0000 0.067421
7926.0000 0.067298
7928.0000 0.067298
7930.0000 0.067174
7932.0000 0.067112
7934.0000 0.067112
7936.0000 0.067112
7938.0000 0.067112
7940.0000 0.067112
7942.0000 0.067112
7944.0000 0.067112
7946.0000 0.067112
7948.0000 0.067112
7950.0000 0.066988
7952.0000 0.066988
7954.0000 0.066988
7956.0000 0.066988
7958.0000 0.066988
7960.0000 0.066988
7962.0000 0.066988
7964.0000 0.066865
7966.0000 0.066865
7968.0000 0.066865
7970.0000 0.066865
7972.0000 0.066865
7974.0000 0.066742
7976.0000 0.066742
7978.0000 0.066742
7980.0000 0.066681
7982.0000 0.066681
7984.0000 0.066681
7986.0000 0.066681
7988.0000 0.066681
7990.0000 0.066681
7992.0000 0.066681
7994.0000 0.066558
7996.0000 0.066558
7998.0000 0.066681
8000.0000 0.066681
8002.0000 0.066681
8004.0000 0.066681
8006.0000 0.066681
8008.0000 0.066558
8010.0000 0.066558
8012.0000 0.066558
8014.0000 0.066558
8016.0000 0.066435
8018.0000 0.066435
8020.0000 0.066435
8022.0000 0.066435
8024.0000 0.066435
8026.0000 0.066374
8028.0000 0.066252
8030.0000 0.066252
8032.0000 0.06613
8034.0000 0.06613
8036.0000 0.06613
8038.0000 0.06613
8040.0000 0.066008
8042.0000 0.066008
8044.0000 0.066008
8046.0000 0.06613
8048.0000 0.06613
8050.0000 0.06613
8052.0000 0.06613
8054.0000 0.066008
8056.0000 0.066008
8058.0000 0.066008
8060.0000 0.066008
8062.0000 0.066008
8064.0000 0.066008
8066.0000 0.066008
8068.0000 0.066008
8070.0000 0.065948
8072.0000 0.065826
8074.0000 0.065826
8076.0000 0.065826
8078.0000 0.065826
8080.0000 0.065705
8082.0000 0.065705
8084.0000 0.065705
8086.0000 0.065705
8088.0000 0.065705
8090.0000 0.065705
8092.0000 0.065705
8094.0000 0.065705
8096.0000 0.065705
8098.0000 0.065705
8100.0000 0.065705
8102.0000 0.065584
8104.0000 0.065584
8106.0000 0.065705
8108.0000 0.065705
8110.0000 0.065705
8112.0000 0.065584
8114.0000 0.065584
8116.0000 0.065524
8118.0000 0.065524
8120.0000 0.065524
8122.0000 0.065524
8124.0000 0.065524
8126.0000 0.065403
8128.0000 0.065403
8130.0000 0.065403
8132.0000 0.065403
8134.0000 0.065283
8136.0000 0.065283
8138.0000 0.065283
8140.0000 0.065283
8142.0000 0.065283
8144.0000 0.065283
8146.0000 0.065283
8148.0000 0.065283
8150.0000 0.065403
8152.0000 0.065403
8154.0000 0.065283
8156.0000 0.065163
8158.0000 0.065103
8160.0000 0.065103
8162.0000 0.064983
8164.0000 0.064983
8166.0000 0.064983
8168.0000 0.064863
8170.0000 0.064863
8172.0000 0.064744
8174.0000 0.064685
8176.0000 0.064685
8178.0000 0.064565
8180.0000 0.064565
8182.0000 0.064446
8184.0000 0.064387
8186.0000 0.064269
8188.0000 0.06415
8190.0000 0.06415
8192.0000 0.064032
8194.0000 0.064032
8196.0000 0.064032
8198.0000 0.064032
8200.0000 0.06415
8202.0000 0.06415
8204.0000 0.064269
8206.0000 0.064387
8208.0000 0.064446
8210.0000 0.064446
8212.0000 0.064565
8214.0000 0.064565
8216.0000 0.064565
8218.0000 0.064565
8220.0000 0.064446
8222.0000 0.064269
8224.0000 0.064032
8226.0000 0.063856
8228.0000 0.063621
8230.0000 0.063445
8232.0000 0.063329
8234.0000 0.063329
8236.0000 0.063329
8238.0000 0.063329
8240.0000 0.063445
8242.0000 0.063445
8244.0000 0.063562
8246.0000 0.063562
8248.0000 0.063562
8250.0000 0.063562
8252.0000 0.063562
8254.0000 0.063562
8256.0000 0.063562
8258.0000 0.063562
8260.0000 0.063562
8262.0000 0.063562
8264.0000 0.063621
8266.0000 0.063738
8268.0000 0.063856
8270.0000 0.063738
8272.0000 0.063738
8274.0000 0.063621
8276.0000 0.063562
8278.0000 0.063562
8280.0000 0.063445
8282.0000 0.063445
8284.0000 0.063329
8286.0000 0.063329
8288.0000 0.063212
8290.0000 0.063154
8292.0000 0.063154
8294.0000 0.063154
8296.0000 0.063154
8298.0000 0.063154
8300.0000 0.063212
8302.0000 0.063212
8304.0000 0.063212
8306.0000 0.063329
8308.0000 0.063329
8310.0000 0.063329
8312.0000 0.063329
8314.0000 0.063329
8316.0000 0.063329
8318.0000 0.063329
8320.0000 0.063212
8322.0000 0.063212
8324.0000 0.063154
8326.0000 0.063154
8328.0000 0.063038
8330.0000 0.063038
8332.0000 0.062922
8334.0000 0.062922
8336.0000 0.062806
8338.0000 0.062748
8340.0000 0.062748
8342.0000 0.062633
8344.0000 0.062633
8346.0000 0.062633
8348.0000 0.062517
8350.0000 0.062517
8352.0000 0.062517
8354.0000 0.062517
8356.0000 0.06246
8358.0000 0.062345
8360.0000 0.062345
8362.0000 0.06223
8364.0000 0.06223
8366.0000 0.06223
8368.0000 0.06223
8370.0000 0.06223
8372.0000 0.062115
8374.0000 0.062115
8376.0000 0.062115
8378.0000 0.062058
8380.0000 0.062058
8382.0000 0.061944
8384.0000 0.061944
8386.0000 0.061944
8388.0000 0.061944
8390.0000 0.061944
8392.0000 0.061944
8394.0000 0.061944
8396.0000 0.061944
8398.0000 0.062058
8400.0000 0.062058
8402.0000 0.062058
8404.0000 0.062058
8406.0000 0.061944
8408.0000 0.061944
8410.0000 0.06183
8412.0000 0.06183
8414.0000 0.061716
8416.0000 0.061659
8418.0000 0.061659
8420.0000 0.061659
8422.0000 0.061546
8424.0000 0.061546
8426.0000 0.061546
8428.0000 0.061433
8430.0000 0.061433
8432.0000 0.061433
8434.0000 0.061433
8436.0000 0.06132
8438.0000 0.061263
8440.0000 0.061263
8442.0000 0.06115
8444.0000 0.061038
8446.0000 0.061038
8448.0000 0.060982
8450.0000 0.060869
8452.0000 0.060982
8454.0000 0.060982
8456.0000 0.061038
8458.0000 0.061038
8460.0000 0.061038
8462.0000 0.06115
8464.0000 0.06115
8466.0000 0.06115
8468.0000 0.06115
8470.0000 0.06115
8472.0000 0.06115
8474.0000 0.06115
8476.0000 0.06115
8478.0000 0.06115
8480.0000 0.061263
8482.0000 0.061263
8484.0000 0.061263
8486.0000 0.06132
8488.0000 0.061433
8490.0000 0.061433
8492.0000 0.061546
8494.0000 0.061546
8496.0000 0.061546
8498.0000 0.061546
8500.0000 0.061433
8502.0000 0.06132
8504.0000 0.061263
8506.0000 0.06115
8508.0000 0.06115
8510.0000 0.061038
8512.0000 0.060982
8514.0000 0.060869
8516.0000 0.060757
8518.0000 0.060757
8520.0000 0.060757
8522.0000 0.060646
8524.0000 0.060646
8526.0000 0.060757
8528.0000 0.060757
8530.0000 0.060869
8532.0000 0.060869
8534.0000 0.061038
8536.0000 0.06115
8538.0000 0.06115
8540.0000 0.061263
8542.0000 0.061263
8544.0000 0.06115
8546.0000 0.06115
8548.0000 0.06115
8550.0000 0.061038
8552.0000 0.060869
8554.0000 0.060869
8556.0000 0.060757
8558.0000 0.060646
8560.0000 0.060478
8562.0000 0.060367
8564.0000 0.060256
8566.0000 0.060256
8568.0000 0.0602
8570.0000 0.06009
8572.0000 0.06009
8574.0000 0.059979
8576.0000 0.059979
8578.0000 0.059869
8580.0000 0.059869
8582.0000 0.059869
8584.0000 0.059814
8586.0000 0.059869
8588.0000 0.059869
8590.0000 0.059869
8592.0000 0.059869
8594.0000 0.059814
8596.0000 0.059814
8598.0000 0.059814
8600.0000 0.059814
8602.0000 0.059814
8604.0000 0.059703
8606.0000 0.059594
8608.0000 0.059484
8610.0000 0.059429
8612.0000 0.05932
8614.0000 0.059211
8616.0000 0.059156
8618.0000 0.059047
8620.0000 0.058939
8622.0000 0.058939
8624.0000 0.05883
8626.0000 0.05883
8628.0000 0.05883
8630.0000 0.05883
8632.0000 0.05883
8634.0000 0.058939
8636.0000 0.058939
8638.0000 0.059047
8640.0000 0.059156
8642.0000 0.059211
8644.0000 0.05932
8646.0000 0.059429
8648.0000 0.059594
8650.0000 0.059703
8652.0000 0.059869
8654.0000 0.06009
8656.0000 0.060256
8658.0000 0.060367
8660.0000 0.060478
8662.0000 0.06059
8664.0000 0.06059
8666.0000 0.060478
8668.0000 0.060478
8670.0000 0.060367
8672.0000 0.0602
8674.0000 0.059979
8676.0000 0.059814
8678.0000 0.059703
8680.0000 0.059484
8682.0000 0.05932
8684.0000 0.059211
8686.0000 0.059156
8688.0000 0.059047
8690.0000 0.05883
8692.0000 0.058668
8694.0000 0.05856
8696.0000 0.058452
8698.0000 0.058398
8700.0000 0.058291
8702.0000 0.058183
8704.0000 0.058183
8706.0000 0.058023
8708.0000 0.057916
8710.0000 0.057809
8712.0000 0.05765
8714.0000 0.057544
8716.0000 0.057544
8718.0000 0.057438
8720.0000 0.057544
8722.0000 0.057544
8724.0000 0.05765
8726.0000 0.057703
8728.0000 0.057809
8730.0000 0.057916
8732.0000 0.057916
8734.0000 0.058023
8736.0000 0.058023
8738.0000 0.058076
8740.0000 0.058183
8742.0000 0.058291
8744.0000 0.058291
8746.0000 0.058291
8748.0000 0.058398
8750.0000 0.058398
8752.0000 0.058398
8754.0000 0.058398
8756.0000 0.058398
8758.0000 0.058398
8760.0000 0.058398
8762.0000 0.058291
8764.0000 0.058291
8766.0000 0.058183
8768.0000 0.058076
8770.0000 0.058023
8772.0000 0.057916
8774.0000 0.057809
8776.0000 0.057703
8778.0000 0.05765
8780.0000 0.057544
8782.0000 0.057544
8784.0000 0.057438
8786.0000 0.057385
8788.0000 0.05728
8790.0000 0.057174
8792.0000 0.057174
8794.0000 0.057174
8796.0000 0.057069
8798.0000 0.057069
8800.0000 0.057069
8802.0000 0.057016
8804.0000 0.057016
8806.0000 0.056911
8808.0000 0.056911
8810.0000 0.056807
8812.0000 0.056807
8814.0000 0.056807
8816.0000 0.056807
8818.0000 0.056807
8820.0000 0.056702
8822.0000 0.056702
8824.0000 0.056702
8826.0000 0.056702
8828.0000 0.056807
8830.0000 0.056807
8832.0000 0.056807
8834.0000 0.056807
8836.0000 0.056911
8838.0000 0.056911
8840.0000 0.056911
8842.0000 0.057016
8844.0000 0.057069
8846.0000 0.057069
8848.0000 0.057174
8850.0000 0.05728
8852.0000 0.057385
8854.0000 0.057438
8856.0000 0.057544
8858.0000 0.057544
8860.0000 0.05765
8862.0000 0.05765
8864.0000 0.05765
8866.0000 0.05765
8868.0000 0.057544
8870.0000 0.057438
8872.0000 0.05728
8874.0000 0.057069
8876.0000 0.056911
8878.0000 0.056702
8880.0000 0.056546
8882.0000 0.056441
8884.0000 0.056338
8886.0000 0.056286
8888.0000 0.056182
8890.0000 0.056079
8892.0000 0.056079
8894.0000 0.055976
8896.0000 0.055976
8898.0000 0.055924
8900.0000 0.055924
8902.0000 0.055821
8904.0000 0.055718
8906.0000 0.055718
8908.0000 0.055565
8910.0000 0.055463
8912.0000 0.055361
8914.0000 0.055361
8916.0000 0.055208
8918.0000 0.055106
8920.0000 0.055106
8922.0000 0.055106
8924.0000 0.055005
8926.0000 0.055005
8928.0000 0.055005
8930.0000 0.055005
8932.0000 0.054954
8934.0000 0.054853
8936.0000 0.054752
8938.0000 0.054752
8940.0000 0.054601
8942.0000 0.0545
8944.0000 0.0545
8946.0000 0.0544
8948.0000 0.0544
8950.0000 0.05435
8952.0000 0.05425
8954.0000 0.05415
8956.0000 0.05405
8958.0000 0.054001
8960.0000 0.053901
8962.0000 0.053802
8964.0000 0.053802
8966.0000 0.053802
8968.0000 0.053703
8970.0000 0.053703
8972.0000 0.053703
8974.0000 0.053654
8976.0000 0.053555
8978.0000 0.053456
8980.0000 0.053456
8982.0000 0.053309
8984.0000 0.053309
8986.0000 0.053211
8988.0000 0.053211
8990.0000 0.053211
8992.0000 0.053211
8994.0000 0.053211
8996.0000 0.053211
8998.0000 0.053211
9000.0000 0.053211
9002.0000 0.053211
9004.0000 0.053211
9006.0000 0.053309
9008.0000 0.053309
9010.0000 0.053309
9012.0000 0.053358
9014.0000 0.053456
9016.0000 0.053456
9018.0000 0.053358
9020.0000 0.053309
9022.0000 0.053211
9024.0000 0.053113
9026.0000 0.053015
9028.0000 0.052966
9030.0000 0.052966
9032.0000 0.052869
9034.0000 0.052869
9036.0000 0.052771
9038.0000 0.052771
9040.0000 0.052723
9042.0000 0.052626
9044.0000 0.052529
9046.0000 0.052432
9048.0000 0.052432
9050.0000 0.052384
9052.0000 0.052384
9054.0000 0.052384
9056.0000 0.052384
9058.0000 0.052432
9060.0000 0.052384
9062.0000 0.052384
9064.0000 0.052384
9066.0000 0.052288
9068.0000 0.052288
9070.0000 0.052288
9072.0000 0.052288
9074.0000 0.052288
9076.0000 0.052288
9078.0000 0.052288
9080.0000 0.052192
9082.0000 0.052192
9084.0000 0.052288
9086.0000 0.052288
9088.0000 0.052288
9090.0000 0.052384
9092.0000 0.052384
9094.0000 0.052432
9096.0000 0.052432
9098.0000 0.052432
9100.0000 0.052529
9102.0000 0.052529
9104.0000 0.052626
9106.0000 0.052626
9108.0000 0.052771
9110.0000 0.052771
9112.0000 0.052869
9114.0000 0.052966
9116.0000 0.052966
9118.0000 0.053113
9120.0000 0.053015
9122.0000 0.053015
9124.0000 0.052966
9126.0000 0.052869
9128.0000 0.052626
9130.0000 0.052432
9132.0000 0.052529
9134.0000 0.052723
9136.0000 0.052869
9138.0000 0.052966
9140.0000 0.053113
9142.0000 0.053211
9144.0000 0.053211
9146.0000 0.053211
9148.0000 0.053211
9150.0000 0.053211
9152.0000 0.053211
9154.0000 0.053211
9156.0000 0.053211
9158.0000 0.053309
9160.0000 0.053309
9162.0000 0.053309
9164.0000 0.053358
9166.0000 0.053358
9168.0000 0.053309
9170.0000 0.053309
9172.0000 0.053211
9174.0000 0.053113
9176.0000 0.053113
9178.0000 0.052966
9180.0000 0.053015
9182.0000 0.053113
9184.0000 0.053113
9186.0000 0.053211
9188.0000 0.053309
9190.0000 0.053309
9192.0000 0.053309
9194.0000 0.053309
9196.0000 0.053309
9198.0000 0.053309
9200.0000 0.053309
