3200.00 0.185524
3201.00 0.185012
3202.00 0.184332
3203.00 0.183823
3204.00 0.183485
3205.00 0.183147
3206.00 0.183485
3207.00 0.183823
3208.00 0.184162
3209.00 0.184332
3210.00 0.184672
3211.00 0.185012
3212.00 0.185012
3213.00 0.185012
3214.00 0.185012
3215.00 0.185012
3216.00 0.185012
3217.00 0.184672
3218.00 0.184332
3219.00 0.184332
3220.00 0.184162
3221.00 0.184332
3222.00 0.184672
3223.00 0.185012
3224.00 0.185353
3225.00 0.185524
3226.00 0.186209
3227.00 0.186724
3228.00 0.187068
3229.00 0.187586
3230.00 0.187932
3231.00 0.188278
3232.00 0.188278
3233.00 0.188278
3234.00 0.188278
3235.00 0.188278
3236.00 0.188278
3237.00 0.188278
3238.00 0.187413
3239.00 0.18638
3240.00 0.185353
3241.00 0.184162
3242.00 0.182978
3243.00 0.182306
3244.00 0.181803
3245.00 0.181134
3246.00 0.180634
3247.00 0.180302
3248.00 0.180302
3249.00 0.179473
3250.00 0.178813
3251.00 0.177992
3252.00 0.176848
3253.00 0.17636
3254.00 0.175711
3255.00 0.175227
3256.00 0.174904
3257.00 0.174582
3258.00 0.174421
3259.00 0.17378
3260.00 0.173301
3261.00 0.172663
3262.00 0.17187
3263.00 0.171238
3264.00 0.170765
3265.00 0.170294
3266.00 0.169668
3267.00 0.169356
3268.00 0.168888
3269.00 0.168578
3270.00 0.168578
3271.00 0.168578
3272.00 0.168578
3273.00 0.168578
3274.00 0.168578
3275.00 0.168267
3276.00 0.168267
3277.00 0.168112
3278.00 0.167803
3279.00 0.167494
3280.00 0.167032
3281.00 0.166725
3282.00 0.166418
3283.00 0.166418
3284.00 0.166112
3285.00 0.165959
3286.00 0.165959
3287.00 0.165959
3288.00 0.165653
3289.00 0.165653
3290.00 0.165653
3291.00 0.165653
3292.00 0.165348
3293.00 0.165348
3294.00 0.165196
3295.00 0.164892
3296.00 0.164589
3297.00 0.164286
3298.00 0.164286
3299.00 0.164135
3300.00 0.164286
3301.00 0.164589
3302.00 0.164892
3303.00 0.164892
3304.00 0.165196
3305.00 0.165348
3306.00 0.165348
3307.00 0.165348
3308.00 0.165348
3309.00 0.165348
3310.00 0.165196
3311.00 0.165196
3312.00 0.165196
3313.00 0.165348
3314.00 0.165348
3315.00 0.165196
3316.00 0.164892
3317.00 0.164892
3318.00 0.165196
3319.00 0.165348
3320.00 0.165959
3321.00 0.166418
3322.00 0.166725
3323.00 0.167032
3324.00 0.166725
3325.00 0.166418
3326.00 0.166418
3327.00 0.166112
3328.00 0.166418
3329.00 0.166418
3330.00 0.166418
3331.00 0.166418
3332.00 0.166418
3333.00 0.166112
3334.00 0.165959
3335.00 0.165653
3336.00 0.165348
3337.00 0.165348
3338.00 0.165196
3339.00 0.165348
3340.00 0.165348
3341.00 0.165348
3342.00 0.165348
3343.00 0.164892
3344.00 0.164589
3345.00 0.164589
3346.00 0.164286
3347.00 0.164286
3348.00 0.164135
3349.00 0.163832
3350.00 0.163531
3351.00 0.16308
3352.00 0.16248
3353.00 0.162032
3354.00 0.161734
3355.00 0.161139
3356.00 0.16099
3357.00 0.160694
3358.00 0.160694
3359.00 0.160694
3360.00 0.160398
3361.00 0.160251
3362.00 0.159956
3363.00 0.159956
3364.00 0.159956
3365.00 0.159956
3366.00 0.160398
3367.00 0.16099
3368.00 0.161436
3369.00 0.161734
3370.00 0.162032
3371.00 0.162032
3372.00 0.161734
3373.00 0.161734
3374.00 0.161734
3375.00 0.161734
3376.00 0.161436
3377.00 0.161436
3378.00 0.161436
3379.00 0.161436
3380.00 0.161734
3381.00 0.161734
3382.00 0.161436
3383.00 0.161436
3384.00 0.16099
3385.00 0.160694
3386.00 0.16099
3387.00 0.161139
3388.00 0.161139
3389.00 0.161436
3390.00 0.161139
3391.00 0.161139
3392.00 0.160694
3393.00 0.160398
3394.00 0.159661
3395.00 0.159368
3396.00 0.158928
3397.00 0.158635
3398.00 0.158343
3399.00 0.158198
3400.00 0.158198
3401.00 0.158198
3402.00 0.158198
3403.00 0.158635
3404.00 0.159221
3405.00 0.159368
3406.00 0.159661
3407.00 0.159661
3408.00 0.159956
3409.00 0.159956
3410.00 0.159956
3411.00 0.159661
3412.00 0.159368
3413.00 0.158928
3414.00 0.158635
3415.00 0.158343
3416.00 0.158198
3417.00 0.157906
3418.00 0.157616
3419.00 0.157326
3420.00 0.157181
3421.00 0.156892
3422.00 0.156892
3423.00 0.157181
3424.00 0.156892
3425.00 0.156603
3426.00 0.156171
3427.00 0.155883
3428.00 0.155597
3429.00 0.155597
3430.00 0.155453
3431.00 0.155167
3432.00 0.155167
3433.00 0.155167
3434.00 0.155167
3435.00 0.155167
3436.00 0.155453
3437.00 0.155883
3438.00 0.156315
3439.00 0.156603
3440.00 0.156892
3441.00 0.156892
3442.00 0.156892
3443.00 0.156603
3444.00 0.155883
3445.00 0.155453
3446.00 0.154597
3447.00 0.153886
3448.00 0.153462
3449.00 0.152897
3450.00 0.152616
3451.00 0.152475
3452.00 0.152475
3453.00 0.152475
3454.00 0.152616
3455.00 0.152616
3456.00 0.152897
3457.00 0.152897
3458.00 0.152897
3459.00 0.153179
3460.00 0.153179
3461.00 0.152897
3462.00 0.152616
3463.00 0.152475
3464.00 0.152195
3465.00 0.152195
3466.00 0.152195
3467.00 0.152195
3468.00 0.152475
3469.00 0.152897
3470.00 0.153179
3471.00 0.153179
3472.00 0.153179
3473.00 0.153179
3474.00 0.152897
3475.00 0.152897
3476.00 0.152195
3477.00 0.151915
3478.00 0.151217
3479.00 0.150522
3480.00 0.150245
3481.00 0.14983
3482.00 0.149555
3483.00 0.14983
3484.00 0.14983
3485.00 0.149968
3486.00 0.150245
3487.00 0.150522
3488.00 0.150938
3489.00 0.151496
3490.00 0.151915
3491.00 0.151915
3492.00 0.152195
3493.00 0.151915
3494.00 0.151775
3495.00 0.151217
3496.00 0.150938
3497.00 0.1508
3498.00 0.150522
3499.00 0.150245
3500.00 0.149968
3501.00 0.14983
3502.00 0.149279
3503.00 0.148868
3504.00 0.148594
3505.00 0.14832
3506.00 0.14832
3507.00 0.14832
3508.00 0.148047
3509.00 0.147911
3510.00 0.147911
3511.00 0.148047
3512.00 0.148047
3513.00 0.14832
3514.00 0.14832
3515.00 0.148594
3516.00 0.148594
3517.00 0.148868
3518.00 0.149005
3519.00 0.149279
3520.00 0.149279
3521.00 0.149279
3522.00 0.149279
3523.00 0.149279
3524.00 0.149555
3525.00 0.149279
3526.00 0.149279
3527.00 0.148868
3528.00 0.14832
3529.00 0.147911
3530.00 0.147367
3531.00 0.14669
3532.00 0.14642
3533.00 0.146016
3534.00 0.145747
3535.00 0.145345
3536.00 0.14481
3537.00 0.144411
3538.00 0.144145
3539.00 0.144145
3540.00 0.14388
3541.00 0.14388
3542.00 0.14388
3543.00 0.143483
3544.00 0.143483
3545.00 0.143483
3546.00 0.143483
3547.00 0.143483
3548.00 0.143483
3549.00 0.143483
3550.00 0.143615
3551.00 0.143615
3552.00 0.143615
3553.00 0.14388
3554.00 0.14388
3555.00 0.14388
3556.00 0.14388
3557.00 0.14388
3558.00 0.14388
3559.00 0.14388
3560.00 0.144145
3561.00 0.144145
3562.00 0.144411
3563.00 0.144411
3564.00 0.144411
3565.00 0.144411
3566.00 0.144411
3567.00 0.144145
3568.00 0.144145
3569.00 0.144145
3570.00 0.144145
3571.00 0.144145
3572.00 0.144145
3573.00 0.144145
3574.00 0.14388
3575.00 0.14388
3576.00 0.144145
3577.00 0.14388
3578.00 0.14388
3579.00 0.143615
3580.00 0.143483
3581.00 0.143219
3582.00 0.143219
3583.00 0.142955
3584.00 0.142955
3585.00 0.142955
3586.00 0.142955
3587.00 0.142955
3588.00 0.142955
3589.00 0.142824
3590.00 0.142955
3591.00 0.142955
3592.00 0.142955
3593.00 0.142955
3594.00 0.142298
3595.00 0.141906
3596.00 0.141384
3597.00 0.141124
3598.00 0.140994
3599.00 0.140734
3600.00 0.140734
3601.00 0.140734
3602.00 0.140734
3603.00 0.140994
3604.00 0.140994
3605.00 0.141124
3606.00 0.141384
3607.00 0.141384
3608.00 0.141384
3609.00 0.141384
3610.00 0.141384
3611.00 0.140994
3612.00 0.140734
3613.00 0.140475
3614.00 0.140217
3615.00 0.140088
3616.00 0.140088
3617.00 0.13983
3618.00 0.13983
3619.00 0.139573
3620.00 0.139187
3621.00 0.138931
3622.00 0.138676
3623.00 0.138293
3624.00 0.138293
3625.00 0.138038
3626.00 0.137784
3627.00 0.137784
3628.00 0.137784
3629.00 0.137784
3630.00 0.138038
3631.00 0.138038
3632.00 0.138038
3633.00 0.137784
3634.00 0.137784
3635.00 0.137404
3636.00 0.137151
3637.00 0.136773
3638.00 0.136773
3639.00 0.136521
3640.00 0.136521
3641.00 0.136521
3642.00 0.13627
3643.00 0.13627
3644.00 0.13627
3645.00 0.13627
3646.00 0.13627
3647.00 0.13627
3648.00 0.136019
3649.00 0.136019
3650.00 0.135894
3651.00 0.135644
3652.00 0.13527
3653.00 0.134772
3654.00 0.134524
3655.00 0.134153
3656.00 0.133906
3657.00 0.13366
3658.00 0.13366
3659.00 0.133291
3660.00 0.133045
3661.00 0.133045
3662.00 0.132801
3663.00 0.132801
3664.00 0.132801
3665.00 0.132801
3666.00 0.132801
3667.00 0.132801
3668.00 0.132801
3669.00 0.132801
3670.00 0.132801
3671.00 0.133045
3672.00 0.133045
3673.00 0.133291
3674.00 0.133537
3675.00 0.13366
3676.00 0.133906
3677.00 0.134153
3678.00 0.1344
3679.00 0.134524
3680.00 0.134524
3681.00 0.134772
3682.00 0.134524
3683.00 0.134524
3684.00 0.134153
3685.00 0.134153
3686.00 0.133906
3687.00 0.13366
3688.00 0.133291
3689.00 0.132678
3690.00 0.13219
3691.00 0.131583
3692.00 0.13122
3693.00 0.130978
3694.00 0.130737
3695.00 0.130497
3696.00 0.130137
3697.00 0.130137
3698.00 0.129897
3699.00 0.129658
3700.00 0.129897
3701.00 0.129897
3702.00 0.130377
3703.00 0.130737
3704.00 0.130978
3705.00 0.13122
3706.00 0.130978
3707.00 0.130497
3708.00 0.130377
3709.00 0.130137
3710.00 0.129897
3711.00 0.129658
3712.00 0.129539
3713.00 0.129539
3714.00 0.129539
3715.00 0.129539
3716.00 0.129539
3717.00 0.129539
3718.00 0.129539
3719.00 0.129539
3720.00 0.129539
3721.00 0.1293
3722.00 0.1293
3723.00 0.1293
3724.00 0.129062
3725.00 0.129062
3726.00 0.1293
3727.00 0.129539
3728.00 0.129897
3729.00 0.130137
3730.00 0.130497
3731.00 0.130978
3732.00 0.131341
3733.00 0.131583
3734.00 0.131826
3735.00 0.131947
3736.00 0.131583
3737.00 0.130978
3738.00 0.130497
3739.00 0.129897
3740.00 0.129539
3741.00 0.129539
3742.00 0.129539
3743.00 0.1293
3744.00 0.1293
3745.00 0.1293
3746.00 0.1293
3747.00 0.1293
3748.00 0.1293
3749.00 0.129062
3750.00 0.129062
3751.00 0.129062
3752.00 0.128706
3753.00 0.128469
3754.00 0.128233
3755.00 0.127879
3756.00 0.127644
3757.00 0.127409
3758.00 0.127292
3759.00 0.127292
3760.00 0.127292
3761.00 0.127409
3762.00 0.127409
3763.00 0.127644
3764.00 0.127644
3765.00 0.127644
3766.00 0.127644
3767.00 0.127409
3768.00 0.127409
3769.00 0.127409
3770.00 0.127292
3771.00 0.127292
3772.00 0.127292
3773.00 0.127409
3774.00 0.127409
3775.00 0.127409
3776.00 0.127409
3777.00 0.127057
3778.00 0.12659
3779.00 0.126241
3780.00 0.125661
3781.00 0.12543
3782.00 0.125199
3783.00 0.125199
3784.00 0.125199
3785.00 0.12543
3786.00 0.125199
3787.00 0.125199
3788.00 0.124968
3789.00 0.124853
3790.00 0.124624
3791.00 0.124624
3792.00 0.124394
3793.00 0.124051
3794.00 0.124051
3795.00 0.124051
3796.00 0.124165
3797.00 0.124394
3798.00 0.124624
3799.00 0.124853
3800.00 0.124853
3801.00 0.125199
3802.00 0.125199
3803.00 0.12543
3804.00 0.125661
3805.00 0.125661
3806.00 0.125661
3807.00 0.125661
3808.00 0.125661
3809.00 0.125661
3810.00 0.125777
3811.00 0.126009
3812.00 0.126474
3813.00 0.126824
3814.00 0.126824
3815.00 0.126824
3816.00 0.12659
3817.00 0.126241
3818.00 0.126241
3819.00 0.126009
3820.00 0.125777
3821.00 0.125777
3822.00 0.125661
3823.00 0.125661
3824.00 0.125661
3825.00 0.12543
3826.00 0.12543
3827.00 0.125199
3828.00 0.124968
3829.00 0.124968
3830.00 0.124968
3831.00 0.124968
3832.00 0.125199
3833.00 0.125199
3834.00 0.125199
3835.00 0.12543
3836.00 0.12543
3837.00 0.125661
3838.00 0.126009
3839.00 0.126241
3840.00 0.126241
3841.00 0.126474
3842.00 0.12659
3843.00 0.12659
3844.00 0.12659
3845.00 0.12659
3846.00 0.12659
3847.00 0.12659
3848.00 0.126824
3849.00 0.127057
3850.00 0.127057
3851.00 0.127292
3852.00 0.127292
3853.00 0.127292
3854.00 0.127292
3855.00 0.127057
3856.00 0.127057
3857.00 0.127057
3858.00 0.127057
3859.00 0.126824
3860.00 0.126824
3861.00 0.12659
3862.00 0.126241
3863.00 0.126009
3864.00 0.126009
3865.00 0.125777
3866.00 0.125777
3867.00 0.125777
3868.00 0.126009
3869.00 0.126009
3870.00 0.126241
3871.00 0.126241
3872.00 0.126241
3873.00 0.126009
3874.00 0.126009
3875.00 0.126009
3876.00 0.125777
3877.00 0.125661
3878.00 0.12543
3879.00 0.125199
3880.00 0.124968
3881.00 0.124968
3882.00 0.124853
3883.00 0.124853
3884.00 0.124624
3885.00 0.124394
3886.00 0.124051
3887.00 0.123823
3888.00 0.123823
3889.00 0.123823
3890.00 0.124051
3891.00 0.124394
3892.00 0.124624
3893.00 0.124853
3894.00 0.124853
3895.00 0.124853
3896.00 0.124968
3897.00 0.125199
3898.00 0.12543
3899.00 0.12543
3900.00 0.125661
3901.00 0.125199
3902.00 0.125199
3903.00 0.125199
3904.00 0.125199
3905.00 0.125199
3906.00 0.125199
3907.00 0.124968
3908.00 0.124968
3909.00 0.124968
3910.00 0.124968
3911.00 0.124968
3912.00 0.124968
3913.00 0.124968
3914.00 0.125199
3915.00 0.125199
3916.00 0.125199
3917.00 0.125199
3918.00 0.125199
3919.00 0.124968
3920.00 0.124968
3921.00 0.124968
3922.00 0.124853
3923.00 0.124853
3924.00 0.124624
3925.00 0.124624
3926.00 0.124394
3927.00 0.124165
3928.00 0.124051
3929.00 0.123823
3930.00 0.123823
3931.00 0.123823
3932.00 0.123595
3933.00 0.123595
3934.00 0.123823
3935.00 0.123823
3936.00 0.123823
3937.00 0.123595
3938.00 0.123595
3939.00 0.123595
3940.00 0.123481
3941.00 0.123254
3942.00 0.123027
3943.00 0.1228
3944.00 0.122687
3945.00 0.122462
3946.00 0.122236
3947.00 0.121899
3948.00 0.121451
3949.00 0.121116
3950.00 0.12067
3951.00 0.120337
3952.00 0.120116
3953.00 0.119784
3954.00 0.119344
3955.00 0.119124
3956.00 0.118796
3957.00 0.118577
3958.00 0.11825
3959.00 0.117815
3960.00 0.11749
3961.00 0.117058
3962.00 0.116735
3963.00 0.116305
3964.00 0.115985
3965.00 0.115771
3966.00 0.115452
3967.00 0.115239
3968.00 0.115027
3969.00 0.115027
3970.00 0.114815
3971.00 0.11471
3972.00 0.11471
3973.00 0.114499
3974.00 0.114499
3975.00 0.114499
3976.00 0.11471
3977.00 0.11471
3978.00 0.115027
3979.00 0.115027
3980.00 0.115239
3981.00 0.115452
3982.00 0.115452
3983.00 0.115771
3984.00 0.115985
3985.00 0.116305
3986.00 0.11652
3987.00 0.117058
3988.00 0.117274
3989.00 0.117815
3990.00 0.11825
3991.00 0.118577
3992.00 0.119124
3993.00 0.119344
3994.00 0.119564
3995.00 0.119895
3996.00 0.120116
3997.00 0.120337
3998.00 0.120337
3999.00 0.12067
4000.00 0.12067
4001.00 0.12067
4002.00 0.12067
4003.00 0.120893
4004.00 0.120893
4005.00 0.120893
4006.00 0.120893
4007.00 0.120893
4008.00 0.120893
4009.00 0.120893
4010.00 0.120893
4011.00 0.12067
4012.00 0.12067
4013.00 0.12067
4014.00 0.12067
4015.00 0.12067
4016.00 0.12067
4017.00 0.12067
4018.00 0.12067
4019.00 0.12067
4020.00 0.12067
4021.00 0.120893
4022.00 0.120893
4023.00 0.120893
4024.00 0.121116
4025.00 0.121116
4026.00 0.121116
4027.00 0.121227
4028.00 0.121227
4029.00 0.121451
4030.00 0.121451
4031.00 0.121451
4032.00 0.121451
4033.00 0.121227
4034.00 0.121116
4035.00 0.121116
4036.00 0.121116
4037.00 0.120893
4038.00 0.120893
4039.00 0.120893
4040.00 0.120893
4041.00 0.120893
4042.00 0.120893
4043.00 0.120893
4044.00 0.120893
4045.00 0.120893
4046.00 0.12067
4047.00 0.12067
4048.00 0.120559
4049.00 0.120337
4050.00 0.120337
4051.00 0.120337
4052.00 0.120116
4053.00 0.119895
4054.00 0.119895
4055.00 0.119895
4056.00 0.119784
4057.00 0.119784
4058.00 0.119784
4059.00 0.119784
4060.00 0.119784
4061.00 0.119784
4062.00 0.119564
4063.00 0.119344
4064.00 0.119344
4065.00 0.119124
4066.00 0.119015
4067.00 0.118796
4068.00 0.118577
4069.00 0.118577
4070.00 0.118359
4071.00 0.11825
4072.00 0.118032
4073.00 0.117815
4074.00 0.117598
4075.00 0.11749
4076.00 0.117058
4077.00 0.116735
4078.00 0.116305
4079.00 0.115985
4080.00 0.115558
4081.00 0.115239
4082.00 0.11471
4083.00 0.114288
4084.00 0.113972
4085.00 0.113553
4086.00 0.113032
4087.00 0.112512
4088.00 0.111995
4089.00 0.111584
4090.00 0.111276
4091.00 0.110866
4092.00 0.110357
4093.00 0.10985
4094.00 0.109446
4095.00 0.108943
4096.00 0.108443
4097.00 0.107944
4098.00 0.107547
4099.00 0.107053
4100.00 0.106856
4101.00 0.106561
4102.00 0.106365
4103.00 0.106365
4104.00 0.106365
4105.00 0.106561
4106.00 0.106758
4107.00 0.106856
4108.00 0.107251
4109.00 0.107547
4110.00 0.107746
4111.00 0.107944
4112.00 0.108243
4113.00 0.108643
4114.00 0.108943
4115.00 0.109446
4116.00 0.10985
4117.00 0.110154
4118.00 0.110357
4119.00 0.110561
4120.00 0.110866
4121.00 0.111071
4122.00 0.111378
4123.00 0.111584
4124.00 0.111789
4125.00 0.111995
4126.00 0.112099
4127.00 0.112305
4128.00 0.112512
4129.00 0.11272
4130.00 0.112824
4131.00 0.112824
4132.00 0.113032
4133.00 0.113032
4134.00 0.11324
4135.00 0.11324
4136.00 0.113449
4137.00 0.113449
4138.00 0.113553
4139.00 0.113553
4140.00 0.113763
4141.00 0.113763
4142.00 0.113972
4143.00 0.113972
4144.00 0.113972
4145.00 0.113972
4146.00 0.113972
4147.00 0.113972
4148.00 0.113972
4149.00 0.113972
4150.00 0.113972
4151.00 0.113972
4152.00 0.113972
4153.00 0.113972
4154.00 0.113972
4155.00 0.113972
4156.00 0.113972
4157.00 0.113972
4158.00 0.113972
4159.00 0.113972
4160.00 0.113972
4161.00 0.113972
4162.00 0.113763
4163.00 0.113763
4164.00 0.113972
4165.00 0.113972
4166.00 0.113972
4167.00 0.114078
4168.00 0.114288
4169.00 0.114288
4170.00 0.114499
4171.00 0.114499
4172.00 0.114499
4173.00 0.114499
4174.00 0.114499
4175.00 0.11471
4176.00 0.11471
4177.00 0.11471
4178.00 0.11471
4179.00 0.11471
4180.00 0.11471
4181.00 0.11471
4182.00 0.11471
4183.00 0.11471
4184.00 0.11471
4185.00 0.11471
4186.00 0.11471
4187.00 0.11471
4188.00 0.11471
4189.00 0.11471
4190.00 0.114499
4191.00 0.114499
4192.00 0.114499
4193.00 0.114499
4194.00 0.114499
4195.00 0.114499
4196.00 0.11471
4197.00 0.114499
4198.00 0.114499
4199.00 0.114499
4200.00 0.114288
4201.00 0.113972
4202.00 0.113972
4203.00 0.113763
4204.00 0.113763
4205.00 0.113553
4206.00 0.113553
4207.00 0.113553
4208.00 0.113553
4209.00 0.113553
4210.00 0.113553
4211.00 0.113763
4212.00 0.113763
4213.00 0.113763
4214.00 0.113763
4215.00 0.113763
4216.00 0.113763
4217.00 0.113763
4218.00 0.113972
4219.00 0.113972
4220.00 0.114078
4221.00 0.114288
4222.00 0.114499
4223.00 0.114499
4224.00 0.114499
4225.00 0.114499
4226.00 0.114499
4227.00 0.114499
4228.00 0.114288
4229.00 0.114078
4230.00 0.113972
4231.00 0.113763
4232.00 0.113553
4233.00 0.113449
4234.00 0.11324
4235.00 0.11324
4236.00 0.113032
4237.00 0.112824
4238.00 0.112824
4239.00 0.112824
4240.00 0.11272
4241.00 0.11272
4242.00 0.11272
4243.00 0.11272
4244.00 0.11272
4245.00 0.11272
4246.00 0.112512
4247.00 0.112512
4248.00 0.112512
4249.00 0.112512
4250.00 0.112512
4251.00 0.112305
4252.00 0.112305
4253.00 0.112099
4254.00 0.111995
4255.00 0.111789
4256.00 0.111789
4257.00 0.111584
4258.00 0.111584
4259.00 0.111584
4260.00 0.111584
4261.00 0.111378
4262.00 0.111378
4263.00 0.111276
4264.00 0.111276
4265.00 0.111276
4266.00 0.111276
4267.00 0.111276
4268.00 0.111276
4269.00 0.111071
4270.00 0.111071
4271.00 0.110866
4272.00 0.110662
4273.00 0.110662
4274.00 0.110561
4275.00 0.110561
4276.00 0.110561
4277.00 0.110357
4278.00 0.110357
4279.00 0.110154
4280.00 0.110154
4281.00 0.110154
4282.00 0.110053
4283.00 0.10985
4284.00 0.10985
4285.00 0.10985
4286.00 0.109648
4287.00 0.109648
4288.00 0.109446
4289.00 0.109446
4290.00 0.109144
4291.00 0.108943
4292.00 0.108743
4293.00 0.108643
4294.00 0.108443
4295.00 0.108243
4296.00 0.107944
4297.00 0.107746
4298.00 0.107547
4299.00 0.107448
4300.00 0.107251
4301.00 0.107053
4302.00 0.106856
4303.00 0.106856
4304.00 0.106561
4305.00 0.106561
4306.00 0.106365
4307.00 0.10617
4308.00 0.106072
4309.00 0.105877
4310.00 0.105682
4311.00 0.105487
4312.00 0.10539
4313.00 0.105196
4314.00 0.105003
4315.00 0.104713
4316.00 0.10452
4317.00 0.104232
4318.00 0.103848
4319.00 0.103371
4320.00 0.103181
4321.00 0.102707
4322.00 0.102329
4323.00 0.102047
4324.00 0.101578
4325.00 0.101111
4326.00 0.100554
4327.00 0.100092
4328.00 0.0996323
4329.00 0.098992
4330.00 0.0983558
4331.00 0.0979039
4332.00 0.0972747
4333.00 0.0966496
4334.00 0.0958517
4335.00 0.0952357
4336.00 0.0946237
4337.00 0.0940156
4338.00 0.0935837
4339.00 0.0933254
4340.00 0.0929822
4341.00 0.0929822
4342.00 0.0929822
4343.00 0.0929822
4344.00 0.0933254
4345.00 0.0935837
4346.00 0.0940156
4347.00 0.0945366
4348.00 0.094973
4349.00 0.0954113
4350.00 0.0958517
4351.00 0.0962055
4352.00 0.0966496
4353.00 0.0970957
4354.00 0.0975439
4355.00 0.0979039
4356.00 0.0985372
4357.00 0.098992
4358.00 0.0994489
4359.00 0.099816
4360.00 0.100092
4361.00 0.100462
4362.00 0.10074
4363.00 0.101111
4364.00 0.101205
4365.00 0.101578
4366.00 0.101672
4367.00 0.101859
4368.00 0.102047
4369.00 0.102329
4370.00 0.102518
4371.00 0.102896
4372.00 0.102991
4373.00 0.103371
4374.00 0.103562
4375.00 0.103657
4376.00 0.103848
4377.00 0.10404
4378.00 0.104328
4379.00 0.104328
4380.00 0.10452
4381.00 0.104713
4382.00 0.104713
4383.00 0.104713
4384.00 0.104713
4385.00 0.104713
4386.00 0.10452
4387.00 0.10452
4388.00 0.10452
4389.00 0.10452
4390.00 0.10452
4391.00 0.104328
4392.00 0.104328
4393.00 0.10452
4394.00 0.10452
4395.00 0.10452
4396.00 0.10452
4397.00 0.10452
4398.00 0.10452
4399.00 0.10452
4400.00 0.10452
4401.00 0.10452
4402.00 0.10452
4403.00 0.10452
4404.00 0.10452
4405.00 0.104328
4406.00 0.104328
4407.00 0.104232
4408.00 0.10404
4409.00 0.10404
4410.00 0.10404
4411.00 0.10404
4412.00 0.10404
4413.00 0.10404
4414.00 0.10404
4415.00 0.10404
4416.00 0.10404
4417.00 0.103848
4418.00 0.103848
4419.00 0.103657
4420.00 0.103657
4421.00 0.103657
4422.00 0.103657
4423.00 0.103657
4424.00 0.103657
4425.00 0.103657
4426.00 0.103657
4427.00 0.103657
4428.00 0.103562
4429.00 0.103562
4430.00 0.103371
4431.00 0.103371
4432.00 0.103371
4433.00 0.103371
4434.00 0.103371
4435.00 0.103371
4436.00 0.103371
4437.00 0.103181
4438.00 0.103181
4439.00 0.103181
4440.00 0.103181
4441.00 0.103181
4442.00 0.103181
4443.00 0.103181
4444.00 0.103181
4445.00 0.103181
4446.00 0.103181
4447.00 0.102991
4448.00 0.102991
4449.00 0.102896
4450.00 0.102896
4451.00 0.102896
4452.00 0.102896
4453.00 0.102896
4454.00 0.102896
4455.00 0.102896
4456.00 0.102896
4457.00 0.102707
4458.00 0.102707
4459.00 0.102707
4460.00 0.102707
4461.00 0.102518
4462.00 0.102518
4463.00 0.102518
4464.00 0.102329
4465.00 0.102329
4466.00 0.102235
4467.00 0.102235
4468.00 0.102047
4469.00 0.102047
4470.00 0.102047
4471.00 0.101859
4472.00 0.101672
4473.00 0.101578
4474.00 0.101578
4475.00 0.101391
4476.00 0.101391
4477.00 0.101391
4478.00 0.101205
4479.00 0.101205
4480.00 0.101205
4481.00 0.101111
4482.00 0.100925
4483.00 0.100925
4484.00 0.10074
4485.00 0.10074
4486.00 0.100554
4487.00 0.100554
4488.00 0.100554
4489.00 0.100554
4490.00 0.100462
4491.00 0.100277
4492.00 0.100277
4493.00 0.100277
4494.00 0.100277
4495.00 0.100277
4496.00 0.100277
4497.00 0.100092
4498.00 0.100092
4499.00 0.100092
4500.00 0.0999079
4501.00 0.099816
4502.00 0.099816
4503.00 0.0996323
4504.00 0.0996323
4505.00 0.0996323
4506.00 0.0994489
4507.00 0.0994489
4508.00 0.0994489
4509.00 0.0992659
4510.00 0.0992659
4511.00 0.0992659
4512.00 0.0992659
4513.00 0.0994489
4514.00 0.0994489
4515.00 0.0994489
4516.00 0.0994489
4517.00 0.0994489
4518.00 0.0994489
4519.00 0.0994489
4520.00 0.0996323
4521.00 0.0996323
4522.00 0.0996323
4523.00 0.0996323
4524.00 0.0996323
4525.00 0.0996323
4526.00 0.099816
4527.00 0.099816
4528.00 0.099816
4529.00 0.099816
4530.00 0.099816
4531.00 0.099816
4532.00 0.099816
4533.00 0.0996323
4534.00 0.0996323
4535.00 0.0994489
4536.00 0.0992659
4537.00 0.0991745
4538.00 0.0991745
4539.00 0.0991745
4540.00 0.098992
4541.00 0.098992
4542.00 0.098992
4543.00 0.098992
4544.00 0.098992
4545.00 0.098992
4546.00 0.0991745
4547.00 0.0991745
4548.00 0.0991745
4549.00 0.0991745
4550.00 0.098992
4551.00 0.098992
4552.00 0.0988098
4553.00 0.0988098
4554.00 0.0988098
4555.00 0.0986279
4556.00 0.0985372
4557.00 0.0985372
4558.00 0.0985372
4559.00 0.0983558
4560.00 0.0983558
4561.00 0.0981748
4562.00 0.0980844
4563.00 0.0979039
4564.00 0.0979039
4565.00 0.0980844
4566.00 0.0980844
4567.00 0.0980844
4568.00 0.0979039
4569.00 0.0979039
4570.00 0.0979039
4571.00 0.0979039
4572.00 0.0979039
4573.00 0.0977237
4574.00 0.0977237
4575.00 0.0977237
4576.00 0.0975439
4577.00 0.0975439
4578.00 0.0975439
4579.00 0.0975439
4580.00 0.0975439
4581.00 0.0975439
4582.00 0.0975439
4583.00 0.0975439
4584.00 0.0975439
4585.00 0.0975439
4586.00 0.0974541
4587.00 0.0972747
4588.00 0.0972747
4589.00 0.0970957
4590.00 0.0970957
4591.00 0.0968278
4592.00 0.0968278
4593.00 0.0968278
4594.00 0.0966496
4595.00 0.0966496
4596.00 0.0966496
4597.00 0.0964717
4598.00 0.0964717
4599.00 0.0964717
4600.00 0.0964717
4601.00 0.0966496
4602.00 0.0966496
4603.00 0.0966496
4604.00 0.0966496
4605.00 0.0964717
4606.00 0.0964717
4607.00 0.0964717
4608.00 0.0962942
4609.00 0.0964717
4610.00 0.0964717
4611.00 0.0964717
4612.00 0.0962942
4613.00 0.0962942
4614.00 0.0962942
4615.00 0.0962942
4616.00 0.0962942
4617.00 0.0962942
4618.00 0.0962942
4619.00 0.0962055
4620.00 0.0962055
4621.00 0.0962055
4622.00 0.0962055
4623.00 0.0962055
4624.00 0.0962055
4625.00 0.0962055
4626.00 0.0962055
4627.00 0.0960285
4628.00 0.0960285
4629.00 0.0960285
4630.00 0.0960285
4631.00 0.0960285
4632.00 0.0960285
4633.00 0.0960285
4634.00 0.0960285
4635.00 0.0958517
4636.00 0.0958517
4637.00 0.0957635
4638.00 0.0955873
4639.00 0.0955873
4640.00 0.0955873
4641.00 0.0955873
4642.00 0.0955873
4643.00 0.0955873
4644.00 0.0955873
4645.00 0.0955873
4646.00 0.0955873
4647.00 0.0954113
4648.00 0.0954113
4649.00 0.0954113
4650.00 0.0955873
4651.00 0.0955873
4652.00 0.0955873
4653.00 0.0955873
4654.00 0.0954113
4655.00 0.0954113
4656.00 0.0952357
4657.00 0.0952357
4658.00 0.0951481
4659.00 0.094973
4660.00 0.094973
4661.00 0.094973
4662.00 0.0947982
4663.00 0.0947982
4664.00 0.0947982
4665.00 0.0947982
4666.00 0.0947982
4667.00 0.0947982
4668.00 0.0947982
4669.00 0.0946237
4670.00 0.0946237
4671.00 0.0945366
4672.00 0.0943626
4673.00 0.0943626
4674.00 0.094189
4675.00 0.094189
4676.00 0.094189
4677.00 0.094189
4678.00 0.094189
4679.00 0.094189
4680.00 0.094189
4681.00 0.094189
4682.00 0.0939291
4683.00 0.0939291
4684.00 0.0937562
4685.00 0.0937562
4686.00 0.0935837
4687.00 0.0935837
4688.00 0.0935837
4689.00 0.0935837
4690.00 0.0935837
4691.00 0.0937562
4692.00 0.0937562
4693.00 0.0937562
4694.00 0.0937562
4695.00 0.0935837
4696.00 0.0937562
4697.00 0.0937562
4698.00 0.0939291
4699.00 0.0939291
4700.00 0.0939291
4702.00 0.0922996
4704.00 0.0922996
4706.00 0.0922996
4708.00 0.0922996
4710.00 0.0922996
4712.00 0.0922996
4714.00 0.0921298
4716.00 0.0921298
4718.00 0.0921298
4720.00 0.0919602
4722.00 0.0919602
4724.00 0.0917065
4726.00 0.0917065
4728.00 0.0915377
4730.00 0.0915377
4732.00 0.0913692
4734.00 0.0913692
4736.00 0.0913692
4738.00 0.0913692
4740.00 0.0912011
4742.00 0.0912011
4744.00 0.0911171
4746.00 0.0911171
4748.00 0.0909494
4750.00 0.0909494
4752.00 0.0909494
4754.00 0.0907821
4756.00 0.090615
4758.00 0.0905316
4760.00 0.0905316
4762.00 0.0903649
4764.00 0.0903649
4766.00 0.0903649
4768.00 0.0903649
4770.00 0.0903649
4772.00 0.0903649
4774.00 0.0903649
4776.00 0.0903649
4778.00 0.0901986
4780.00 0.0901986
4782.00 0.0901986
4784.00 0.0901986
4786.00 0.0899498
4788.00 0.0899498
4790.00 0.0897842
4792.00 0.089619
4794.00 0.0895365
4796.00 0.0893717
4798.00 0.0892072
4800.00 0.0889611
4802.00 0.0887973
4804.00 0.0886339
4806.00 0.0884708
4808.00 0.0882267
4810.00 0.0880643
4812.00 0.0878213
4814.00 0.0874984
4816.00 0.0872569
4818.00 0.0870964
4820.00 0.0869361
4822.00 0.0866962
4824.00 0.0865366
4826.00 0.0862979
4828.00 0.086139
4830.00 0.0858223
4832.00 0.0855855
4834.00 0.0851922
4836.00 0.0846447
4838.00 0.0843335
4840.00 0.0837144
4842.00 0.0831764
4844.00 0.0826418
4846.00 0.0819596
4848.00 0.0814329
4850.00 0.0807607
4852.00 0.0801678
4854.00 0.079506
4856.00 0.0789951
4858.00 0.0786321
4860.00 0.0781268
4862.00 0.0779112
4864.00 0.077983
4866.00 0.077983
4868.00 0.0781268
4870.00 0.0786321
4872.00 0.0789951
4874.00 0.079506
4876.00 0.0801678
4878.00 0.0806863
4880.00 0.0814329
4882.00 0.0818088
4884.00 0.0822621
4886.00 0.0826418
4888.00 0.0830233
4890.00 0.0831764
4892.00 0.0834065
4894.00 0.0835603
4896.00 0.0837144
4898.00 0.083946
4900.00 0.083946
4902.00 0.0841008
4904.00 0.0842558
4906.00 0.0843335
4908.00 0.084489
4910.00 0.084489
4912.00 0.0846447
4914.00 0.0846447
4916.00 0.0848008
4918.00 0.084879
4920.00 0.084879
4922.00 0.084879
4924.00 0.084879
4926.00 0.084879
4928.00 0.084879
4930.00 0.084879
4932.00 0.084879
4934.00 0.084879
4936.00 0.084879
4938.00 0.084879
4940.00 0.084879
4942.00 0.084879
4944.00 0.084879
4946.00 0.084879
4948.00 0.084879
4950.00 0.084879
4952.00 0.084879
4954.00 0.084879
4956.00 0.084879
4958.00 0.084879
4960.00 0.084879
4962.00 0.084879
4964.00 0.0848008
4966.00 0.0846447
4968.00 0.0846447
4970.00 0.0846447
4972.00 0.084489
4974.00 0.084489
4976.00 0.0843335
4978.00 0.0843335
4980.00 0.0842558
4982.00 0.0841008
4984.00 0.0841008
4986.00 0.0841008
4988.00 0.0841008
4990.00 0.083946
4992.00 0.083946
4994.00 0.083946
4996.00 0.0837915
4998.00 0.0837144
5000.00 0.0837144
5002.00 0.0841008
5004.00 0.0841008
5006.00 0.0841008
5008.00 0.0841008
5010.00 0.0841008
5012.00 0.083946
5014.00 0.083946
5016.00 0.083946
5018.00 0.083946
5020.00 0.0837144
5022.00 0.0837144
5024.00 0.0835603
5026.00 0.0834065
5028.00 0.0834065
5030.00 0.083253
5032.00 0.0831764
5034.00 0.0831764
5036.00 0.0831764
5038.00 0.0830233
5040.00 0.0828705
5042.00 0.0828705
5044.00 0.0827942
5046.00 0.0826418
5048.00 0.0824898
5050.00 0.0824898
5052.00 0.0823379
5054.00 0.0822621
5056.00 0.0822621
5058.00 0.0821107
5060.00 0.0821107
5062.00 0.0819596
5064.00 0.0819596
5066.00 0.0819596
5068.00 0.0818088
5070.00 0.0817335
5072.00 0.0817335
5074.00 0.0817335
5076.00 0.0817335
5078.00 0.0817335
5080.00 0.0815831
5082.00 0.0815831
5084.00 0.0815831
5086.00 0.0814329
5088.00 0.0814329
5090.00 0.0812082
5092.00 0.0812082
5094.00 0.0812082
5096.00 0.0810588
5098.00 0.0810588
5100.00 0.0809096
5102.00 0.0809096
5104.00 0.0809096
5106.00 0.0809096
5108.00 0.0809096
5110.00 0.0807607
5112.00 0.0807607
5114.00 0.0806863
5116.00 0.0806863
5118.00 0.0806863
5120.00 0.0805378
5122.00 0.0805378
5124.00 0.0805378
5126.00 0.0803896
5128.00 0.0803896
5130.00 0.0803896
5132.00 0.0803896
5134.00 0.0803896
5136.00 0.0803896
5138.00 0.0803896
5140.00 0.0803156
5142.00 0.0803156
5144.00 0.0801678
5146.00 0.0801678
5148.00 0.0801678
5150.00 0.0801678
5152.00 0.080094
5154.00 0.080094
5156.00 0.080094
5158.00 0.0800203
5160.00 0.0800203
5162.00 0.0799466
5164.00 0.0799466
5166.00 0.079873
5168.00 0.079873
5170.00 0.0797995
5172.00 0.0797995
5174.00 0.079726
5176.00 0.0796526
5178.00 0.0796526
5180.00 0.0795793
5182.00 0.0795793
5184.00 0.079506
5186.00 0.0794328
5188.00 0.0794328
5190.00 0.0793597
5192.00 0.0792866
5194.00 0.0792136
5196.00 0.0792136
5198.00 0.0791407
5200.00 0.0790679
5202.00 0.0789951
5204.00 0.0789951
5206.00 0.0789223
5208.00 0.0788497
5210.00 0.0787771
5212.00 0.0787771
5214.00 0.0786321
5216.00 0.0786321
5218.00 0.0784874
5220.00 0.0784874
5222.00 0.078343
5224.00 0.0782708
5226.00 0.0782708
5228.00 0.0782708
5230.00 0.0781268
5232.00 0.077983
5234.00 0.077983
5236.00 0.0779112
5238.00 0.0777678
5240.00 0.0776247
5242.00 0.0776247
5244.00 0.0774819
5246.00 0.0774819
5248.00 0.0774105
5250.00 0.0772681
5252.00 0.0772681
5254.00 0.0772681
5256.00 0.0772681
5258.00 0.0771259
5260.00 0.0771259
5262.00 0.0771259
5264.00 0.0771259
5266.00 0.0771259
5268.00 0.0771259
5270.00 0.0771259
5272.00 0.0771259
5274.00 0.0769839
5276.00 0.076913
5278.00 0.0767715
5280.00 0.0767715
5282.00 0.0766302
5284.00 0.0764892
5286.00 0.0764188
5288.00 0.0762781
5290.00 0.0761377
5292.00 0.0761377
5294.00 0.0760677
5296.00 0.0759277
5298.00 0.0759277
5300.00 0.0757879
5302.00 0.0757879
5304.00 0.0756484
5306.00 0.0756484
5308.00 0.0755788
5310.00 0.0755788
5312.00 0.0754397
5314.00 0.0754397
5316.00 0.0754397
5318.00 0.0754397
5320.00 0.0754397
5322.00 0.0754397
5324.00 0.0754397
5326.00 0.0753009
5328.00 0.0753009
5330.00 0.0753009
5332.00 0.0751623
5334.00 0.0751623
5336.00 0.0750931
5338.00 0.0749549
5340.00 0.0749549
5342.00 0.074817
5344.00 0.074817
5346.00 0.0746793
5348.00 0.0746105
5350.00 0.0746105
5352.00 0.0744732
5354.00 0.0744732
5356.00 0.0743361
5358.00 0.0743361
5360.00 0.0741993
5362.00 0.0741993
5364.00 0.074131
5366.00 0.074131
5368.00 0.074131
5370.00 0.074131
5372.00 0.0739946
5374.00 0.0739946
5376.00 0.0739946
5378.00 0.0738584
5380.00 0.0738584
5382.00 0.0738584
5384.00 0.0737904
5386.00 0.0737904
5388.00 0.0736546
5390.00 0.0736546
5392.00 0.0736546
5394.00 0.0736546
5396.00 0.0735191
5398.00 0.0735191
5400.00 0.0735191
5402.00 0.0733838
5404.00 0.0733838
5406.00 0.0733838
5408.00 0.0733162
5410.00 0.0733162
5412.00 0.0731813
5414.00 0.0731813
5416.00 0.0731813
5418.00 0.0730466
5420.00 0.0730466
5422.00 0.0730466
5424.00 0.0729122
5426.00 0.0729122
5428.00 0.072845
5430.00 0.072845
5432.00 0.072845
5434.00 0.072845
5436.00 0.072711
5438.00 0.072711
5440.00 0.072711
5442.00 0.0725772
5444.00 0.0725772
5446.00 0.0724436
5448.00 0.0723769
5450.00 0.0723769
5452.00 0.0722437
5454.00 0.0722437
5456.00 0.0721107
5458.00 0.0721107
5460.00 0.071978
5462.00 0.0719118
5464.00 0.0717794
5466.00 0.0717794
5468.00 0.0716473
5470.00 0.0716473
5472.00 0.0715814
5474.00 0.0714496
5476.00 0.0714496
5478.00 0.0713181
5480.00 0.0713181
5482.00 0.0713181
5484.00 0.0711869
5486.00 0.0711869
5488.00 0.0711869
5490.00 0.0711214
5492.00 0.0709905
5494.00 0.0709905
5496.00 0.0709905
5498.00 0.0708598
5500.00 0.0708598
5502.00 0.0707294
5504.00 0.0706643
5506.00 0.0706643
5508.00 0.0706643
5510.00 0.0705342
5512.00 0.0705342
5514.00 0.0705342
5516.00 0.0704044
5518.00 0.0704044
5520.00 0.0704044
5522.00 0.0704044
5524.00 0.0702749
5526.00 0.0702749
5528.00 0.0702102
5530.00 0.0702102
5532.00 0.0702102
5534.00 0.070081
5536.00 0.070081
5538.00 0.069952
5540.00 0.069952
5542.00 0.069952
5544.00 0.0698232
5546.00 0.069759
5548.00 0.0696306
5550.00 0.0696306
5552.00 0.0695024
5554.00 0.0695024
5556.00 0.0694384
5558.00 0.0693107
5560.00 0.0693107
5562.00 0.0693107
5564.00 0.0693107
5566.00 0.0693107
5568.00 0.0693107
5570.00 0.0693107
5572.00 0.0693107
5574.00 0.0691831
5576.00 0.0691831
5578.00 0.0691831
5580.00 0.0690558
5582.00 0.0690558
5584.00 0.0690558
5586.00 0.0690558
5588.00 0.0690558
5590.00 0.0689922
5592.00 0.0688652
5594.00 0.0688652
5596.00 0.0688652
5598.00 0.0687385
5600.00 0.0687385
5602.00 0.068612
5604.00 0.0685488
5606.00 0.0685488
5608.00 0.0685488
5610.00 0.0684227
5612.00 0.0684227
5614.00 0.0682967
5616.00 0.0682967
5618.00 0.0681083
5620.00 0.0681083
5622.00 0.0679829
5624.00 0.0679829
5626.00 0.0678578
5628.00 0.0677954
5630.00 0.0676706
5632.00 0.0676706
5634.00 0.0675461
5636.00 0.0675461
5638.00 0.0675461
5640.00 0.0674217
5642.00 0.0674217
5644.00 0.0674217
5646.00 0.0674217
5648.00 0.0673597
5650.00 0.0673597
5652.00 0.0672357
5654.00 0.0672357
5656.00 0.0672357
5658.00 0.0672357
5660.00 0.067112
5662.00 0.067112
5664.00 0.067112
5666.00 0.0669885
5668.00 0.0669885
5670.00 0.0669885
5672.00 0.0669268
5674.00 0.0668036
5676.00 0.0668036
5678.00 0.0668036
5680.00 0.0666807
5682.00 0.0666807
5684.00 0.0666807
5686.00 0.066558
5688.00 0.0664967
5690.00 0.0664967
5692.00 0.0663743
5694.00 0.0663743
5696.00 0.0662522
5698.00 0.0662522
5700.00 0.0662522
5702.00 0.0661302
5704.00 0.0661302
5706.00 0.0660693
5708.00 0.0660693
5710.00 0.0660693
5712.00 0.0659478
5714.00 0.0659478
5716.00 0.0659478
5718.00 0.0658264
5720.00 0.0658264
5722.00 0.0658264
5724.00 0.0657658
5726.00 0.0656448
5728.00 0.0656448
5730.00 0.0655239
5732.00 0.0655239
5734.00 0.0655239
5736.00 0.0655239
5738.00 0.0654034
5740.00 0.0654034
5742.00 0.0654034
5744.00 0.0654034
5746.00 0.0653431
5748.00 0.0652229
5750.00 0.0652229
5752.00 0.0652229
5754.00 0.0651028
5756.00 0.0651028
5758.00 0.0651028
5760.00 0.064983
5762.00 0.064983
5764.00 0.0649232
5766.00 0.0649232
5768.00 0.0648037
5770.00 0.0648037
5772.00 0.0648037
5774.00 0.0646845
5776.00 0.0646845
5778.00 0.0645654
5780.00 0.0645654
5782.00 0.064506
5784.00 0.064506
5786.00 0.064506
5788.00 0.0643873
5790.00 0.0643873
5792.00 0.0643873
5794.00 0.0642688
5796.00 0.0642688
5798.00 0.0642688
5800.00 0.0642688
5802.00 0.0641505
5804.00 0.0641505
5806.00 0.0640914
5808.00 0.0640914
5810.00 0.0640914
5812.00 0.0640914
5814.00 0.0639735
5816.00 0.0639735
5818.00 0.0639735
5820.00 0.0638557
5822.00 0.0638557
5824.00 0.0638557
5826.00 0.063797
5828.00 0.063797
5830.00 0.0636796
5832.00 0.0636796
5834.00 0.0636796
5836.00 0.0635624
5838.00 0.0635624
5840.00 0.0635624
5842.00 0.0634454
5844.00 0.0634454
5846.00 0.063387
5848.00 0.0632703
5850.00 0.0632703
5852.00 0.0632703
5854.00 0.0632703
5856.00 0.0632703
5858.00 0.0632703
5860.00 0.0631539
5862.00 0.0631539
5864.00 0.0631539
5866.00 0.0631539
5868.00 0.0630376
5870.00 0.0630376
5872.00 0.0629796
5874.00 0.0629796
5876.00 0.0629796
5878.00 0.0628637
5880.00 0.0628637
5882.00 0.0628637
5884.00 0.0629796
5886.00 0.0629796
5888.00 0.0629796
5890.00 0.0629796
5892.00 0.0629796
5894.00 0.0629796
5896.00 0.0628637
5898.00 0.0628637
5900.00 0.062748
5902.00 0.062748
5904.00 0.0625749
5906.00 0.0625749
5908.00 0.0624597
5910.00 0.0623448
5912.00 0.0623448
5914.00 0.06223
5916.00 0.0621727
5918.00 0.0621727
5920.00 0.0620583
5922.00 0.0620583
5924.00 0.0620583
5926.00 0.0619441
5928.00 0.0619441
5930.00 0.0618871
5932.00 0.0618871
5934.00 0.0617732
5936.00 0.0617732
5938.00 0.0617732
5940.00 0.0617732
5942.00 0.0616595
5944.00 0.0616595
5946.00 0.061546
5948.00 0.061546
5950.00 0.0614894
5952.00 0.0613762
5954.00 0.0613762
5956.00 0.0613762
5958.00 0.0612632
5960.00 0.0612632
5962.00 0.0612632
5964.00 0.0611505
5966.00 0.0611505
5968.00 0.0610942
5970.00 0.0610942
5972.00 0.0610942
5974.00 0.0610942
5976.00 0.0610942
5978.00 0.0609818
5980.00 0.0609818
5982.00 0.0609818
5984.00 0.0608695
5986.00 0.0608695
5988.00 0.0607575
5990.00 0.0607016
5992.00 0.0607016
5994.00 0.0607016
5996.00 0.0605899
5998.00 0.0605899
6000.00 0.0605899
6002.00 0.0605899
6004.00 0.0605899
6006.00 0.0604784
6008.00 0.0604784
6010.00 0.0604784
6012.00 0.0604227
6014.00 0.0604227
6016.00 0.0603115
6018.00 0.0603115
6020.00 0.0603115
6022.00 0.0603115
6024.00 0.0602005
6026.00 0.0602005
6028.00 0.0600897
6030.00 0.0600897
6032.00 0.0600897
6034.00 0.0600344
6036.00 0.0599239
6038.00 0.0599239
6040.00 0.0599239
6042.00 0.0598136
6044.00 0.0598136
6046.00 0.0598136
6048.00 0.0598136
6050.00 0.0598136
6052.00 0.0598136
6054.00 0.0598136
6056.00 0.0597035
6058.00 0.0597035
6060.00 0.0596486
6062.00 0.0595388
6064.00 0.0595388
6066.00 0.0594292
6068.00 0.0594292
6070.00 0.0593198
6072.00 0.0593198
6074.00 0.0592652
6076.00 0.0592652
6078.00 0.0592652
6080.00 0.0591562
6082.00 0.0591562
6084.00 0.0591562
6086.00 0.0591562
6088.00 0.0590473
6090.00 0.0590473
6092.00 0.0590473
6094.00 0.0589386
6096.00 0.0588844
6098.00 0.0588844
6100.00 0.0588844
6102.00 0.058776
6104.00 0.058776
6106.00 0.058776
6108.00 0.058776
6110.00 0.0586678
6112.00 0.0586678
6114.00 0.0586678
6116.00 0.0586138
6118.00 0.0586138
6120.00 0.0585059
6122.00 0.0585059
6124.00 0.0585059
6126.00 0.0585059
6128.00 0.0585059
6130.00 0.0585059
6132.00 0.0583983
6134.00 0.0583983
6136.00 0.0583983
6138.00 0.0582908
6140.00 0.0582908
6142.00 0.0582908
6144.00 0.0582371
6146.00 0.0582371
6148.00 0.05813
6150.00 0.05813
6152.00 0.05813
6154.00 0.058023
6156.00 0.058023
6158.00 0.058023
6160.00 0.0579162
6162.00 0.0579162
6164.00 0.0578629
6166.00 0.0578629
6168.00 0.0577564
6170.00 0.0577564
6172.00 0.0577564
6174.00 0.0577564
6176.00 0.0576501
6178.00 0.0576501
6180.00 0.057544
6182.00 0.057491
6184.00 0.057491
6186.00 0.0573852
6188.00 0.0573852
6190.00 0.0572796
6192.00 0.0572796
6194.00 0.0571742
6196.00 0.0571742
6198.00 0.0571216
6200.00 0.0571216
6202.00 0.0571216
6204.00 0.0571216
6206.00 0.0570164
6208.00 0.0570164
6210.00 0.0569115
6212.00 0.0569115
6214.00 0.0568591
6216.00 0.0567545
6218.00 0.0567545
6220.00 0.05665
6222.00 0.05665
6224.00 0.05665
6226.00 0.0565458
6228.00 0.0565458
6230.00 0.0565458
6232.00 0.0565458
6234.00 0.0564937
6236.00 0.0564937
6238.00 0.0564937
6240.00 0.0564937
6242.00 0.0563897
6244.00 0.0563897
6246.00 0.0563897
6248.00 0.0562859
6250.00 0.0562859
6252.00 0.0562859
6254.00 0.0561824
6256.00 0.0561306
6258.00 0.0561306
6260.00 0.0561306
6262.00 0.0560273
6264.00 0.0560273
6266.00 0.0560273
6268.00 0.0559242
6270.00 0.0558213
6272.00 0.0557699
6274.00 0.0556673
6276.00 0.0556673
6278.00 0.0555648
6280.00 0.0555648
6282.00 0.0554626
6284.00 0.0554115
6286.00 0.0554115
6288.00 0.0554115
6290.00 0.0554115
6292.00 0.0554115
6294.00 0.0553095
6296.00 0.0553095
6298.00 0.0553095
6300.00 0.0552077
6302.00 0.0552077
6304.00 0.0551569
6306.00 0.0551569
6308.00 0.0550554
6310.00 0.0550554
6312.00 0.0550554
6314.00 0.0550554
6316.00 0.0549541
6318.00 0.0549541
6320.00 0.0549541
6322.00 0.0549541
6324.00 0.054853
6326.00 0.054853
6328.00 0.054853
6330.00 0.054853
6332.00 0.054853
6334.00 0.0548025
6336.00 0.0548025
6338.00 0.0547016
6340.00 0.0547016
6342.00 0.0547016
6344.00 0.0546009
6346.00 0.0546009
6348.00 0.0546009
6350.00 0.0545004
6352.00 0.0544503
6354.00 0.0544503
6356.00 0.0543501
6358.00 0.0543501
6360.00 0.05425
6362.00 0.05425
6364.00 0.05425
6366.00 0.0541502
6368.00 0.0541502
6370.00 0.0541003
6372.00 0.0541003
6374.00 0.0541003
6376.00 0.0541003
6378.00 0.0541003
6380.00 0.0540008
6382.00 0.0540008
6384.00 0.0540008
6386.00 0.0540008
6388.00 0.0539014
6390.00 0.0539014
6392.00 0.0539014
6394.00 0.0538518
6396.00 0.0537527
6398.00 0.0537527
6400.00 0.0536537
6402.00 0.0536537
6404.00 0.0536537
6406.00 0.0536537
6408.00 0.0536537
6410.00 0.0536537
6412.00 0.053555
6414.00 0.053555
6416.00 0.053555
6418.00 0.053555
6420.00 0.0535057
6422.00 0.0535057
6424.00 0.0534072
6426.00 0.0534072
6428.00 0.0534072
6430.00 0.0534072
6432.00 0.0534072
6434.00 0.0533089
6436.00 0.0533089
6438.00 0.0533089
6440.00 0.0533089
6442.00 0.0533089
6444.00 0.0532108
6446.00 0.0532108
6448.00 0.0532108
6450.00 0.0532108
6452.00 0.0531618
6454.00 0.053064
6456.00 0.053064
6458.00 0.0529663
6460.00 0.0529663
6462.00 0.0528689
6464.00 0.0528202
6466.00 0.0528202
6468.00 0.052723
6470.00 0.052723
6472.00 0.052626
6474.00 0.052626
6476.00 0.052626
6478.00 0.0525291
6480.00 0.0524807
6482.00 0.0524807
6484.00 0.0523842
6486.00 0.0522878
6488.00 0.0522878
6490.00 0.0522396
6492.00 0.0521435
6494.00 0.0520475
6496.00 0.0519517
6498.00 0.0519039
6500.00 0.0518084
6502.00 0.051713
6504.00 0.0515703
6506.00 0.0513807
6508.00 0.0512389
6510.00 0.0511446
6512.00 0.0509096
6514.00 0.0507224
6516.00 0.0505825
6518.00 0.0503965
6520.00 0.0502574
6522.00 0.0500726
6524.00 0.0499344
6526.00 0.0498425
6528.00 0.049705
6530.00 0.0495222
6532.00 0.0493856
6534.00 0.049204
6536.00 0.0489779
6538.00 0.0488427
6540.00 0.0486631
6542.00 0.0483504
6544.00 0.0481282
6546.00 0.0479071
6548.00 0.0475992
6550.00 0.0472933
6552.00 0.0469894
6554.00 0.0467735
6556.00 0.0464729
6558.00 0.0461743
6560.00 0.0460045
6562.00 0.0458775
6564.00 0.0456667
6566.00 0.0455827
6568.00 0.0455827
6570.00 0.0454988
6572.00 0.0456667
6574.00 0.0457088
6576.00 0.0458775
6578.00 0.0460045
6580.00 0.0462594
6582.00 0.0464729
6584.00 0.0466874
6586.00 0.0469029
6588.00 0.047076
6590.00 0.0472933
6592.00 0.0475116
6594.00 0.0477309
6596.00 0.0479071
6598.00 0.0480397
6600.00 0.048217
6602.00 0.0483504
6604.00 0.0485289
6606.00 0.0487528
6608.00 0.0488877
6610.00 0.0489779
6612.00 0.0491587
6614.00 0.0492947
6616.00 0.0493856
6618.00 0.0494311
6620.00 0.0495222
6622.00 0.0495222
6624.00 0.0496135
6626.00 0.0496135
6628.00 0.049705
6630.00 0.049705
6632.00 0.049705
6634.00 0.049705
6636.00 0.049705
6638.00 0.049705
6640.00 0.049705
6642.00 0.049705
6644.00 0.049705
6646.00 0.049705
6648.00 0.049705
6650.00 0.049705
6652.00 0.049705
6654.00 0.049705
6656.00 0.049705
6658.00 0.049705
6660.00 0.049705
6662.00 0.049705
6664.00 0.0496135
6666.00 0.0496135
6668.00 0.0496135
6670.00 0.0496135
6672.00 0.0496135
6674.00 0.0495222
6676.00 0.0495222
6678.00 0.0495222
6680.00 0.0494311
6682.00 0.0494311
6684.00 0.0493856
6686.00 0.0493856
6688.00 0.0493856
6690.00 0.0492947
6692.00 0.0492947
6694.00 0.0492947
6696.00 0.0492947
6698.00 0.049204
6700.00 0.049204
6702.00 0.049204
6704.00 0.0491587
6706.00 0.0490682
6708.00 0.0490682
6710.00 0.0490682
6712.00 0.0489779
6714.00 0.0489779
6716.00 0.0488877
6718.00 0.0488877
6720.00 0.0488877
6722.00 0.0488427
6724.00 0.0488427
6726.00 0.0487528
6728.00 0.0487528
6730.00 0.0487528
6732.00 0.0487528
6734.00 0.0486631
6736.00 0.0486631
6738.00 0.0486631
6740.00 0.0486631
6742.00 0.0486631
6744.00 0.0486631
6746.00 0.0486631
6748.00 0.0486631
6750.00 0.0486631
6752.00 0.0485736
6754.00 0.0485289
6756.00 0.0485289
6758.00 0.0485289
6760.00 0.0484395
6762.00 0.0484395
6764.00 0.0483504
6766.00 0.0483504
6768.00 0.0483504
6770.00 0.0482614
6772.00 0.0482614
6774.00 0.0482614
6776.00 0.0482614
6778.00 0.0482614
6780.00 0.0482614
6782.00 0.0482614
6784.00 0.0482614
6786.00 0.0482614
6788.00 0.0482614
6790.00 0.048217
6792.00 0.048217
6794.00 0.048217
6796.00 0.0481282
6798.00 0.0481282
6800.00 0.0481282
6802.00 0.0480397
6804.00 0.0480397
6806.00 0.0479954
6808.00 0.0479071
6810.00 0.0479071
6812.00 0.0478189
6814.00 0.0478189
6816.00 0.0478189
6818.00 0.0478189
6820.00 0.0478189
6822.00 0.0478189
6824.00 0.0478189
6826.00 0.0478189
6828.00 0.0478189
6830.00 0.0478189
6832.00 0.0477309
6834.00 0.0477309
6836.00 0.0477309
6838.00 0.0477309
6840.00 0.0477309
6842.00 0.047687
6844.00 0.047687
6846.00 0.0476431
6848.00 0.0476431
6850.00 0.0475992
6852.00 0.0475992
6854.00 0.0475992
6856.00 0.0475554
6858.00 0.0475554
6860.00 0.0475116
6862.00 0.0475116
6864.00 0.0475116
6866.00 0.0474679
6868.00 0.0474679
6870.00 0.0474242
6872.00 0.0474242
6874.00 0.0473805
6876.00 0.0473805
6878.00 0.0473805
6880.00 0.0473369
6882.00 0.0473369
6884.00 0.0472933
6886.00 0.0472933
6888.00 0.0472498
6890.00 0.0472498
6892.00 0.0472063
6894.00 0.0472063
6896.00 0.0471628
6898.00 0.0471628
6900.00 0.0471194
6902.00 0.047076
6904.00 0.047076
6906.00 0.0470327
6908.00 0.0470327
6910.00 0.0469894
6912.00 0.0469894
6914.00 0.0469462
6916.00 0.0469029
6918.00 0.0469029
6920.00 0.0468598
6922.00 0.0468598
6924.00 0.0468166
6926.00 0.0467735
6928.00 0.0467735
6930.00 0.0467305
6932.00 0.0466874
6934.00 0.0466874
6936.00 0.0466445
6938.00 0.0466015
6940.00 0.0466015
6942.00 0.0465586
6944.00 0.0465157
6946.00 0.0464729
6948.00 0.0464729
6950.00 0.0464301
6952.00 0.0463874
6954.00 0.046302
6956.00 0.046302
6958.00 0.046302
6960.00 0.046302
6962.00 0.046302
6964.00 0.0462594
6966.00 0.0461743
6968.00 0.0461743
6970.00 0.0460893
6972.00 0.0460893
6974.00 0.0460045
6976.00 0.0459621
6978.00 0.0459621
6980.00 0.0458775
6982.00 0.0458775
6984.00 0.0457931
6986.00 0.0457931
6988.00 0.0457931
6990.00 0.0457088
6992.00 0.0457088
6994.00 0.0457088
6996.00 0.0456667
6998.00 0.0457088
7000.00 0.0457088
7002.00 0.0457088
7004.00 0.0457088
7006.00 0.0457088
7008.00 0.0457088
7010.00 0.0457088
7012.00 0.0457088
7014.00 0.0457088
7016.00 0.0456667
7018.00 0.0456667
7020.00 0.0456667
7022.00 0.0455827
7024.00 0.0455827
7026.00 0.0454988
7028.00 0.0454988
7030.00 0.0454151
7032.00 0.0453733
7034.00 0.0452898
7036.00 0.0452898
7038.00 0.0452064
7040.00 0.0452064
7042.00 0.0451648
7044.00 0.0450817
7046.00 0.0450817
7048.00 0.0450817
7050.00 0.0449987
7052.00 0.0449987
7054.00 0.0449987
7056.00 0.0449987
7058.00 0.0449987
7060.00 0.0449987
7062.00 0.0449987
7064.00 0.0449987
7066.00 0.0449987
7068.00 0.0449987
7070.00 0.0449987
7072.00 0.0449159
7074.00 0.0449159
7076.00 0.0449159
7078.00 0.0448745
7080.00 0.044792
7082.00 0.044792
7084.00 0.044792
7086.00 0.0447095
7088.00 0.0447095
7090.00 0.0446272
7092.00 0.0445862
7094.00 0.0445862
7096.00 0.0445862
7098.00 0.0445041
7100.00 0.0445041
7102.00 0.0444222
7104.00 0.0444222
7106.00 0.0444222
7108.00 0.0443404
7110.00 0.0443404
7112.00 0.0442996
7114.00 0.0442996
7116.00 0.0442996
7118.00 0.0442996
7120.00 0.0442996
7122.00 0.0442996
7124.00 0.0442996
7126.00 0.0442996
7128.00 0.0442996
7130.00 0.0442181
7132.00 0.0442181
7134.00 0.0442181
7136.00 0.0442181
7138.00 0.0441367
7140.00 0.0441367
7142.00 0.0441367
7144.00 0.0441367
7146.00 0.0441367
7148.00 0.0440555
7150.00 0.0440555
7152.00 0.0440149
7154.00 0.0440149
7156.00 0.0440149
7158.00 0.0439339
7160.00 0.0438531
7162.00 0.0438531
7164.00 0.0438531
7166.00 0.0438127
7168.00 0.0437321
7170.00 0.0437321
7172.00 0.0437321
7174.00 0.0437321
7176.00 0.0436516
7178.00 0.0436516
7180.00 0.0436516
7182.00 0.0436516
7184.00 0.0436516
7186.00 0.0436516
7188.00 0.0435712
7190.00 0.0435712
7192.00 0.0435712
7194.00 0.0435712
7196.00 0.0435712
7198.00 0.0435311
7200.00 0.043451
7202.00 0.043451
7204.00 0.043451
7206.00 0.043451
7208.00 0.0433711
7210.00 0.0433711
7212.00 0.0432912
7214.00 0.0432514
7216.00 0.0432514
7218.00 0.0431718
7220.00 0.0431718
7222.00 0.0430923
7224.00 0.043013
7226.00 0.0429734
7228.00 0.0429734
7230.00 0.0429734
7232.00 0.0428943
7234.00 0.0428943
7236.00 0.0428943
7238.00 0.0428943
7240.00 0.0428943
7242.00 0.0428943
7244.00 0.0428943
7246.00 0.0428943
7248.00 0.0428943
7250.00 0.0428154
7252.00 0.0428154
7254.00 0.0428154
7256.00 0.0428154
7258.00 0.0428154
7260.00 0.042776
7262.00 0.0426973
7264.00 0.0426973
7266.00 0.0426973
7268.00 0.0426187
7270.00 0.0426187
7272.00 0.0425402
7274.00 0.0425402
7276.00 0.0425011
7278.00 0.0424229
7280.00 0.0424229
7282.00 0.0424229
7284.00 0.0423448
7286.00 0.0423448
7288.00 0.0423448
7290.00 0.0423448
7292.00 0.0423448
7294.00 0.0423448
7296.00 0.0422669
7298.00 0.0422669
7300.00 0.0422669
7302.00 0.0422669
7304.00 0.042228
7306.00 0.042228
7308.00 0.042228
7310.00 0.0421502
7312.00 0.0421502
7314.00 0.0421502
7316.00 0.0421502
7318.00 0.0420727
7320.00 0.0420727
7322.00 0.0420727
7324.00 0.0420727
7326.00 0.0420727
7328.00 0.0419952
7330.00 0.0419952
7332.00 0.0419566
7334.00 0.0419566
7336.00 0.0418794
7338.00 0.0418794
7340.00 0.0418023
7342.00 0.0418023
7344.00 0.0418023
7346.00 0.0418023
7348.00 0.0417254
7350.00 0.0416869
7352.00 0.0416869
7354.00 0.0416869
7356.00 0.0416869
7358.00 0.0416869
7360.00 0.0416102
7362.00 0.0416102
7364.00 0.0416102
7366.00 0.0416102
7368.00 0.0416102
7370.00 0.0416102
7372.00 0.0416102
7374.00 0.0416102
7376.00 0.0416102
7378.00 0.0416102
7380.00 0.0416102
7382.00 0.0416102
7384.00 0.0415336
7386.00 0.0415336
7388.00 0.0415336
7390.00 0.0414954
7392.00 0.041419
7394.00 0.041419
7396.00 0.0413428
7398.00 0.0413428
7400.00 0.0412667
7402.00 0.0412667
7404.00 0.0412287
7406.00 0.0411529
7408.00 0.0411529
7410.00 0.0411529
7412.00 0.0411529
7414.00 0.0411529
7416.00 0.0411529
7418.00 0.0411529
7420.00 0.0411529
7422.00 0.0411529
7424.00 0.0411529
7426.00 0.0411529
7428.00 0.0411529
7430.00 0.0411529
7432.00 0.0410771
7434.00 0.0410771
7436.00 0.0410771
7438.00 0.0410015
7440.00 0.0410015
7442.00 0.0409638
7444.00 0.0409638
7446.00 0.0409638
7448.00 0.0408884
7450.00 0.0408884
7452.00 0.0408884
7454.00 0.0408131
7456.00 0.0408131
7458.00 0.040738
7460.00 0.0407005
7462.00 0.0407005
7464.00 0.0407005
7466.00 0.0406256
7468.00 0.0406256
7470.00 0.0406256
7472.00 0.0406256
7474.00 0.0405509
7476.00 0.0405509
7478.00 0.0405509
7480.00 0.0405509
7482.00 0.0405509
7484.00 0.0404762
7486.00 0.040439
7488.00 0.040439
7490.00 0.040439
7492.00 0.0403645
7494.00 0.0403645
7496.00 0.0403645
7498.00 0.0403645
7500.00 0.0402903
7502.00 0.0402903
7504.00 0.0402903
7506.00 0.0402903
7508.00 0.0402532
7510.00 0.0401791
7512.00 0.0401791
7514.00 0.0401791
7516.00 0.0401051
7518.00 0.0401051
7520.00 0.0401051
7522.00 0.0400313
7524.00 0.0400313
7526.00 0.0400313
7528.00 0.0400313
7530.00 0.0400313
7532.00 0.0400313
7534.00 0.0400313
7536.00 0.0400313
7538.00 0.0400313
7540.00 0.0399945
7542.00 0.0399945
7544.00 0.0399209
7546.00 0.0399209
7548.00 0.0399209
7550.00 0.0398474
7552.00 0.0398474
7554.00 0.0398107
7556.00 0.0398107
7558.00 0.0397741
7560.00 0.0397375
7562.00 0.0397375
7564.00 0.0397009
7566.00 0.0397009
7568.00 0.0396643
7570.00 0.0396643
7572.00 0.0396278
7574.00 0.0396278
7576.00 0.0395913
7578.00 0.0395913
7580.00 0.0395549
7582.00 0.0395185
7584.00 0.0395185
7586.00 0.0394821
7588.00 0.0394821
7590.00 0.0394457
7592.00 0.0394457
7594.00 0.0394094
7596.00 0.0394094
7598.00 0.0393731
7600.00 0.0393731
7602.00 0.0393369
7604.00 0.0393007
7606.00 0.0393007
7608.00 0.0392645
7610.00 0.0392645
7612.00 0.0392283
7614.00 0.0392283
7616.00 0.0391922
7618.00 0.0391922
7620.00 0.0391562
7622.00 0.0391201
7624.00 0.0391201
7626.00 0.0390841
7628.00 0.0390841
7630.00 0.0390481
7632.00 0.0390481
7634.00 0.0390122
7636.00 0.0389762
7638.00 0.0389762
7640.00 0.0389404
7642.00 0.0389404
7644.00 0.0389045
7646.00 0.0389045
7648.00 0.0388687
7650.00 0.0388687
7652.00 0.0388329
7654.00 0.0387972
7656.00 0.0387972
7658.00 0.0387614
7660.00 0.0387614
7662.00 0.0387258
7664.00 0.0387258
7666.00 0.0386901
7668.00 0.0386545
7670.00 0.0386545
7672.00 0.0386189
7674.00 0.0386189
7676.00 0.0385834
7678.00 0.0385834
7680.00 0.0385478
7682.00 0.0385123
7684.00 0.0385123
7686.00 0.0384769
7688.00 0.0384769
7690.00 0.0384415
7692.00 0.0383001
7694.00 0.0383001
7696.00 0.0383354
7698.00 0.0383354
7700.00 0.0383354
7702.00 0.0383354
7704.00 0.0383001
7706.00 0.0383001
7708.00 0.0383001
7710.00 0.0382296
7712.00 0.0382296
7714.00 0.0382296
7716.00 0.0382296
7718.00 0.0381593
7720.00 0.0381593
7722.00 0.0381593
7724.00 0.0381241
7726.00 0.038054
7728.00 0.038054
7730.00 0.038054
7732.00 0.0379839
7734.00 0.0379839
7736.00 0.0379839
7738.00 0.038054
7740.00 0.038054
7742.00 0.0379839
7744.00 0.0379839
7746.00 0.0379839
7748.00 0.0379839
7750.00 0.037914
7752.00 0.037914
7754.00 0.037914
7756.00 0.037914
7758.00 0.0378791
7760.00 0.0378094
7762.00 0.0378094
7764.00 0.0378094
7766.00 0.0378094
7768.00 0.0377398
7770.00 0.0377398
7772.00 0.0377398
7774.00 0.0376704
7776.00 0.0376704
7778.00 0.0376704
7780.00 0.0376357
7782.00 0.0375664
7784.00 0.0375664
7786.00 0.0375664
7788.00 0.0374973
7790.00 0.0374973
7792.00 0.0374283
7794.00 0.0374283
7796.00 0.0373938
7798.00 0.0373938
7800.00 0.0373938
7802.00 0.0373938
7804.00 0.037325
7806.00 0.037325
7808.00 0.037325
7810.00 0.037325
7812.00 0.037325
7814.00 0.037325
7816.00 0.0372563
7818.00 0.0372563
7820.00 0.0372563
7822.00 0.0372563
7824.00 0.0371878
7826.00 0.0371535
7828.00 0.0371535
7830.00 0.0371535
7832.00 0.0371535
7834.00 0.0371535
7836.00 0.0370851
7838.00 0.0370851
7840.00 0.0370851
7842.00 0.0370851
7844.00 0.0370851
7846.00 0.0370169
7848.00 0.0370169
7850.00 0.0370169
7852.00 0.0369828
7854.00 0.0369148
7856.00 0.0369148
7858.00 0.0369148
7860.00 0.0368468
7862.00 0.0368468
7864.00 0.0368468
7866.00 0.036779
7868.00 0.036779
7870.00 0.036779
7872.00 0.036779
7874.00 0.036779
7876.00 0.036779
7878.00 0.036779
7880.00 0.036779
7882.00 0.036779
7884.00 0.036779
7886.00 0.036779
7888.00 0.0367451
7890.00 0.0367451
7892.00 0.0366775
7894.00 0.0366775
7896.00 0.0366775
7898.00 0.0366775
7900.00 0.03661
7902.00 0.03661
7904.00 0.03661
7906.00 0.03661
7908.00 0.0365426
7910.00 0.0365426
7912.00 0.036509
7914.00 0.036509
7916.00 0.0364418
7918.00 0.0364418
7920.00 0.0364418
7922.00 0.0363747
7924.00 0.0363747
7926.00 0.0363747
7928.00 0.0363747
7930.00 0.0363747
7932.00 0.0363747
7934.00 0.0363747
7936.00 0.0363747
7938.00 0.0363747
7940.00 0.0363078
7942.00 0.0363078
7944.00 0.0362744
7946.00 0.0362744
7948.00 0.0362744
7950.00 0.0362744
7952.00 0.0362744
7954.00 0.0362076
7956.00 0.0362076
7958.00 0.0362076
7960.00 0.0362076
7962.00 0.0362076
7964.00 0.036141
7966.00 0.036141
7968.00 0.036141
7970.00 0.0360745
7972.00 0.0360413
7974.00 0.0360413
7976.00 0.0360413
7978.00 0.0359749
7980.00 0.0359749
7982.00 0.0359749
7984.00 0.0359749
7986.00 0.0359749
7988.00 0.0359749
7990.00 0.0359749
7992.00 0.0359087
7994.00 0.0359087
7996.00 0.0359087
7998.00 0.0359087
8000.00 0.0359087
8002.00 0.0359087
8004.00 0.0359087
8006.00 0.0359087
8008.00 0.0359087
8010.00 0.0358757
8012.00 0.0358096
8014.00 0.0358096
8016.00 0.0358096
8018.00 0.0358096
8020.00 0.0358096
8022.00 0.0357437
8024.00 0.0357437
8026.00 0.0357437
8028.00 0.0357437
8030.00 0.035678
8032.00 0.035678
8034.00 0.035678
8036.00 0.0356451
8038.00 0.0356451
8040.00 0.0355795
8042.00 0.0355795
8044.00 0.0355795
8046.00 0.0355795
8048.00 0.0355795
8050.00 0.0355795
8052.00 0.0355795
8054.00 0.0355795
8056.00 0.0355795
8058.00 0.0355795
8060.00 0.035514
8062.00 0.035514
8064.00 0.035514
8066.00 0.035514
8068.00 0.035514
8070.00 0.0354487
8072.00 0.0354487
8074.00 0.035416
8076.00 0.035416
8078.00 0.035416
8080.00 0.0353509
8082.00 0.0353509
8084.00 0.0353509
8086.00 0.0353509
8088.00 0.0353509
8090.00 0.0353509
8092.00 0.0353509
8094.00 0.0353509
8096.00 0.0352858
8098.00 0.0352858
8100.00 0.0352209
8102.00 0.0351884
8104.00 0.0351884
8106.00 0.0351884
8108.00 0.0351237
8110.00 0.0351237
8112.00 0.0351237
8114.00 0.035059
8116.00 0.035059
8118.00 0.035059
8120.00 0.035059
8122.00 0.035059
8124.00 0.0349945
8126.00 0.0349945
8128.00 0.0349945
8130.00 0.0349945
8132.00 0.0349945
8134.00 0.0349623
8136.00 0.0349623
8138.00 0.0349623
8140.00 0.034898
8142.00 0.034898
8144.00 0.034898
8146.00 0.034898
8148.00 0.0348337
8150.00 0.0348337
8152.00 0.0348337
8154.00 0.0348017
8156.00 0.0347376
8158.00 0.0347376
8160.00 0.0346737
8162.00 0.0346737
8164.00 0.0346737
8166.00 0.0346099
8168.00 0.0346099
8170.00 0.0346099
8172.00 0.034578
8174.00 0.034578
8176.00 0.0345144
8178.00 0.0345144
8180.00 0.0345144
8182.00 0.0344509
8184.00 0.0344509
8186.00 0.0344509
8188.00 0.0344509
8190.00 0.0343875
8192.00 0.0343875
8194.00 0.0343558
8196.00 0.0343558
8198.00 0.0343558
8200.00 0.0343558
8202.00 0.0343558
8204.00 0.0343558
8206.00 0.0343558
8208.00 0.0343558
8210.00 0.0343558
8212.00 0.0343558
8214.00 0.0343558
8216.00 0.0342926
8218.00 0.0342926
8220.00 0.0342926
8222.00 0.0342295
8224.00 0.0342295
8226.00 0.0341665
8228.00 0.034135
8230.00 0.034135
8232.00 0.034135
8234.00 0.034135
8236.00 0.0340722
8238.00 0.0340722
8240.00 0.0340722
8242.00 0.0340722
8244.00 0.0340095
8246.00 0.0340095
8248.00 0.0339782
8250.00 0.0339156
8252.00 0.0339156
8254.00 0.0339156
8256.00 0.0338532
8258.00 0.0338532
8260.00 0.0338532
8262.00 0.0338532
8264.00 0.0337909
8266.00 0.0337909
8268.00 0.0337909
8270.00 0.0337909
8272.00 0.0337598
8274.00 0.0336977
8276.00 0.0336977
8278.00 0.0336977
8280.00 0.0336357
8282.00 0.0336357
8284.00 0.0336357
8286.00 0.0335738
8288.00 0.0335738
8290.00 0.0334811
8292.00 0.0334811
8294.00 0.0334195
8296.00 0.0334195
8298.00 0.0334195
8300.00 0.033358
8302.00 0.0334195
8304.00 0.0334195
8306.00 0.0334195
8308.00 0.0334195
8310.00 0.0334195
8312.00 0.0334195
8314.00 0.0334195
8316.00 0.0334195
8318.00 0.033358
8320.00 0.033358
8322.00 0.033358
8324.00 0.033358
8326.00 0.033358
8328.00 0.0333273
8330.00 0.0333273
8332.00 0.0333273
8334.00 0.0333273
8336.00 0.0333273
8338.00 0.0333273
8340.00 0.033266
8342.00 0.033266
8344.00 0.033266
8346.00 0.0332047
8348.00 0.0332047
8350.00 0.0331436
8352.00 0.0331131
8354.00 0.0331131
8356.00 0.0330522
8358.00 0.0330522
8360.00 0.0329913
8362.00 0.0329913
8364.00 0.032961
8366.00 0.032961
8368.00 0.0329003
8370.00 0.0329003
8372.00 0.0329003
8374.00 0.0329003
8376.00 0.0328398
8378.00 0.0328398
8380.00 0.0328398
8382.00 0.0328398
8384.00 0.0328398
8386.00 0.0328398
8388.00 0.0328398
8390.00 0.0328398
8392.00 0.0327793
8394.00 0.0327793
8396.00 0.0327793
8398.00 0.0327491
8400.00 0.0326889
8402.00 0.0326889
8404.00 0.0326287
8406.00 0.0326287
8408.00 0.0325387
8410.00 0.0325387
8412.00 0.0325387
8414.00 0.0325387
8416.00 0.0325387
8418.00 0.0325387
8420.00 0.0325387
8422.00 0.0325387
8424.00 0.0324788
8426.00 0.0324788
8428.00 0.0324788
8430.00 0.0324788
8432.00 0.032419
8434.00 0.032419
8436.00 0.032419
8438.00 0.0323594
8440.00 0.0323296
8442.00 0.0323296
8444.00 0.0323296
8446.00 0.0322701
8448.00 0.0322701
8450.00 0.0322701
8452.00 0.0322701
8454.00 0.0323296
8456.00 0.0323296
8458.00 0.0323296
8460.00 0.0323296
8462.00 0.0322701
8464.00 0.0322701
8466.00 0.0322701
8468.00 0.0322701
8470.00 0.0322107
8472.00 0.0322107
8474.00 0.0322107
8476.00 0.0322107
8478.00 0.0322701
8480.00 0.0322701
8482.00 0.0322701
8484.00 0.0322701
8486.00 0.0322701
8488.00 0.0323296
8490.00 0.0323296
8492.00 0.0323296
8494.00 0.0323594
8496.00 0.0323594
8498.00 0.0323594
8500.00 0.032419
8502.00 0.0323594
8504.00 0.0323296
8506.00 0.0323296
8508.00 0.0323296
8510.00 0.0322701
8512.00 0.0322107
8514.00 0.0322107
8516.00 0.0321514
8518.00 0.0321514
8520.00 0.0321514
8522.00 0.0321514
8524.00 0.0322107
8526.00 0.0322701
8528.00 0.0322701
8530.00 0.0323296
8532.00 0.0323594
8534.00 0.032419
8536.00 0.0324788
8538.00 0.032419
8540.00 0.032419
8542.00 0.032419
8544.00 0.0323296
8546.00 0.0322701
8548.00 0.0322107
8550.00 0.0321218
8552.00 0.0320627
8554.00 0.0320037
8556.00 0.0319154
8558.00 0.0318566
8560.00 0.0317687
8562.00 0.0317103
8564.00 0.0315937
8566.00 0.0315065
8568.00 0.0315065
8570.00 0.0314485
8572.00 0.0313906
8574.00 0.0313617
8576.00 0.0313617
8578.00 0.031304
8580.00 0.031304
8582.00 0.0313617
8584.00 0.0313617
8586.00 0.0313617
8588.00 0.0313617
8590.00 0.0313617
8592.00 0.0313617
8594.00 0.0313617
8596.00 0.0313617
8598.00 0.031304
8600.00 0.031304
8602.00 0.031304
8604.00 0.0312464
8606.00 0.0312464
8608.00 0.0311889
8610.00 0.0311889
8612.00 0.0311602
8614.00 0.0311602
8616.00 0.0311028
8618.00 0.0310456
8620.00 0.0310456
8622.00 0.031017
8624.00 0.0309599
8626.00 0.0309599
8628.00 0.030903
8630.00 0.030903
8632.00 0.030903
8634.00 0.030903
8636.00 0.030903
8638.00 0.0309599
8640.00 0.0309599
8642.00 0.0309599
8644.00 0.031017
8646.00 0.0310456
8648.00 0.0311028
8650.00 0.0311602
8652.00 0.0311889
8654.00 0.031304
8656.00 0.0313617
8658.00 0.0313906
8660.00 0.0314485
8662.00 0.0314485
8664.00 0.0315065
8666.00 0.0314485
8668.00 0.0313906
8670.00 0.0313617
8672.00 0.031304
8674.00 0.0311889
8676.00 0.0311602
8678.00 0.0311028
8680.00 0.0310456
8682.00 0.0309599
8684.00 0.030903
8686.00 0.0308461
8688.00 0.0308461
8690.00 0.030761
8692.00 0.0307044
8694.00 0.0306196
8696.00 0.0306196
8698.00 0.0305633
8700.00 0.030507
8702.00 0.0304509
8704.00 0.0304229
8706.00 0.0303669
8708.00 0.0303669
8710.00 0.030311
8712.00 0.0302831
8714.00 0.0302273
8716.00 0.0302273
8718.00 0.0302273
8720.00 0.0301717
8722.00 0.0301717
8724.00 0.0301162
8726.00 0.0301162
8728.00 0.0301162
8730.00 0.0301162
8732.00 0.0301717
8734.00 0.0301717
8736.00 0.0302273
8738.00 0.0302273
8740.00 0.0302831
8742.00 0.030311
8744.00 0.030311
8746.00 0.030311
8748.00 0.030311
8750.00 0.030311
8752.00 0.030311
8754.00 0.030311
8756.00 0.0302831
8758.00 0.0302831
8760.00 0.0302273
8762.00 0.0302273
8764.00 0.0301717
8766.00 0.0301717
8768.00 0.0301162
8770.00 0.0300885
8772.00 0.0300331
8774.00 0.0299778
8776.00 0.0299778
8778.00 0.0299226
8780.00 0.0298401
8782.00 0.0297852
8784.00 0.0297303
8786.00 0.029703
8788.00 0.0296483
8790.00 0.0296483
8792.00 0.0295937
8794.00 0.0295937
8796.00 0.0295937
8798.00 0.0295937
8800.00 0.0295937
8802.00 0.0295937
8804.00 0.0295937
8806.00 0.0296483
8808.00 0.0296483
8810.00 0.0296483
8812.00 0.0296483
8814.00 0.0296483
8816.00 0.0296483
8818.00 0.0296483
8820.00 0.0295937
8822.00 0.0295937
8824.00 0.0295393
8826.00 0.0295121
8828.00 0.0295121
8830.00 0.0295121
8832.00 0.0294578
8834.00 0.0294578
8836.00 0.0294578
8838.00 0.0294578
8840.00 0.0294578
8842.00 0.0294578
8844.00 0.0294578
8846.00 0.0295121
8848.00 0.0295393
8850.00 0.0295937
8852.00 0.0296483
8854.00 0.0296483
8856.00 0.029703
8858.00 0.029703
8860.00 0.029703
8862.00 0.029703
8864.00 0.029703
8866.00 0.0296483
8868.00 0.0296483
8870.00 0.0296483
8872.00 0.0295937
8874.00 0.0295121
8876.00 0.0294578
8878.00 0.0294036
8880.00 0.0293765
8882.00 0.0293224
8884.00 0.0292685
8886.00 0.0292146
8888.00 0.0292146
8890.00 0.0291877
8892.00 0.029134
8894.00 0.0290804
8896.00 0.0290804
8898.00 0.0290269
8900.00 0.0290001
8902.00 0.0289468
8904.00 0.0289468
8906.00 0.0288935
8908.00 0.0288403
8910.00 0.0288138
8912.00 0.0287607
8914.00 0.028655
8916.00 0.0285759
8918.00 0.0285233
8920.00 0.0284446
8922.00 0.0283923
8924.00 0.02834
8926.00 0.0283139
8928.00 0.0282618
8930.00 0.0282098
8932.00 0.0281579
8934.00 0.028132
8936.00 0.0280802
8938.00 0.0280285
8940.00 0.0279512
8942.00 0.0278997
8944.00 0.0277971
8946.00 0.0277715
8948.00 0.0276694
8950.00 0.0276439
8952.00 0.0275931
8954.00 0.0275931
8956.00 0.0275931
8958.00 0.0275931
8960.00 0.0275931
8962.00 0.0275931
8964.00 0.0275931
8966.00 0.0275931
8968.00 0.0275931
8970.00 0.0275931
8972.00 0.0276439
8974.00 0.0276694
8976.00 0.0276694
8978.00 0.0276694
8980.00 0.0276694
8982.00 0.0275931
8984.00 0.0275931
8986.00 0.0275423
8988.00 0.0275423
8990.00 0.0275423
8992.00 0.0275423
8994.00 0.0275423
8996.00 0.0275931
8998.00 0.0275931
9000.00 0.0275931
9002.00 0.0276439
9004.00 0.0276439
9006.00 0.0276439
9008.00 0.0275931
9010.00 0.0275931
9012.00 0.0275931
9014.00 0.0275931
9016.00 0.0275931
9018.00 0.0275423
9020.00 0.0274916
9022.00 0.0274663
9024.00 0.0273653
9026.00 0.0272396
9028.00 0.0271394
9030.00 0.0271144
9032.00 0.0270147
9034.00 0.0269898
9036.00 0.0268906
9038.00 0.0268411
9040.00 0.026767
9042.00 0.0267178
9044.00 0.0266686
9046.00 0.026595
9048.00 0.0265461
9050.00 0.0265461
9052.00 0.0264972
9054.00 0.0264972
9056.00 0.0264728
9058.00 0.0264728
9060.00 0.0264972
9062.00 0.0264972
9064.00 0.0265461
9066.00 0.026595
9068.00 0.0266686
9070.00 0.0267178
9072.00 0.0267178
9074.00 0.026767
9076.00 0.026767
9078.00 0.026767
9080.00 0.0268164
9082.00 0.0268164
9084.00 0.0268164
9086.00 0.026767
9088.00 0.026767
9090.00 0.026767
9092.00 0.0267178
9094.00 0.0266686
9096.00 0.026644
9098.00 0.026595
9100.00 0.026595
9102.00 0.0265461
9104.00 0.0265461
9106.00 0.0265461
9108.00 0.0265461
9110.00 0.0265461
9112.00 0.026595
9114.00 0.026595
9116.00 0.026595
9118.00 0.026595
9120.00 0.026595
9122.00 0.026595
9124.00 0.026595
9126.00 0.0265461
9128.00 0.0265461
9130.00 0.0265461
9132.00 0.0265461
9134.00 0.0265461
9136.00 0.0265461
9138.00 0.0265461
9140.00 0.0265461
9142.00 0.0265461
9144.00 0.0265461
9146.00 0.0265461
9148.00 0.0265461
9150.00 0.0265461
9152.00 0.0265461
9154.00 0.0265461
9156.00 0.0265461
9158.00 0.026595
9160.00 0.026595
9162.00 0.026595
9164.00 0.026595
9166.00 0.026595
9168.00 0.026595
9170.00 0.0265461
9172.00 0.0265461
9174.00 0.0265461
9176.00 0.026595
9178.00 0.026644
9180.00 0.0266686
9182.00 0.0266686
9184.00 0.0267178
9186.00 0.0267178
9188.00 0.026767
9190.00 0.026767
9192.00 0.026767
9194.00 0.0268164
9196.00 0.0268411
9198.00 0.0268411
9200.00 0.0268906
