3200.0000 0.020286
3201.0000 0.01808
3202.0000 0.016293
3203.0000 0.015191
3204.0000 0.014361
3205.0000 0.01529
3206.0000 0.016323
3207.0000 0.018163
3208.0000 0.020249
3209.0000 0.019055
3210.0000 0.017235
3211.0000 0.017045
3212.0000 0.017539
3213.0000 0.01762
3214.0000 0.017314
3215.0000 0.016765
3216.0000 0.015878
3217.0000 0.015488
3218.0000 0.016263
3219.0000 0.017155
3220.0000 0.018348
3221.0000 0.019643
3222.0000 0.019249
3223.0000 0.01888
3224.0000 0.018672
3225.0000 0.018518
3226.0000 0.018845
3227.0000 0.019373
3228.0000 0.019055
3229.0000 0.018163
3230.0000 0.01762
3231.0000 0.017539
3232.0000 0.017571
3233.0000 0.017848
3234.0000 0.018163
3235.0000 0.018759
3236.0000 0.019337
3237.0000 0.018845
3238.0000 0.018399
3239.0000 0.018759
3240.0000 0.019213
3241.0000 0.018724
3242.0000 0.018047
3243.0000 0.018047
3244.0000 0.018399
3245.0000 0.018552
3246.0000 0.018467
3247.0000 0.018399
3248.0000 0.018231
3249.0000 0.018163
3250.0000 0.018315
3251.0000 0.018484
3252.0000 0.018845
3253.0000 0.019178
3254.0000 0.018604
3255.0000 0.017914
3256.0000 0.017734
3257.0000 0.017652
3258.0000 0.017092
3259.0000 0.016293
3260.0000 0.01604
3261.0000 0.016248
3262.0000 0.016293
3263.0000 0.016114
3264.0000 0.016144
3265.0000 0.016796
3266.0000 0.017266
3267.0000 0.016581
3268.0000 0.015907
3269.0000 0.015762
3270.0000 0.015631
3271.0000 0.01601
3272.0000 0.016504
3273.0000 0.016474
3274.0000 0.016218
3275.0000 0.016293
3276.0000 0.016642
3277.0000 0.016749
3278.0000 0.016459
3279.0000 0.016263
3280.0000 0.016293
3281.0000 0.016368
3282.0000 0.016688
3283.0000 0.016982
3284.0000 0.016429
3285.0000 0.015907
3286.0000 0.015805
3287.0000 0.015733
3288.0000 0.015776
3289.0000 0.015864
3290.0000 0.016084
3291.0000 0.016353
3292.0000 0.016581
3293.0000 0.016642
3294.0000 0.016765
3295.0000 0.016982
3296.0000 0.017203
3297.0000 0.017235
3298.0000 0.017282
3299.0000 0.017266
3300.0000 0.017266
3301.0000 0.017378
3302.0000 0.017507
3303.0000 0.017539
3304.0000 0.01762
3305.0000 0.017766
3306.0000 0.018047
3307.0000 0.017964
3308.0000 0.017571
3309.0000 0.017507
3310.0000 0.018047
3311.0000 0.018467
3312.0000 0.018399
3313.0000 0.018315
3314.0000 0.018672
3315.0000 0.019002
3316.0000 0.018811
3317.0000 0.018604
3318.0000 0.018281
3319.0000 0.017997
3320.0000 0.017799
3321.0000 0.017685
3322.0000 0.017816
3323.0000 0.018315
3324.0000 0.018638
3325.0000 0.018518
3326.0000 0.018281
3327.0000 0.017539
3328.0000 0.016858
3329.0000 0.016642
3330.0000 0.016398
3331.0000 0.016535
3332.0000 0.016749
3333.0000 0.017045
3334.0000 0.017378
3335.0000 0.017124
3336.0000 0.016504
3337.0000 0.015907
3338.0000 0.015389
3339.0000 0.01536
3340.0000 0.016459
3341.0000 0.017282
3342.0000 0.016642
3343.0000 0.01604
3344.0000 0.016642
3345.0000 0.017266
3346.0000 0.017314
3347.0000 0.017266
3348.0000 0.016858
3349.0000 0.016293
3350.0000 0.016084
3351.0000 0.016084
3352.0000 0.015937
3353.0000 0.015704
3354.0000 0.01556
3355.0000 0.01566
3356.0000 0.015704
3357.0000 0.015603
3358.0000 0.01546
3359.0000 0.015094
3360.0000 0.014777
3361.0000 0.014777
3362.0000 0.014832
3363.0000 0.014873
3364.0000 0.014928
3365.0000 0.015038
3366.0000 0.015191
3367.0000 0.014969
3368.0000 0.014269
3369.0000 0.013932
3370.0000 0.014361
3371.0000 0.014777
3372.0000 0.0149
3373.0000 0.015024
3374.0000 0.01529
3375.0000 0.01556
3376.0000 0.015878
3377.0000 0.016218
3378.0000 0.016248
3379.0000 0.016144
3380.0000 0.015966
3381.0000 0.015704
3382.0000 0.015603
3383.0000 0.015704
3384.0000 0.015762
3385.0000 0.01566
3386.0000 0.015631
3387.0000 0.015937
3388.0000 0.016218
3389.0000 0.016504
3390.0000 0.016765
3391.0000 0.016796
3392.0000 0.016749
3393.0000 0.016749
3394.0000 0.016719
3395.0000 0.016982
3396.0000 0.017458
3397.0000 0.017507
3398.0000 0.017014
3399.0000 0.016688
3400.0000 0.016688
3401.0000 0.016749
3402.0000 0.017092
3403.0000 0.017458
3404.0000 0.017685
3405.0000 0.017914
3406.0000 0.01762
3407.0000 0.017235
3408.0000 0.017378
3409.0000 0.017734
3410.0000 0.017799
3411.0000 0.01762
3412.0000 0.017458
3413.0000 0.017314
3414.0000 0.017203
3415.0000 0.017282
3416.0000 0.017346
3417.0000 0.017235
3418.0000 0.017124
3419.0000 0.017314
3420.0000 0.017539
3421.0000 0.017571
3422.0000 0.017571
3423.0000 0.017652
3424.0000 0.017766
3425.0000 0.017734
3426.0000 0.017571
3427.0000 0.017458
3428.0000 0.017426
3429.0000 0.017426
3430.0000 0.017571
3431.0000 0.017652
3432.0000 0.017314
3433.0000 0.016982
3434.0000 0.016827
3435.0000 0.016688
3436.0000 0.016398
3437.0000 0.016114
3438.0000 0.016188
3439.0000 0.016459
3440.0000 0.016581
3441.0000 0.016474
3442.0000 0.016459
3443.0000 0.016535
3444.0000 0.016611
3445.0000 0.016581
3446.0000 0.016581
3447.0000 0.016765
3448.0000 0.016982
3449.0000 0.016765
3450.0000 0.016535
3451.0000 0.016144
3452.0000 0.015733
3453.0000 0.01556
3454.0000 0.015531
3455.0000 0.015502
3456.0000 0.015502
3457.0000 0.01556
3458.0000 0.015776
3459.0000 0.015966
3460.0000 0.015937
3461.0000 0.015937
3462.0000 0.015733
3463.0000 0.015531
3464.0000 0.01546
3465.0000 0.01546
3466.0000 0.01546
3467.0000 0.015488
3468.0000 0.015805
3469.0000 0.016353
3470.0000 0.016719
3471.0000 0.016719
3472.0000 0.016581
3473.0000 0.016084
3474.0000 0.015631
3475.0000 0.015834
3476.0000 0.01601
3477.0000 0.015762
3478.0000 0.015488
3479.0000 0.015191
3480.0000 0.0149
3481.0000 0.014805
3482.0000 0.014832
3483.0000 0.014873
3484.0000 0.014928
3485.0000 0.0149
3486.0000 0.014682
3487.0000 0.014642
3488.0000 0.015136
3489.0000 0.015631
3490.0000 0.015907
3491.0000 0.016218
3492.0000 0.016353
3493.0000 0.016474
3494.0000 0.016188
3495.0000 0.015762
3496.0000 0.015603
3497.0000 0.015603
3498.0000 0.015631
3499.0000 0.015631
3500.0000 0.015704
3501.0000 0.015864
3502.0000 0.01601
3503.0000 0.015864
3504.0000 0.015704
3505.0000 0.015488
3506.0000 0.015262
3507.0000 0.015136
3508.0000 0.015024
3509.0000 0.014969
3510.0000 0.0149
3511.0000 0.014777
3512.0000 0.014669
3513.0000 0.014428
3514.0000 0.013996
3515.0000 0.013804
3516.0000 0.014295
3517.0000 0.014777
3518.0000 0.014777
3519.0000 0.014777
3520.0000 0.014481
3521.0000 0.014177
3522.0000 0.014177
3523.0000 0.01423
3524.0000 0.014388
3525.0000 0.014548
3526.0000 0.014777
3527.0000 0.015066
3528.0000 0.015389
3529.0000 0.015776
3530.0000 0.015981
3531.0000 0.01546
3532.0000 0.014969
3533.0000 0.015332
3534.0000 0.01566
3535.0000 0.015733
3536.0000 0.015733
3537.0000 0.015631
3538.0000 0.015502
3539.0000 0.015332
3540.0000 0.015164
3541.0000 0.014873
3542.0000 0.014481
3543.0000 0.01423
3544.0000 0.014335
3545.0000 0.014388
3546.0000 0.014548
3547.0000 0.014669
3548.0000 0.014777
3549.0000 0.0149
3550.0000 0.014928
3551.0000 0.014969
3552.0000 0.014997
3553.0000 0.015024
3554.0000 0.014969
3555.0000 0.0149
3556.0000 0.014873
3557.0000 0.0149
3558.0000 0.015024
3559.0000 0.015431
3560.0000 0.015805
3561.0000 0.015603
3562.0000 0.015431
3563.0000 0.015864
3564.0000 0.016398
3565.0000 0.016398
3566.0000 0.016248
3567.0000 0.015864
3568.0000 0.015332
3569.0000 0.015038
3570.0000 0.015094
3571.0000 0.015164
3572.0000 0.015234
3573.0000 0.015262
3574.0000 0.015262
3575.0000 0.015262
3576.0000 0.015066
3577.0000 0.0149
3578.0000 0.015024
3579.0000 0.015191
3580.0000 0.015332
3581.0000 0.015431
3582.0000 0.01536
3583.0000 0.015094
3584.0000 0.014928
3585.0000 0.0149
3586.0000 0.014873
3587.0000 0.014969
3588.0000 0.015094
3589.0000 0.01536
3590.0000 0.01566
3591.0000 0.01546
3592.0000 0.015234
3593.0000 0.01529
3594.0000 0.01546
3595.0000 0.015191
3596.0000 0.014669
3597.0000 0.014548
3598.0000 0.0149
3599.0000 0.015136
3600.0000 0.014969
3601.0000 0.014832
3602.0000 0.014737
3603.0000 0.014642
3604.0000 0.014873
3605.0000 0.015066
3606.0000 0.014873
3607.0000 0.014588
3608.0000 0.014548
3609.0000 0.014615
3610.0000 0.014615
3611.0000 0.014521
3612.0000 0.014481
3613.0000 0.014521
3614.0000 0.014521
3615.0000 0.014361
3616.0000 0.014269
3617.0000 0.014669
3618.0000 0.015094
3619.0000 0.014928
3620.0000 0.01471
3621.0000 0.014428
3622.0000 0.014138
3623.0000 0.014138
3624.0000 0.014295
3625.0000 0.014521
3626.0000 0.014873
3627.0000 0.015066
3628.0000 0.014942
3629.0000 0.014805
3630.0000 0.014548
3631.0000 0.014269
3632.0000 0.014335
3633.0000 0.014388
3634.0000 0.014481
3635.0000 0.014575
3636.0000 0.014494
3637.0000 0.014361
3638.0000 0.014388
3639.0000 0.014588
3640.0000 0.014737
3641.0000 0.014777
3642.0000 0.014737
3643.0000 0.014454
3644.0000 0.014177
3645.0000 0.014243
3646.0000 0.014335
3647.0000 0.014269
3648.0000 0.01423
3649.0000 0.014295
3650.0000 0.014428
3651.0000 0.014481
3652.0000 0.014428
3653.0000 0.014428
3654.0000 0.014428
3655.0000 0.014428
3656.0000 0.014361
3657.0000 0.014335
3658.0000 0.014295
3659.0000 0.014269
3660.0000 0.014204
3661.0000 0.014138
3662.0000 0.014138
3663.0000 0.014177
3664.0000 0.01423
3665.0000 0.014335
3666.0000 0.014388
3667.0000 0.014388
3668.0000 0.014335
3669.0000 0.014204
3670.0000 0.014086
3671.0000 0.014151
3672.0000 0.01423
3673.0000 0.01406
3674.0000 0.013906
3675.0000 0.014086
3676.0000 0.014335
3677.0000 0.014335
3678.0000 0.014177
3679.0000 0.014086
3680.0000 0.014022
3681.0000 0.014022
3682.0000 0.014112
3683.0000 0.014177
3684.0000 0.01406
3685.0000 0.013996
3686.0000 0.014151
3687.0000 0.014335
3688.0000 0.014204
3689.0000 0.014048
3690.0000 0.01406
3691.0000 0.014138
3692.0000 0.014112
3693.0000 0.013996
3694.0000 0.014022
3695.0000 0.01423
3696.0000 0.014361
3697.0000 0.014361
3698.0000 0.014335
3699.0000 0.014086
3700.0000 0.013868
3701.0000 0.013753
3702.0000 0.013627
3703.0000 0.01369
3704.0000 0.013778
3705.0000 0.013804
3706.0000 0.013778
3707.0000 0.013728
3708.0000 0.013665
3709.0000 0.013627
3710.0000 0.013627
3711.0000 0.013627
3712.0000 0.01369
3713.0000 0.013753
3714.0000 0.013715
3715.0000 0.013665
3716.0000 0.013539
3717.0000 0.013428
3718.0000 0.013428
3719.0000 0.01349
3720.0000 0.013577
3721.0000 0.013753
3722.0000 0.013804
3723.0000 0.01369
3724.0000 0.013602
3725.0000 0.013602
3726.0000 0.013602
3727.0000 0.013515
3728.0000 0.013428
3729.0000 0.013539
3730.0000 0.01369
3731.0000 0.013778
3732.0000 0.013842
3733.0000 0.013868
3734.0000 0.013906
3735.0000 0.013868
3736.0000 0.013816
3737.0000 0.013715
3738.0000 0.013452
3739.0000 0.013256
3740.0000 0.01349
3741.0000 0.013728
3742.0000 0.013715
3743.0000 0.013665
3744.0000 0.01369
3745.0000 0.013715
3746.0000 0.013778
3747.0000 0.013842
3748.0000 0.013842
3749.0000 0.013715
3750.0000 0.013665
3751.0000 0.013665
3752.0000 0.013665
3753.0000 0.013602
3754.0000 0.013539
3755.0000 0.01349
3756.0000 0.013428
3757.0000 0.01349
3758.0000 0.013577
3759.0000 0.013539
3760.0000 0.013452
3761.0000 0.013452
3762.0000 0.01349
3763.0000 0.013515
3764.0000 0.01349
3765.0000 0.01349
3766.0000 0.01349
3767.0000 0.01349
3768.0000 0.013577
3769.0000 0.013665
3770.0000 0.013602
3771.0000 0.013515
3772.0000 0.013577
3773.0000 0.013665
3774.0000 0.013715
3775.0000 0.013753
3776.0000 0.013728
3777.0000 0.013665
3778.0000 0.013627
3779.0000 0.013665
3780.0000 0.013665
3781.0000 0.013602
3782.0000 0.013577
3783.0000 0.013452
3784.0000 0.013317
3785.0000 0.013219
3786.0000 0.013134
3787.0000 0.013074
3788.0000 0.013074
3789.0000 0.01305
3790.0000 0.013026
3791.0000 0.01299
3792.0000 0.012883
3793.0000 0.0128
3794.0000 0.012741
3795.0000 0.012682
3796.0000 0.012883
3797.0000 0.013086
3798.0000 0.013134
3799.0000 0.013134
3800.0000 0.01317
3801.0000 0.013219
3802.0000 0.01328
3803.0000 0.013341
3804.0000 0.013403
3805.0000 0.01349
3806.0000 0.013539
3807.0000 0.013428
3808.0000 0.013305
3809.0000 0.013391
3810.0000 0.01349
3811.0000 0.013577
3812.0000 0.013627
3813.0000 0.013627
3814.0000 0.013577
3815.0000 0.013515
3816.0000 0.013428
3817.0000 0.013366
3818.0000 0.013317
3819.0000 0.01328
3820.0000 0.01311
3821.0000 0.012942
3822.0000 0.012918
3823.0000 0.012883
3824.0000 0.012966
3825.0000 0.01305
3826.0000 0.01311
3827.0000 0.01317
3828.0000 0.01317
3829.0000 0.013134
3830.0000 0.01311
3831.0000 0.013134
3832.0000 0.013195
3833.0000 0.013305
3834.0000 0.013428
3835.0000 0.013391
3836.0000 0.013391
3837.0000 0.013428
3838.0000 0.013452
3839.0000 0.013452
3840.0000 0.013452
3841.0000 0.013452
3842.0000 0.013515
3843.0000 0.013515
3844.0000 0.01349
3845.0000 0.013452
3846.0000 0.013452
3847.0000 0.01349
3848.0000 0.013452
3849.0000 0.013403
3850.0000 0.01349
3851.0000 0.013577
3852.0000 0.013627
3853.0000 0.013665
3854.0000 0.013715
3855.0000 0.013728
3856.0000 0.013778
3857.0000 0.013816
3858.0000 0.013842
3859.0000 0.013804
3860.0000 0.013753
3861.0000 0.013665
3862.0000 0.013539
3863.0000 0.013627
3864.0000 0.013715
3865.0000 0.01369
3866.0000 0.013627
3867.0000 0.013602
3868.0000 0.013602
3869.0000 0.013577
3870.0000 0.01349
3871.0000 0.013452
3872.0000 0.013452
3873.0000 0.013452
3874.0000 0.013428
3875.0000 0.013391
3876.0000 0.013428
3877.0000 0.013452
3878.0000 0.013452
3879.0000 0.013452
3880.0000 0.01349
3881.0000 0.01349
3882.0000 0.01349
3883.0000 0.013452
3884.0000 0.013452
3885.0000 0.01349
3886.0000 0.01349
3887.0000 0.01349
3888.0000 0.013452
3889.0000 0.013515
3890.0000 0.013577
3891.0000 0.013577
3892.0000 0.013602
3893.0000 0.013627
3894.0000 0.013665
3895.0000 0.013715
3896.0000 0.013778
3897.0000 0.013816
3898.0000 0.013816
3899.0000 0.013804
3900.0000 0.013842
3901.0000 0.013868
3902.0000 0.013778
3903.0000 0.013665
3904.0000 0.013577
3905.0000 0.013515
3906.0000 0.013515
3907.0000 0.013515
3908.0000 0.013515
3909.0000 0.013515
3910.0000 0.013515
3911.0000 0.013539
3912.0000 0.013577
3913.0000 0.013577
3914.0000 0.013577
3915.0000 0.013539
3916.0000 0.013515
3917.0000 0.01349
3918.0000 0.013428
3919.0000 0.013391
3920.0000 0.013366
3921.0000 0.013341
3922.0000 0.013341
3923.0000 0.013341
3924.0000 0.013305
3925.0000 0.013256
3926.0000 0.01317
3927.0000 0.01305
3928.0000 0.013026
3929.0000 0.013002
3930.0000 0.013026
3931.0000 0.01305
3932.0000 0.01305
3933.0000 0.013074
3934.0000 0.013026
3935.0000 0.012966
3936.0000 0.012966
3937.0000 0.01305
3938.0000 0.013134
3939.0000 0.013195
3940.0000 0.013256
3941.0000 0.013256
3942.0000 0.01328
3943.0000 0.013219
3944.0000 0.013134
3945.0000 0.01311
3946.0000 0.013086
3947.0000 0.01311
3948.0000 0.01311
3949.0000 0.013134
3950.0000 0.01317
3951.0000 0.013134
3952.0000 0.013026
3953.0000 0.012942
3954.0000 0.01299
3955.0000 0.013026
3956.0000 0.01305
3957.0000 0.013086
3958.0000 0.01305
3959.0000 0.01299
3960.0000 0.012942
3961.0000 0.012918
3962.0000 0.012918
3963.0000 0.012966
3964.0000 0.012966
3965.0000 0.012859
3966.0000 0.012741
3967.0000 0.012741
3968.0000 0.012741
3969.0000 0.0128
3970.0000 0.012859
3971.0000 0.0128
3972.0000 0.012717
3973.0000 0.012659
3974.0000 0.012636
3975.0000 0.012578
3976.0000 0.012497
3977.0000 0.012474
3978.0000 0.012497
3979.0000 0.01252
3980.0000 0.012531
3981.0000 0.012531
3982.0000 0.012474
3983.0000 0.012394
3984.0000 0.012417
3985.0000 0.012474
3986.0000 0.012497
3987.0000 0.01252
3988.0000 0.012555
3989.0000 0.012601
3990.0000 0.012659
3991.0000 0.012741
3992.0000 0.0128
3993.0000 0.012859
3994.0000 0.012918
3995.0000 0.012942
3996.0000 0.012966
3997.0000 0.012966
3998.0000 0.01299
3999.0000 0.01299
4000.0000 0.012966
4001.0000 0.012966
4002.0000 0.01299
4003.0000 0.013002
4004.0000 0.01299
4005.0000 0.01299
4006.0000 0.012966
4007.0000 0.012966
4008.0000 0.012942
4009.0000 0.012906
4010.0000 0.012859
4011.0000 0.0128
4012.0000 0.012776
4013.0000 0.012776
4014.0000 0.012776
4015.0000 0.012776
4016.0000 0.012823
4017.0000 0.012883
4018.0000 0.012966
4019.0000 0.012918
4020.0000 0.012883
4021.0000 0.012918
4022.0000 0.012966
4023.0000 0.012942
4024.0000 0.012942
4025.0000 0.012942
4026.0000 0.01299
4027.0000 0.013026
4028.0000 0.013074
4029.0000 0.013074
4030.0000 0.01305
4031.0000 0.013026
4032.0000 0.01299
4033.0000 0.012942
4034.0000 0.012859
4035.0000 0.012776
4036.0000 0.0128
4037.0000 0.012859
4038.0000 0.012859
4039.0000 0.012859
4040.0000 0.012883
4041.0000 0.012918
4042.0000 0.012942
4043.0000 0.012906
4044.0000 0.012883
4045.0000 0.012859
4046.0000 0.0128
4047.0000 0.0128
4048.0000 0.012823
4049.0000 0.0128
4050.0000 0.0128
4051.0000 0.012776
4052.0000 0.012717
4053.0000 0.012682
4054.0000 0.012717
4055.0000 0.012717
4056.0000 0.012717
4057.0000 0.012682
4058.0000 0.012694
4059.0000 0.012694
4060.0000 0.012776
4061.0000 0.012823
4062.0000 0.012823
4063.0000 0.0128
4064.0000 0.012741
4065.0000 0.012682
4066.0000 0.012636
4067.0000 0.012636
4068.0000 0.012636
4069.0000 0.012636
4070.0000 0.012659
4071.0000 0.012659
4072.0000 0.012659
4073.0000 0.012601
4074.0000 0.01252
4075.0000 0.012531
4076.0000 0.012578
4077.0000 0.012578
4078.0000 0.012578
4079.0000 0.012531
4080.0000 0.012474
4081.0000 0.012439
4082.0000 0.012394
4083.0000 0.012359
4084.0000 0.012303
4085.0000 0.012235
4086.0000 0.012201
4087.0000 0.012179
4088.0000 0.012145
4089.0000 0.012145
4090.0000 0.0121
4091.0000 0.012067
4092.0000 0.012023
4093.0000 0.011967
4094.0000 0.011934
4095.0000 0.011967
4096.0000 0.011967
4097.0000 0.011967
4098.0000 0.011945
4099.0000 0.011869
4100.0000 0.011814
4101.0000 0.011836
4102.0000 0.01189
4103.0000 0.01189
4104.0000 0.011836
4105.0000 0.011836
4106.0000 0.011858
4107.0000 0.011858
4108.0000 0.011836
4109.0000 0.011814
4110.0000 0.011781
4111.0000 0.01176
4112.0000 0.011738
4113.0000 0.011738
4114.0000 0.01176
4115.0000 0.011814
4116.0000 0.011836
4117.0000 0.01189
4118.0000 0.011912
4119.0000 0.011967
4120.0000 0.011989
4121.0000 0.011967
4122.0000 0.011967
4123.0000 0.011945
4124.0000 0.011934
4125.0000 0.011912
4126.0000 0.01189
4127.0000 0.01189
4128.0000 0.011912
4129.0000 0.011945
4130.0000 0.012023
4131.0000 0.012045
4132.0000 0.012045
4133.0000 0.012045
4134.0000 0.012023
4135.0000 0.012023
4136.0000 0.012067
4137.0000 0.0121
4138.0000 0.0121
4139.0000 0.012067
4140.0000 0.012045
4141.0000 0.012045
4142.0000 0.012067
4143.0000 0.0121
4144.0000 0.012123
4145.0000 0.012145
4146.0000 0.012179
4147.0000 0.012201
4148.0000 0.012224
4149.0000 0.012224
4150.0000 0.012224
4151.0000 0.012224
4152.0000 0.012224
4153.0000 0.012235
4154.0000 0.01228
4155.0000 0.012303
4156.0000 0.012337
4157.0000 0.012337
4158.0000 0.01228
4159.0000 0.012257
4160.0000 0.012303
4161.0000 0.012359
4162.0000 0.012303
4163.0000 0.012257
4164.0000 0.01228
4165.0000 0.012303
4166.0000 0.012303
4167.0000 0.012303
4168.0000 0.012314
4169.0000 0.012337
4170.0000 0.012394
4171.0000 0.012417
4172.0000 0.012474
4173.0000 0.012439
4174.0000 0.012439
4175.0000 0.012439
4176.0000 0.012474
4177.0000 0.012474
4178.0000 0.012497
4179.0000 0.012497
4180.0000 0.012474
4181.0000 0.012497
4182.0000 0.01252
4183.0000 0.012531
4184.0000 0.012555
4185.0000 0.012555
4186.0000 0.012578
4187.0000 0.012578
4188.0000 0.012578
4189.0000 0.012555
4190.0000 0.01252
4191.0000 0.012497
4192.0000 0.01252
4193.0000 0.012578
4194.0000 0.012601
4195.0000 0.012578
4196.0000 0.012578
4197.0000 0.012636
4198.0000 0.012659
4199.0000 0.012682
4200.0000 0.012682
4201.0000 0.012636
4202.0000 0.012578
4203.0000 0.012531
4204.0000 0.012497
4205.0000 0.01252
4206.0000 0.012555
4207.0000 0.012555
4208.0000 0.01252
4209.0000 0.012497
4210.0000 0.012497
4211.0000 0.012497
4212.0000 0.012531
4213.0000 0.012555
4214.0000 0.012555
4215.0000 0.01252
4216.0000 0.012531
4217.0000 0.012555
4218.0000 0.012555
4219.0000 0.012531
4220.0000 0.012555
4221.0000 0.012601
4222.0000 0.012636
4223.0000 0.012682
4224.0000 0.012717
4225.0000 0.012717
4226.0000 0.012717
4227.0000 0.012717
4228.0000 0.012717
4229.0000 0.012682
4230.0000 0.012659
4231.0000 0.012601
4232.0000 0.012555
4233.0000 0.01252
4234.0000 0.012497
4235.0000 0.012497
4236.0000 0.01252
4237.0000 0.012531
4238.0000 0.012497
4239.0000 0.012439
4240.0000 0.012417
4241.0000 0.012394
4242.0000 0.012417
4243.0000 0.012417
4244.0000 0.012417
4245.0000 0.012394
4246.0000 0.012394
4247.0000 0.012439
4248.0000 0.012474
4249.0000 0.012474
4250.0000 0.012474
4251.0000 0.012497
4252.0000 0.012497
4253.0000 0.012474
4254.0000 0.012474
4255.0000 0.012417
4256.0000 0.012394
4257.0000 0.012359
4258.0000 0.012359
4259.0000 0.012337
4260.0000 0.01228
4261.0000 0.012257
4262.0000 0.012257
4263.0000 0.012235
4264.0000 0.012257
4265.0000 0.01228
4266.0000 0.012257
4267.0000 0.012257
4268.0000 0.012224
4269.0000 0.012201
4270.0000 0.012201
4271.0000 0.012179
4272.0000 0.012179
4273.0000 0.0121
4274.0000 0.0121
4275.0000 0.0121
4276.0000 0.0121
4277.0000 0.012067
4278.0000 0.012067
4279.0000 0.012023
4280.0000 0.011967
4281.0000 0.011967
4282.0000 0.011989
4283.0000 0.011989
4284.0000 0.011989
4285.0000 0.011967
4286.0000 0.011934
4287.0000 0.011934
4288.0000 0.011934
4289.0000 0.011934
4290.0000 0.011912
4291.0000 0.011869
4292.0000 0.011836
4293.0000 0.011781
4294.0000 0.01176
4295.0000 0.011738
4296.0000 0.011684
4297.0000 0.011609
4298.0000 0.011534
4299.0000 0.01146
4300.0000 0.011408
4301.0000 0.011387
4302.0000 0.011355
4303.0000 0.011355
4304.0000 0.011355
4305.0000 0.011334
4306.0000 0.011314
4307.0000 0.011303
4308.0000 0.011303
4309.0000 0.011262
4310.0000 0.01121
4311.0000 0.011189
4312.0000 0.011169
4313.0000 0.011158
4314.0000 0.011158
4315.0000 0.011138
4316.0000 0.011138
4317.0000 0.011158
4318.0000 0.011117
4319.0000 0.011087
4320.0000 0.011066
4321.0000 0.011046
4322.0000 0.011015
4323.0000 0.011015
4324.0000 0.010975
4325.0000 0.010924
4326.0000 0.010874
4327.0000 0.010824
4328.0000 0.010755
4329.0000 0.010715
4330.0000 0.010666
4331.0000 0.010597
4332.0000 0.010529
4333.0000 0.010433
4334.0000 0.010328
4335.0000 0.010252
4336.0000 0.010186
4337.0000 0.010148
4338.0000 0.010102
4339.0000 0.010074
4340.0000 0.0099908
4341.0000 0.0099449
4342.0000 0.0099083
4343.0000 0.0098628
4344.0000 0.0099083
4345.0000 0.009954
4346.0000 0.0099724
4347.0000 0.0099724
4348.0000 0.009954
4349.0000 0.0099449
4350.0000 0.0099449
4351.0000 0.0099724
4352.0000 0.010009
4353.0000 0.010037
4354.0000 0.010074
4355.0000 0.010083
4356.0000 0.01012
4357.0000 0.010148
4358.0000 0.010186
4359.0000 0.010261
4360.0000 0.010347
4361.0000 0.010385
4362.0000 0.010394
4363.0000 0.010462
4364.0000 0.010529
4365.0000 0.010578
4366.0000 0.010597
4367.0000 0.010637
4368.0000 0.010666
4369.0000 0.010715
4370.0000 0.010715
4371.0000 0.010735
4372.0000 0.010785
4373.0000 0.010874
4374.0000 0.010894
4375.0000 0.010874
4376.0000 0.010894
4377.0000 0.010924
4378.0000 0.010965
4379.0000 0.010995
4380.0000 0.011046
4381.0000 0.011046
4382.0000 0.011015
4383.0000 0.011046
4384.0000 0.011066
4385.0000 0.011066
4386.0000 0.011087
4387.0000 0.011117
4388.0000 0.011117
4389.0000 0.011158
4390.0000 0.01121
4391.0000 0.011231
4392.0000 0.01121
4393.0000 0.011189
4394.0000 0.01121
4395.0000 0.011262
4396.0000 0.011282
4397.0000 0.011334
4398.0000 0.011355
4399.0000 0.011387
4400.0000 0.011387
4401.0000 0.011355
4402.0000 0.011355
4403.0000 0.011387
4404.0000 0.011387
4405.0000 0.011408
4406.0000 0.011408
4407.0000 0.01146
4408.0000 0.011482
4409.0000 0.011503
4410.0000 0.011534
4411.0000 0.011482
4412.0000 0.011429
4413.0000 0.011408
4414.0000 0.011429
4415.0000 0.01146
4416.0000 0.01146
4417.0000 0.011482
4418.0000 0.011503
4419.0000 0.011503
4420.0000 0.011534
4421.0000 0.011556
4422.0000 0.011577
4423.0000 0.011609
4424.0000 0.011588
4425.0000 0.011577
4426.0000 0.011556
4427.0000 0.011556
4428.0000 0.011577
4429.0000 0.011609
4430.0000 0.011631
4431.0000 0.011609
4432.0000 0.011609
4433.0000 0.011609
4434.0000 0.011588
4435.0000 0.011588
4436.0000 0.011577
4437.0000 0.011588
4438.0000 0.011631
4439.0000 0.011631
4440.0000 0.011609
4441.0000 0.011631
4442.0000 0.011663
4443.0000 0.011706
4444.0000 0.011738
4445.0000 0.011738
4446.0000 0.011706
4447.0000 0.011684
4448.0000 0.011652
4449.0000 0.011631
4450.0000 0.011631
4451.0000 0.011631
4452.0000 0.011652
4453.0000 0.011663
4454.0000 0.011684
4455.0000 0.011706
4456.0000 0.011706
4457.0000 0.011706
4458.0000 0.011738
4459.0000 0.011706
4460.0000 0.011684
4461.0000 0.011652
4462.0000 0.011652
4463.0000 0.011652
4464.0000 0.011652
4465.0000 0.011652
4466.0000 0.011684
4467.0000 0.011684
4468.0000 0.011684
4469.0000 0.011706
4470.0000 0.011738
4471.0000 0.011738
4472.0000 0.011706
4473.0000 0.011663
4474.0000 0.011652
4475.0000 0.011652
4476.0000 0.011609
4477.0000 0.011577
4478.0000 0.011588
4479.0000 0.011609
4480.0000 0.011609
4481.0000 0.011609
4482.0000 0.011609
4483.0000 0.011631
4484.0000 0.011652
4485.0000 0.011631
4486.0000 0.011631
4487.0000 0.011609
4488.0000 0.011577
4489.0000 0.011577
4490.0000 0.011588
4491.0000 0.011588
4492.0000 0.011577
4493.0000 0.011577
4494.0000 0.011577
4495.0000 0.011577
4496.0000 0.011556
4497.0000 0.011556
4498.0000 0.011534
4499.0000 0.011534
4500.0000 0.011534
4501.0000 0.011556
4502.0000 0.011556
4503.0000 0.011556
4504.0000 0.011556
4505.0000 0.011556
4506.0000 0.011556
4507.0000 0.011556
4508.0000 0.011534
4509.0000 0.011513
4510.0000 0.011503
4511.0000 0.011482
4512.0000 0.011482
4513.0000 0.01146
4514.0000 0.011429
4515.0000 0.01146
4516.0000 0.011503
4517.0000 0.011503
4518.0000 0.011503
4519.0000 0.011482
4520.0000 0.01146
4521.0000 0.01146
4522.0000 0.01146
4523.0000 0.01146
4524.0000 0.011482
4525.0000 0.011513
4526.0000 0.011534
4527.0000 0.011556
4528.0000 0.011556
4529.0000 0.011556
4530.0000 0.011556
4531.0000 0.011534
4532.0000 0.011534
4533.0000 0.011513
4534.0000 0.011503
4535.0000 0.011534
4536.0000 0.011556
4537.0000 0.011503
4538.0000 0.01146
4539.0000 0.011408
4540.0000 0.011387
4541.0000 0.011355
4542.0000 0.011355
4543.0000 0.011355
4544.0000 0.011387
4545.0000 0.011429
4546.0000 0.01146
4547.0000 0.011482
4548.0000 0.01146
4549.0000 0.011429
4550.0000 0.011429
4551.0000 0.011429
4552.0000 0.01146
4553.0000 0.01146
4554.0000 0.01146
4555.0000 0.01146
4556.0000 0.011408
4557.0000 0.011387
4558.0000 0.011355
4559.0000 0.011387
4560.0000 0.011387
4561.0000 0.011387
4562.0000 0.011355
4563.0000 0.011355
4564.0000 0.011355
4565.0000 0.011355
4566.0000 0.011334
4567.0000 0.011314
4568.0000 0.011303
4569.0000 0.011303
4570.0000 0.011314
4571.0000 0.011334
4572.0000 0.011334
4573.0000 0.011314
4574.0000 0.011282
4575.0000 0.011262
4576.0000 0.011231
4577.0000 0.011231
4578.0000 0.01121
4579.0000 0.01121
4580.0000 0.01121
4581.0000 0.011189
4582.0000 0.011189
4583.0000 0.011189
4584.0000 0.011189
4585.0000 0.011231
4586.0000 0.011241
4587.0000 0.011262
4588.0000 0.011282
4589.0000 0.011262
4590.0000 0.011231
4591.0000 0.011169
4592.0000 0.011117
4593.0000 0.011087
4594.0000 0.011066
4595.0000 0.011066
4596.0000 0.011046
4597.0000 0.011046
4598.0000 0.011046
4599.0000 0.011046
4600.0000 0.011066
4601.0000 0.011087
4602.0000 0.011087
4603.0000 0.011087
4604.0000 0.011117
4605.0000 0.011117
4606.0000 0.011138
4607.0000 0.011158
4608.0000 0.011158
4609.0000 0.011117
4610.0000 0.011087
4611.0000 0.011066
4612.0000 0.011046
4613.0000 0.011066
4614.0000 0.011087
4615.0000 0.011066
4616.0000 0.011046
4617.0000 0.011066
4618.0000 0.011066
4619.0000 0.011046
4620.0000 0.011046
4621.0000 0.011015
4622.0000 0.011046
4623.0000 0.011046
4624.0000 0.011066
4625.0000 0.011066
4626.0000 0.011015
4627.0000 0.010975
4628.0000 0.011015
4629.0000 0.011066
4630.0000 0.011066
4631.0000 0.011066
4632.0000 0.011087
4633.0000 0.011117
4634.0000 0.011117
4635.0000 0.011046
4636.0000 0.010995
4637.0000 0.010975
4638.0000 0.010965
4639.0000 0.010945
4640.0000 0.010945
4641.0000 0.010965
4642.0000 0.010995
4643.0000 0.010995
4644.0000 0.010995
4645.0000 0.011015
4646.0000 0.011046
4647.0000 0.011066
4648.0000 0.011117
4649.0000 0.011138
4650.0000 0.011138
4651.0000 0.011138
4652.0000 0.011117
4653.0000 0.011066
4654.0000 0.011066
4655.0000 0.011066
4656.0000 0.011066
4657.0000 0.011066
4658.0000 0.011066
4659.0000 0.011066
4660.0000 0.011087
4661.0000 0.011117
4662.0000 0.011158
4663.0000 0.011189
4664.0000 0.011189
4665.0000 0.011158
4666.0000 0.011138
4667.0000 0.011117
4668.0000 0.011117
4669.0000 0.011117
4670.0000 0.011117
4671.0000 0.011117
4672.0000 0.011087
4673.0000 0.011087
4674.0000 0.011087
4675.0000 0.011066
4676.0000 0.011046
4677.0000 0.011046
4678.0000 0.011066
4679.0000 0.011087
4680.0000 0.011138
4681.0000 0.011189
4682.0000 0.011189
4683.0000 0.011169
4684.0000 0.011158
4685.0000 0.011158
4686.0000 0.011189
4687.0000 0.011231
4688.0000 0.011241
4689.0000 0.011231
4690.0000 0.011189
4691.0000 0.011138
4692.0000 0.011117
4693.0000 0.011117
4694.0000 0.011117
4695.0000 0.011117
4696.0000 0.011066
4697.0000 0.011087
4698.0000 0.011087
4699.0000 0.011066
4700.0000 0.011046
4702.0000 0.011046
4704.0000 0.011117
4706.0000 0.011169
4708.0000 0.011158
4710.0000 0.011138
4712.0000 0.011158
4714.0000 0.011241
4716.0000 0.011303
4718.0000 0.01121
4720.0000 0.011015
4722.0000 0.010894
4724.0000 0.011189
4726.0000 0.011387
4728.0000 0.011387
4730.0000 0.011262
4732.0000 0.010965
4734.0000 0.010874
4736.0000 0.010975
4738.0000 0.011117
4740.0000 0.011046
4742.0000 0.01028
4744.0000 0.010529
4746.0000 0.010715
4748.0000 0.011046
4750.0000 0.011117
4752.0000 0.011117
4754.0000 0.011117
4756.0000 0.011117
4758.0000 0.011066
4760.0000 0.011046
4762.0000 0.010995
4764.0000 0.010965
4766.0000 0.010924
4768.0000 0.010894
4770.0000 0.010874
4772.0000 0.010854
4774.0000 0.010824
4776.0000 0.010824
4778.0000 0.010804
4780.0000 0.010755
4782.0000 0.010715
4784.0000 0.010637
4786.0000 0.010617
4788.0000 0.010597
4790.0000 0.010578
4792.0000 0.010578
4794.0000 0.010578
4796.0000 0.010597
4798.0000 0.010549
4800.0000 0.010462
4802.0000 0.010385
4804.0000 0.010328
4806.0000 0.01028
4808.0000 0.010214
4810.0000 0.010167
4812.0000 0.010148
4814.0000 0.010083
4816.0000 0.010055
4818.0000 0.010009
4820.0000 0.0099724
4822.0000 0.0099083
4824.0000 0.0098447
4826.0000 0.0097813
4828.0000 0.0097364
4830.0000 0.0096739
4832.0000 0.0096117
4834.0000 0.0095675
4836.0000 0.009506
4838.0000 0.0094449
4840.0000 0.0093842
4842.0000 0.0093411
4844.0000 0.0092811
4846.0000 0.0092215
4848.0000 0.0091622
4850.0000 0.0091033
4852.0000 0.0090615
4854.0000 0.0090033
4856.0000 0.0089454
4858.0000 0.0089043
4860.0000 0.0088634
4862.0000 0.0088308
4864.0000 0.0087902
4866.0000 0.0087741
4868.0000 0.0087741
4870.0000 0.0087741
4872.0000 0.0088064
4874.0000 0.0088471
4876.0000 0.0089207
4878.0000 0.0090199
4880.0000 0.0091201
4882.0000 0.009196
4884.0000 0.0092811
4886.0000 0.0093584
4888.0000 0.0093842
4890.0000 0.0094016
4892.0000 0.0094276
4894.0000 0.0094449
4896.0000 0.0094798
4898.0000 0.009506
4900.0000 0.0095236
4902.0000 0.0095499
4904.0000 0.0095675
4906.0000 0.0095852
4908.0000 0.0096117
4910.0000 0.0096472
4912.0000 0.0096739
4914.0000 0.0096917
4916.0000 0.0097096
4918.0000 0.0097364
4920.0000 0.0097544
4922.0000 0.0097813
4924.0000 0.0097813
4926.0000 0.0097724
4928.0000 0.0097724
4930.0000 0.0097724
4932.0000 0.0097813
4934.0000 0.0097994
4936.0000 0.0098447
4938.0000 0.0098628
4940.0000 0.0099083
4942.0000 0.0099266
4944.0000 0.009954
4946.0000 0.0099724
4948.0000 0.0099724
4950.0000 0.0099724
4952.0000 0.0099724
4954.0000 0.0099724
4956.0000 0.0099724
4958.0000 0.0099724
4960.0000 0.0099724
4962.0000 0.0099724
4964.0000 0.0099724
4966.0000 0.0099724
4968.0000 0.0099908
4970.0000 0.010009
4972.0000 0.010009
4974.0000 0.010037
4976.0000 0.010055
4978.0000 0.010037
4980.0000 0.010037
4982.0000 0.010018
4984.0000 0.010009
4986.0000 0.010009
4988.0000 0.0099908
4990.0000 0.0099908
4992.0000 0.0099908
4994.0000 0.0099908
4996.0000 0.0099908
4998.0000 0.010009
5000.0000 0.010018
5002.0000 0.010037
5004.0000 0.010037
5006.0000 0.010037
5008.0000 0.010037
5010.0000 0.010037
5012.0000 0.010037
5014.0000 0.010037
5016.0000 0.010037
5018.0000 0.010018
5020.0000 0.010009
5022.0000 0.010009
5024.0000 0.0099908
5026.0000 0.0099724
5028.0000 0.0099449
5030.0000 0.0099266
5032.0000 0.0099083
5034.0000 0.0098809
5036.0000 0.0098628
5038.0000 0.0098447
5040.0000 0.0098447
5042.0000 0.0098174
5044.0000 0.0098174
5046.0000 0.0098174
5048.0000 0.0098174
5050.0000 0.0098174
5052.0000 0.0098447
5054.0000 0.0098447
5056.0000 0.0098447
5058.0000 0.0098174
5060.0000 0.0098174
5062.0000 0.0097994
5064.0000 0.0097994
5066.0000 0.0097994
5068.0000 0.0097813
5070.0000 0.0097813
5072.0000 0.0097724
5074.0000 0.0097724
5076.0000 0.0097544
5078.0000 0.0097364
5080.0000 0.0097096
5082.0000 0.0097096
5084.0000 0.0096917
5086.0000 0.0096917
5088.0000 0.0097096
5090.0000 0.0097096
5092.0000 0.0097096
5094.0000 0.0097096
5096.0000 0.0097096
5098.0000 0.0097096
5100.0000 0.0096917
5102.0000 0.0096739
5104.0000 0.0096739
5106.0000 0.0096739
5108.0000 0.0096472
5110.0000 0.0096472
5112.0000 0.0096294
5114.0000 0.0096117
5116.0000 0.0096294
5118.0000 0.0096294
5120.0000 0.0096472
5122.0000 0.0096472
5124.0000 0.0096294
5126.0000 0.0096117
5128.0000 0.0096117
5130.0000 0.0095852
5132.0000 0.0095675
5134.0000 0.0095499
5136.0000 0.0095499
5138.0000 0.0095499
5140.0000 0.0095499
5142.0000 0.0095499
5144.0000 0.0095499
5146.0000 0.0095499
5148.0000 0.0095236
5150.0000 0.009506
5152.0000 0.0094973
5154.0000 0.0094885
5156.0000 0.0094798
5158.0000 0.0094711
5160.0000 0.0094624
5162.0000 0.0094536
5164.0000 0.0094449
5166.0000 0.0094363
5168.0000 0.0094276
5170.0000 0.0094276
5172.0000 0.0094189
5174.0000 0.0094102
5176.0000 0.0094016
5178.0000 0.0093929
5180.0000 0.0093842
5182.0000 0.0093756
5184.0000 0.009367
5186.0000 0.0093584
5188.0000 0.0093498
5190.0000 0.0093411
5192.0000 0.0093325
5194.0000 0.0093154
5196.0000 0.0093068
5198.0000 0.0092982
5200.0000 0.0092896
5202.0000 0.0092811
5204.0000 0.0092726
5206.0000 0.0092555
5208.0000 0.0092385
5210.0000 0.0092385
5212.0000 0.0092215
5214.0000 0.0092045
5216.0000 0.009196
5218.0000 0.0091791
5220.0000 0.0091791
5222.0000 0.0091791
5224.0000 0.0091791
5226.0000 0.0091791
5228.0000 0.0091622
5230.0000 0.0091622
5232.0000 0.0091453
5234.0000 0.0091369
5236.0000 0.0091369
5238.0000 0.0091201
5240.0000 0.0091201
5242.0000 0.0091033
5244.0000 0.0091033
5246.0000 0.0090782
5248.0000 0.0090615
5250.0000 0.0090448
5252.0000 0.0090448
5254.0000 0.0090199
5256.0000 0.0090199
5258.0000 0.0090033
5260.0000 0.0090033
5262.0000 0.0090033
5264.0000 0.0090199
5266.0000 0.0090199
5268.0000 0.0090448
5270.0000 0.0090448
5272.0000 0.0090448
5274.0000 0.0090199
5276.0000 0.0090199
5278.0000 0.0090033
5280.0000 0.0089867
5282.0000 0.0089784
5284.0000 0.0089619
5286.0000 0.0089454
5288.0000 0.0089207
5290.0000 0.0089207
5292.0000 0.0089043
5294.0000 0.0089043
5296.0000 0.0088879
5298.0000 0.0088879
5300.0000 0.0088716
5302.0000 0.0088634
5304.0000 0.0088471
5306.0000 0.0088308
5308.0000 0.0088064
5310.0000 0.0087902
5312.0000 0.0087741
5314.0000 0.0087741
5316.0000 0.0087741
5318.0000 0.0087741
5320.0000 0.0087741
5322.0000 0.0087741
5324.0000 0.0087902
5326.0000 0.0087902
5328.0000 0.0087902
5330.0000 0.0087741
5332.0000 0.0087741
5334.0000 0.0087741
5336.0000 0.0087741
5338.0000 0.0087498
5340.0000 0.0087337
5342.0000 0.0087337
5344.0000 0.0087176
5346.0000 0.0087096
5348.0000 0.0087096
5350.0000 0.0087096
5352.0000 0.0087096
5354.0000 0.0087096
5356.0000 0.0087096
5358.0000 0.0087176
5360.0000 0.0087176
5362.0000 0.0087176
5364.0000 0.0087096
5366.0000 0.0086936
5368.0000 0.0086776
5370.0000 0.0086617
5372.0000 0.0086617
5374.0000 0.0086536
5376.0000 0.0086536
5378.0000 0.0086536
5380.0000 0.0086536
5382.0000 0.0086377
5384.0000 0.0086377
5386.0000 0.0086377
5388.0000 0.0086377
5390.0000 0.0086377
5392.0000 0.0086377
5394.0000 0.0086377
5396.0000 0.0086377
5398.0000 0.0086218
5400.0000 0.0086218
5402.0000 0.008598
5404.0000 0.0085822
5406.0000 0.0085822
5408.0000 0.0085822
5410.0000 0.0085664
5412.0000 0.0085664
5414.0000 0.0085428
5416.0000 0.0085271
5418.0000 0.0085271
5420.0000 0.0085114
5422.0000 0.0085114
5424.0000 0.0085114
5426.0000 0.0084879
5428.0000 0.0084879
5430.0000 0.0084879
5432.0000 0.0084879
5434.0000 0.0084879
5436.0000 0.0084879
5438.0000 0.0084879
5440.0000 0.0084879
5442.0000 0.0084879
5444.0000 0.0084879
5446.0000 0.0084879
5448.0000 0.0084723
5450.0000 0.0084567
5452.0000 0.0084489
5454.0000 0.0084333
5456.0000 0.0084333
5458.0000 0.0084178
5460.0000 0.0084023
5462.0000 0.0084023
5464.0000 0.0083946
5466.0000 0.0083791
5468.0000 0.0083791
5470.0000 0.0083637
5472.0000 0.0083637
5474.0000 0.0083637
5476.0000 0.0083637
5478.0000 0.0083406
5480.0000 0.0083406
5482.0000 0.0083253
5484.0000 0.0083253
5486.0000 0.00831
5488.0000 0.00831
5490.0000 0.00831
5492.0000 0.00831
5494.0000 0.00831
5496.0000 0.008287
5498.0000 0.008287
5500.0000 0.008287
5502.0000 0.0082718
5504.0000 0.0082718
5506.0000 0.0082566
5508.0000 0.0082566
5510.0000 0.008249
5512.0000 0.008249
5514.0000 0.008249
5516.0000 0.008249
5518.0000 0.008249
5520.0000 0.008249
5522.0000 0.0082338
5524.0000 0.0082338
5526.0000 0.0082338
5528.0000 0.0082338
5530.0000 0.0082338
5532.0000 0.0082338
5534.0000 0.0082186
5536.0000 0.0082186
5538.0000 0.0082186
5540.0000 0.0082035
5542.0000 0.0081959
5544.0000 0.0081959
5546.0000 0.0081959
5548.0000 0.0081808
5550.0000 0.0081808
5552.0000 0.0081658
5554.0000 0.0081508
5556.0000 0.0081433
5558.0000 0.0081433
5560.0000 0.0081283
5562.0000 0.0081283
5564.0000 0.0081133
5566.0000 0.0081133
5568.0000 0.0081133
5570.0000 0.0081133
5572.0000 0.0081133
5574.0000 0.0081133
5576.0000 0.0081133
5578.0000 0.0081133
5580.0000 0.0081133
5582.0000 0.0081133
5584.0000 0.0081133
5586.0000 0.0081133
5588.0000 0.0081133
5590.0000 0.0080909
5592.0000 0.008076
5594.0000 0.008076
5596.0000 0.0080612
5598.0000 0.0080612
5600.0000 0.0080389
5602.0000 0.0080389
5604.0000 0.0080242
5606.0000 0.0080242
5608.0000 0.0080242
5610.0000 0.0080242
5612.0000 0.0080242
5614.0000 0.0080242
5616.0000 0.0080242
5618.0000 0.0080094
5620.0000 0.008002
5622.0000 0.0079873
5624.0000 0.0079726
5626.0000 0.0079726
5628.0000 0.0079579
5630.0000 0.0079506
5632.0000 0.0079506
5634.0000 0.007936
5636.0000 0.007936
5638.0000 0.0079214
5640.0000 0.0079214
5642.0000 0.0079068
5644.0000 0.0079068
5646.0000 0.0078995
5648.0000 0.007885
5650.0000 0.0078704
5652.0000 0.0078704
5654.0000 0.0078704
5656.0000 0.0078487
5658.0000 0.0078487
5660.0000 0.0078343
5662.0000 0.0078343
5664.0000 0.0078343
5666.0000 0.0078343
5668.0000 0.0078343
5670.0000 0.0078343
5672.0000 0.0078199
5674.0000 0.0078199
5676.0000 0.0078199
5678.0000 0.0077983
5680.0000 0.0077983
5682.0000 0.0077839
5684.0000 0.0077625
5686.0000 0.0077482
5688.0000 0.0077339
5690.0000 0.0077197
5692.0000 0.0077126
5694.0000 0.0077126
5696.0000 0.0077126
5698.0000 0.0076984
5700.0000 0.0076984
5702.0000 0.0076984
5704.0000 0.0076984
5706.0000 0.0076984
5708.0000 0.0076984
5710.0000 0.0076984
5712.0000 0.0076984
5714.0000 0.0076842
5716.0000 0.0076842
5718.0000 0.0076842
5720.0000 0.0076842
5722.0000 0.0076842
5724.0000 0.0076842
5726.0000 0.007663
5728.0000 0.007663
5730.0000 0.007663
5732.0000 0.007663
5734.0000 0.0076489
5736.0000 0.0076489
5738.0000 0.0076348
5740.0000 0.0076138
5742.0000 0.0076138
5744.0000 0.0076138
5746.0000 0.0076138
5748.0000 0.0076138
5750.0000 0.0076138
5752.0000 0.0076348
5754.0000 0.0076348
5756.0000 0.0076348
5758.0000 0.0076138
5760.0000 0.0076138
5762.0000 0.0075998
5764.0000 0.0075858
5766.0000 0.0075858
5768.0000 0.0075858
5770.0000 0.0075858
5772.0000 0.0075858
5774.0000 0.0075858
5776.0000 0.0075858
5778.0000 0.0075858
5780.0000 0.0075648
5782.0000 0.0075648
5784.0000 0.0075648
5786.0000 0.0075648
5788.0000 0.0075648
5790.0000 0.0075648
5792.0000 0.0075509
5794.0000 0.007537
5796.0000 0.0075301
5798.0000 0.0075301
5800.0000 0.0075301
5802.0000 0.0075301
5804.0000 0.0075301
5806.0000 0.0075162
5808.0000 0.0075162
5810.0000 0.0075162
5812.0000 0.0075024
5814.0000 0.0075024
5816.0000 0.0075024
5818.0000 0.0075024
5820.0000 0.0075024
5822.0000 0.0074886
5824.0000 0.0074886
5826.0000 0.0074817
5828.0000 0.0074817
5830.0000 0.0074679
5832.0000 0.0074679
5834.0000 0.0074679
5836.0000 0.0074679
5838.0000 0.0074679
5840.0000 0.0074679
5842.0000 0.0074542
5844.0000 0.0074542
5846.0000 0.0074542
5848.0000 0.0074336
5850.0000 0.0074336
5852.0000 0.0074336
5854.0000 0.0074199
5856.0000 0.0074199
5858.0000 0.0074063
5860.0000 0.0074063
5862.0000 0.0074063
5864.0000 0.0074063
5866.0000 0.0074063
5868.0000 0.0074063
5870.0000 0.0074063
5872.0000 0.0074063
5874.0000 0.0074063
5876.0000 0.0073858
5878.0000 0.0073722
5880.0000 0.0073722
5882.0000 0.0073587
5884.0000 0.0073587
5886.0000 0.0073519
5888.0000 0.0073519
5890.0000 0.0073519
5892.0000 0.0073384
5894.0000 0.0073384
5896.0000 0.0073249
5898.0000 0.0073114
5900.0000 0.0073047
5902.0000 0.0073047
5904.0000 0.0072912
5906.0000 0.0072912
5908.0000 0.0072912
5910.0000 0.0072778
5912.0000 0.0072778
5914.0000 0.0072577
5916.0000 0.0072577
5918.0000 0.0072444
5920.0000 0.007231
5922.0000 0.0072111
5924.0000 0.0072111
5926.0000 0.0072111
5928.0000 0.0072111
5930.0000 0.0072111
5932.0000 0.0072111
5934.0000 0.0072111
5936.0000 0.0072111
5938.0000 0.0071978
5940.0000 0.0071845
5942.0000 0.0071845
5944.0000 0.0071845
5946.0000 0.0071845
5948.0000 0.0071845
5950.0000 0.0071845
5952.0000 0.0071978
5954.0000 0.0071978
5956.0000 0.0071978
5958.0000 0.0071978
5960.0000 0.0071845
5962.0000 0.0071845
5964.0000 0.0071647
5966.0000 0.0071647
5968.0000 0.0071647
5970.0000 0.0071647
5972.0000 0.0071647
5974.0000 0.0071647
5976.0000 0.0071647
5978.0000 0.0071647
5980.0000 0.0071516
5982.0000 0.0071516
5984.0000 0.0071516
5986.0000 0.0071384
5988.0000 0.0071384
5990.0000 0.0071318
5992.0000 0.0071318
5994.0000 0.0071318
5996.0000 0.0071187
5998.0000 0.0071187
6000.0000 0.0071187
6002.0000 0.0071187
6004.0000 0.0071187
6006.0000 0.0071187
6008.0000 0.0071187
6010.0000 0.0071187
6012.0000 0.0071187
6014.0000 0.0071187
6016.0000 0.0071187
6018.0000 0.0071187
6020.0000 0.0071187
6022.0000 0.0071187
6024.0000 0.0071187
6026.0000 0.0071056
6028.0000 0.0071056
6030.0000 0.007086
6032.0000 0.007086
6034.0000 0.0070729
6036.0000 0.0070729
6038.0000 0.0070729
6040.0000 0.0070729
6042.0000 0.0070599
6044.0000 0.0070599
6046.0000 0.0070599
6048.0000 0.0070599
6050.0000 0.0070469
6052.0000 0.0070469
6054.0000 0.0070404
6056.0000 0.0070404
6058.0000 0.0070404
6060.0000 0.0070275
6062.0000 0.0070275
6064.0000 0.0070275
6066.0000 0.0070145
6068.0000 0.0070145
6070.0000 0.0069952
6072.0000 0.0069952
6074.0000 0.0069823
6076.0000 0.0069823
6078.0000 0.0069695
6080.0000 0.0069695
6082.0000 0.0069695
6084.0000 0.0069502
6086.0000 0.0069502
6088.0000 0.0069502
6090.0000 0.0069374
6092.0000 0.0069374
6094.0000 0.0069374
6096.0000 0.0069247
6098.0000 0.0069183
6100.0000 0.0069183
6102.0000 0.0069247
6104.0000 0.0069247
6106.0000 0.0069247
6108.0000 0.0069247
6110.0000 0.0069247
6112.0000 0.0069247
6114.0000 0.0069183
6116.0000 0.0069183
6118.0000 0.0069183
6120.0000 0.0069056
6122.0000 0.0069056
6124.0000 0.0069056
6126.0000 0.0068929
6128.0000 0.0068929
6130.0000 0.0068802
6132.0000 0.0068738
6134.0000 0.0068612
6136.0000 0.0068612
6138.0000 0.0068612
6140.0000 0.0068612
6142.0000 0.0068738
6144.0000 0.0068738
6146.0000 0.0068738
6148.0000 0.0068738
6150.0000 0.0068738
6152.0000 0.0068738
6154.0000 0.0068612
6156.0000 0.0068486
6158.0000 0.0068296
6160.0000 0.0068296
6162.0000 0.0068486
6164.0000 0.0068486
6166.0000 0.0068296
6168.0000 0.0068296
6170.0000 0.0068296
6172.0000 0.0068171
6174.0000 0.0068046
6176.0000 0.0068046
6178.0000 0.0067858
6180.0000 0.0067858
6182.0000 0.0067858
6184.0000 0.0067733
6186.0000 0.0067733
6188.0000 0.0067733
6190.0000 0.0067608
6192.0000 0.0067608
6194.0000 0.0067421
6196.0000 0.0067298
6198.0000 0.0067298
6200.0000 0.0067298
6202.0000 0.0067174
6204.0000 0.0067112
6206.0000 0.0067112
6208.0000 0.0067112
6210.0000 0.0066988
6212.0000 0.0066988
6214.0000 0.0066988
6216.0000 0.0066988
6218.0000 0.0066988
6220.0000 0.0066988
6222.0000 0.0066988
6224.0000 0.0066988
6226.0000 0.0066865
6228.0000 0.0066865
6230.0000 0.0066865
6232.0000 0.0066742
6234.0000 0.0066742
6236.0000 0.0066681
6238.0000 0.0066681
6240.0000 0.0066558
6242.0000 0.0066558
6244.0000 0.0066435
6246.0000 0.0066435
6248.0000 0.0066252
6250.0000 0.006613
6252.0000 0.006613
6254.0000 0.006613
6256.0000 0.006613
6258.0000 0.006613
6260.0000 0.006613
6262.0000 0.006613
6264.0000 0.0066008
6266.0000 0.0065826
6268.0000 0.0065705
6270.0000 0.0065524
6272.0000 0.0065403
6274.0000 0.0065163
6276.0000 0.0065103
6278.0000 0.0064983
6280.0000 0.0064863
6282.0000 0.0064863
6284.0000 0.0064863
6286.0000 0.0064744
6288.0000 0.0064863
6290.0000 0.0064863
6292.0000 0.0064863
6294.0000 0.0064863
6296.0000 0.0064983
6298.0000 0.0064983
6300.0000 0.0064983
6302.0000 0.0064863
6304.0000 0.0064863
6306.0000 0.0064863
6308.0000 0.0064863
6310.0000 0.0064863
6312.0000 0.0064863
6314.0000 0.0064863
6316.0000 0.0064983
6318.0000 0.0064863
6320.0000 0.0064863
6322.0000 0.0064863
6324.0000 0.0064863
6326.0000 0.0064863
6328.0000 0.0064863
6330.0000 0.0064863
6332.0000 0.0064863
6334.0000 0.0064863
6336.0000 0.0064744
6338.0000 0.0064685
6340.0000 0.0064565
6342.0000 0.0064446
6344.0000 0.0064446
6346.0000 0.0064269
6348.0000 0.0064269
6350.0000 0.0064269
6352.0000 0.0064269
6354.0000 0.0064269
6356.0000 0.0064269
6358.0000 0.0064269
6360.0000 0.0064269
6362.0000 0.0064269
6364.0000 0.006415
6366.0000 0.006415
6368.0000 0.0064032
6370.0000 0.0064032
6372.0000 0.0064032
6374.0000 0.0063856
6376.0000 0.0063856
6378.0000 0.0063856
6380.0000 0.0063856
6382.0000 0.0063856
6384.0000 0.0063856
6386.0000 0.0063738
6388.0000 0.0063738
6390.0000 0.0063621
6392.0000 0.0063621
6394.0000 0.0063621
6396.0000 0.0063562
6398.0000 0.0063562
6400.0000 0.0063562
6402.0000 0.0063562
6404.0000 0.0063445
6406.0000 0.0063445
6408.0000 0.0063329
6410.0000 0.0063212
6412.0000 0.0063154
6414.0000 0.0063038
6416.0000 0.0063038
6418.0000 0.0062922
6420.0000 0.0062806
6422.0000 0.0062748
6424.0000 0.0062748
6426.0000 0.0062633
6428.0000 0.0062633
6430.0000 0.0062633
6432.0000 0.0062633
6434.0000 0.0062633
6436.0000 0.0062633
6438.0000 0.0062517
6440.0000 0.0062517
6442.0000 0.0062517
6444.0000 0.0062345
6446.0000 0.0062345
6448.0000 0.006223
6450.0000 0.0062115
6452.0000 0.0061944
6454.0000 0.006183
6456.0000 0.0061659
6458.0000 0.0061546
6460.0000 0.006132
6462.0000 0.006115
6464.0000 0.0061038
6466.0000 0.0060757
6468.0000 0.0060646
6470.0000 0.0060478
6472.0000 0.0060256
6474.0000 0.006009
6476.0000 0.0059979
6478.0000 0.0059814
6480.0000 0.0059814
6482.0000 0.0059703
6484.0000 0.0059594
6486.0000 0.0059594
6488.0000 0.0059594
6490.0000 0.0059594
6492.0000 0.0059594
6494.0000 0.0059594
6496.0000 0.0059594
6498.0000 0.0059429
6500.0000 0.0059211
6502.0000 0.0059047
6504.0000 0.005883
6506.0000 0.0058398
6508.0000 0.0058023
6510.0000 0.005765
6512.0000 0.0057438
6514.0000 0.0057069
6516.0000 0.0056702
6518.0000 0.0056441
6520.0000 0.0056182
6522.0000 0.0055924
6524.0000 0.0055718
6526.0000 0.0055565
6528.0000 0.0055361
6530.0000 0.0055106
6532.0000 0.0054752
6534.0000 0.00545
6536.0000 0.005415
6538.0000 0.0053802
6540.0000 0.0053456
6542.0000 0.0053211
6544.0000 0.0052966
6546.0000 0.0052626
6548.0000 0.0052432
6550.0000 0.0052048
6552.0000 0.0051713
6554.0000 0.0051381
6556.0000 0.0050956
6558.0000 0.0050629
6560.0000 0.0050304
6562.0000 0.0049981
6564.0000 0.0049659
6566.0000 0.0049431
6568.0000 0.0049204
6570.0000 0.0049023
6572.0000 0.0049113
6574.0000 0.0049204
6576.0000 0.004934
6578.0000 0.0049522
6580.0000 0.0049751
6582.0000 0.0050073
6584.0000 0.0050489
6586.0000 0.0050863
6588.0000 0.0051192
6590.0000 0.0051618
6592.0000 0.0051856
6594.0000 0.0052192
6596.0000 0.0052529
6598.0000 0.0052771
6600.0000 0.0053015
6602.0000 0.0053211
6604.0000 0.0053456
6606.0000 0.0053703
6608.0000 0.0053901
6610.0000 0.005415
6612.0000 0.00544
6614.0000 0.0054651
6616.0000 0.0054954
6618.0000 0.0055208
6620.0000 0.0055463
6622.0000 0.0055718
6624.0000 0.0055821
6626.0000 0.0055976
6628.0000 0.0056182
6630.0000 0.0056338
6632.0000 0.0056546
6634.0000 0.005665
6636.0000 0.0056807
6638.0000 0.0056911
6640.0000 0.0057069
6642.0000 0.0057174
6644.0000 0.005728
6646.0000 0.005728
6648.0000 0.0057438
6650.0000 0.0057438
6652.0000 0.005728
6654.0000 0.005728
6656.0000 0.005728
6658.0000 0.005728
6660.0000 0.005728
6662.0000 0.005728
6664.0000 0.005728
6666.0000 0.0057438
6668.0000 0.0057438
6670.0000 0.005765
6672.0000 0.0057703
6674.0000 0.0057809
6676.0000 0.0057809
6678.0000 0.0057916
6680.0000 0.0057916
6682.0000 0.0057809
6684.0000 0.0057809
6686.0000 0.0057809
6688.0000 0.0057809
6690.0000 0.0057703
6692.0000 0.0057703
6694.0000 0.0057703
6696.0000 0.0057703
6698.0000 0.005765
6700.0000 0.0057703
6702.0000 0.0057703
6704.0000 0.0057703
6706.0000 0.0057809
6708.0000 0.0057809
6710.0000 0.0057809
6712.0000 0.0057809
6714.0000 0.0057809
6716.0000 0.0057809
6718.0000 0.0057703
6720.0000 0.005765
6722.0000 0.005765
6724.0000 0.005765
6726.0000 0.005765
6728.0000 0.005765
6730.0000 0.005765
6732.0000 0.0057544
6734.0000 0.0057438
6736.0000 0.0057438
6738.0000 0.0057438
6740.0000 0.0057438
6742.0000 0.0057438
6744.0000 0.0057438
6746.0000 0.0057438
6748.0000 0.0057438
6750.0000 0.0057438
6752.0000 0.0057438
6754.0000 0.0057438
6756.0000 0.0057438
6758.0000 0.0057438
6760.0000 0.0057438
6762.0000 0.0057438
6764.0000 0.0057438
6766.0000 0.0057438
6768.0000 0.0057438
6770.0000 0.0057438
6772.0000 0.0057438
6774.0000 0.0057438
6776.0000 0.0057438
6778.0000 0.0057438
6780.0000 0.0057438
6782.0000 0.0057438
6784.0000 0.005728
6786.0000 0.005728
6788.0000 0.0057174
6790.0000 0.0057174
6792.0000 0.0057174
6794.0000 0.0057069
6796.0000 0.0057174
6798.0000 0.0057174
6800.0000 0.0057174
6802.0000 0.005728
6804.0000 0.005728
6806.0000 0.005728
6808.0000 0.005728
6810.0000 0.005728
6812.0000 0.0057174
6814.0000 0.0057069
6816.0000 0.0057069
6818.0000 0.0057069
6820.0000 0.0056911
6822.0000 0.0056911
6824.0000 0.0056911
6826.0000 0.0056807
6828.0000 0.0056702
6830.0000 0.005665
6832.0000 0.005665
6834.0000 0.005665
6836.0000 0.0056546
6838.0000 0.0056546
6840.0000 0.0056546
6842.0000 0.0056546
6844.0000 0.005665
6846.0000 0.0056598
6848.0000 0.0056546
6850.0000 0.0056546
6852.0000 0.0056494
6854.0000 0.0056494
6856.0000 0.0056441
6858.0000 0.0056441
6860.0000 0.005639
6862.0000 0.0056338
6864.0000 0.0056338
6866.0000 0.0056286
6868.0000 0.0056234
6870.0000 0.0056234
6872.0000 0.0056182
6874.0000 0.0056182
6876.0000 0.0056131
6878.0000 0.0056079
6880.0000 0.0056079
6882.0000 0.0056027
6884.0000 0.0055976
6886.0000 0.0055976
6888.0000 0.0055924
6890.0000 0.0055873
6892.0000 0.0055873
6894.0000 0.0055821
6896.0000 0.005577
6898.0000 0.0055718
6900.0000 0.0055718
6902.0000 0.0055667
6904.0000 0.0055616
6906.0000 0.0055616
6908.0000 0.0055565
6910.0000 0.0055514
6912.0000 0.0055463
6914.0000 0.0055412
6916.0000 0.0055412
6918.0000 0.0055361
6920.0000 0.005531
6922.0000 0.0055259
6924.0000 0.0055259
6926.0000 0.0055208
6928.0000 0.0055157
6930.0000 0.0055106
6932.0000 0.0055056
6934.0000 0.0055056
6936.0000 0.0055005
6938.0000 0.0054954
6940.0000 0.0054903
6942.0000 0.0054853
6944.0000 0.0054802
6946.0000 0.0054752
6948.0000 0.0054752
6950.0000 0.0054702
6952.0000 0.005415
6954.0000 0.005415
6956.0000 0.005425
6958.0000 0.005425
6960.0000 0.00544
6962.0000 0.00544
6964.0000 0.00545
6966.0000 0.00545
6968.0000 0.0054601
6970.0000 0.0054601
6972.0000 0.0054601
6974.0000 0.00545
6976.0000 0.00545
6978.0000 0.00544
6980.0000 0.005425
6982.0000 0.005405
6984.0000 0.0053901
6986.0000 0.0053703
6988.0000 0.0053555
6990.0000 0.0053456
6992.0000 0.0053456
6994.0000 0.0053456
6996.0000 0.0053456
6998.0000 0.0053456
7000.0000 0.0053358
7002.0000 0.0053309
7004.0000 0.0053309
7006.0000 0.0053309
7008.0000 0.0053309
7010.0000 0.0053211
7012.0000 0.0053211
7014.0000 0.0053211
7016.0000 0.0053309
7018.0000 0.0053309
7020.0000 0.0053358
7022.0000 0.0053456
7024.0000 0.0053456
7026.0000 0.0053456
7028.0000 0.0053555
7030.0000 0.0053555
7032.0000 0.0053703
7034.0000 0.0053703
7036.0000 0.0053703
7038.0000 0.0053802
7040.0000 0.0053703
7042.0000 0.0053703
7044.0000 0.0053703
7046.0000 0.0053703
7048.0000 0.0053555
7050.0000 0.0053555
7052.0000 0.0053555
7054.0000 0.0053456
7056.0000 0.0053456
7058.0000 0.0053309
7060.0000 0.0053309
7062.0000 0.0053211
7064.0000 0.0053113
7066.0000 0.0053113
7068.0000 0.0053113
7070.0000 0.0053015
7072.0000 0.0052966
7074.0000 0.0052966
7076.0000 0.0053015
7078.0000 0.0053113
7080.0000 0.0053211
7082.0000 0.0053211
7084.0000 0.0053309
7086.0000 0.0053309
7088.0000 0.0053309
7090.0000 0.0053211
7092.0000 0.0053113
7094.0000 0.0053015
7096.0000 0.0052966
7098.0000 0.0052869
7100.0000 0.0052869
7102.0000 0.0052869
7104.0000 0.0052869
7106.0000 0.0052869
7108.0000 0.0052869
7110.0000 0.0052966
7112.0000 0.0052869
7114.0000 0.0052869
7116.0000 0.0052771
7118.0000 0.0052771
7120.0000 0.0052626
7122.0000 0.0052626
7124.0000 0.0052529
7126.0000 0.0052529
7128.0000 0.0052432
7130.0000 0.0052432
7132.0000 0.0052432
7134.0000 0.0052288
7136.0000 0.0052288
7138.0000 0.0052288
7140.0000 0.0052192
7142.0000 0.0052192
7144.0000 0.0052192
7146.0000 0.0052192
7148.0000 0.0052192
7150.0000 0.0052095
7152.0000 0.0052048
7154.0000 0.0052048
7156.0000 0.0051952
7158.0000 0.0051856
7160.0000 0.0051713
7162.0000 0.0051523
7164.0000 0.0051381
7166.0000 0.0051192
7168.0000 0.0050863
7170.0000 0.0050629
7172.0000 0.0050396
7174.0000 0.0050165
7176.0000 0.0049888
7178.0000 0.0049659
7180.0000 0.0049522
7182.0000 0.0049431
7184.0000 0.004934
7186.0000 0.004934
7188.0000 0.004934
7190.0000 0.004934
7192.0000 0.004934
7194.0000 0.0049431
7196.0000 0.0049522
7198.0000 0.0049659
7200.0000 0.0049751
7202.0000 0.0049842
7204.0000 0.0050073
7206.0000 0.0050304
7208.0000 0.0050536
7210.0000 0.0050863
7212.0000 0.0051051
7214.0000 0.0051381
7216.0000 0.0051381
7218.0000 0.0051381
7220.0000 0.0051381
7222.0000 0.0051286
7224.0000 0.0051192
7226.0000 0.0051192
7228.0000 0.0050863
7230.0000 0.0050629
7232.0000 0.0050396
7234.0000 0.0050211
7236.0000 0.0050073
7238.0000 0.0049981
7240.0000 0.0049842
7242.0000 0.0049751
7244.0000 0.0049659
7246.0000 0.0049659
7248.0000 0.0049659
7250.0000 0.0049659
7252.0000 0.0049659
7254.0000 0.0049522
7256.0000 0.0049522
7258.0000 0.0049431
7260.0000 0.004934
7262.0000 0.0049113
7264.0000 0.0049113
7266.0000 0.0049023
7268.0000 0.0048978
7270.0000 0.0048978
7272.0000 0.0048978
7274.0000 0.0048888
7276.0000 0.0048978
7278.0000 0.0049023
7280.0000 0.0049113
7282.0000 0.004934
7284.0000 0.0049431
7286.0000 0.0049659
7288.0000 0.0049659
7290.0000 0.0049751
7292.0000 0.0049751
7294.0000 0.0049751
7296.0000 0.0049659
7298.0000 0.0049522
7300.0000 0.0049431
7302.0000 0.0049431
7304.0000 0.004934
7306.0000 0.004934
7308.0000 0.0049204
7310.0000 0.0049204
7312.0000 0.0049113
7314.0000 0.0049113
7316.0000 0.0048978
7318.0000 0.0048978
7320.0000 0.0049023
7322.0000 0.0049113
7324.0000 0.0049113
7326.0000 0.0049204
7328.0000 0.0049204
7330.0000 0.004934
7332.0000 0.0049431
7334.0000 0.0049522
7336.0000 0.0049659
7338.0000 0.0049751
7340.0000 0.0049842
7342.0000 0.0049842
7344.0000 0.0049842
7346.0000 0.0049842
7348.0000 0.0049842
7350.0000 0.0049751
7352.0000 0.0049659
7354.0000 0.0049659
7356.0000 0.0049522
7358.0000 0.0049431
7360.0000 0.0049431
7362.0000 0.004934
7364.0000 0.004934
7366.0000 0.004934
7368.0000 0.0049204
7370.0000 0.0049113
7372.0000 0.0048978
7374.0000 0.0049023
7376.0000 0.0049113
7378.0000 0.0049113
7380.0000 0.0049113
7382.0000 0.0049113
7384.0000 0.0049113
7386.0000 0.0049113
7388.0000 0.0049113
7390.0000 0.0049113
7392.0000 0.0049204
7394.0000 0.004934
7396.0000 0.0049431
7398.0000 0.0049522
7400.0000 0.0049522
7402.0000 0.0049522
7404.0000 0.0049522
7406.0000 0.0049431
7408.0000 0.004934
7410.0000 0.004934
7412.0000 0.0049204
7414.0000 0.0049023
7416.0000 0.0048978
7418.0000 0.0048978
7420.0000 0.0048978
7422.0000 0.0048978
7424.0000 0.0048978
7426.0000 0.0048978
7428.0000 0.0048978
7430.0000 0.0048888
7432.0000 0.0048798
7434.0000 0.0048798
7436.0000 0.0048888
7438.0000 0.0048888
7440.0000 0.0048888
7442.0000 0.0048978
7444.0000 0.0048978
7446.0000 0.0048978
7448.0000 0.0048978
7450.0000 0.0048978
7452.0000 0.0048888
7454.0000 0.0048798
7456.0000 0.0048708
7458.0000 0.0048663
7460.0000 0.0048663
7462.0000 0.0048574
7464.0000 0.0048574
7466.0000 0.0048574
7468.0000 0.0048574
7470.0000 0.0048574
7472.0000 0.0048574
7474.0000 0.0048574
7476.0000 0.0048574
7478.0000 0.0048574
7480.0000 0.0048663
7482.0000 0.0048663
7484.0000 0.0048663
7486.0000 0.0048574
7488.0000 0.0048574
7490.0000 0.0048484
7492.0000 0.0048484
7494.0000 0.0048484
7496.0000 0.0048484
7498.0000 0.0048484
7500.0000 0.0048484
7502.0000 0.004835
7504.0000 0.004835
7506.0000 0.0048261
7508.0000 0.0048173
7510.0000 0.0048173
7512.0000 0.004804
7514.0000 0.004804
7516.0000 0.0048173
7518.0000 0.0048173
7520.0000 0.0048173
7522.0000 0.0048173
7524.0000 0.0048173
7526.0000 0.0048173
7528.0000 0.0048173
7530.0000 0.004804
7532.0000 0.004804
7534.0000 0.004804
7536.0000 0.004804
7538.0000 0.004804
7540.0000 0.0047951
7542.0000 0.0047863
7544.0000 0.0047863
7546.0000 0.0047643
7548.0000 0.0047512
7550.0000 0.0047775
7552.0000 0.0047731
7554.0000 0.0047731
7556.0000 0.0047687
7558.0000 0.0047643
7560.0000 0.0047643
7562.0000 0.0047599
7564.0000 0.0047599
7566.0000 0.0047555
7568.0000 0.0047555
7570.0000 0.0047512
7572.0000 0.0047512
7574.0000 0.0047468
7576.0000 0.0047468
7578.0000 0.0047424
7580.0000 0.0047424
7582.0000 0.0047381
7584.0000 0.0047381
7586.0000 0.0047337
7588.0000 0.0047337
7590.0000 0.0047293
7592.0000 0.004725
7594.0000 0.004725
7596.0000 0.0047206
7598.0000 0.0047206
7600.0000 0.0047163
7602.0000 0.0047163
7604.0000 0.0047119
7606.0000 0.0047119
7608.0000 0.0047119
7610.0000 0.0047076
7612.0000 0.0047076
7614.0000 0.0047033
7616.0000 0.0047033
7618.0000 0.0046989
7620.0000 0.0046989
7622.0000 0.0046946
7624.0000 0.0046946
7626.0000 0.0046903
7628.0000 0.0046903
7630.0000 0.004686
7632.0000 0.004686
7634.0000 0.0046816
7636.0000 0.0046816
7638.0000 0.0046774
7640.0000 0.0046774
7642.0000 0.0046774
7644.0000 0.004673
7646.0000 0.004673
7648.0000 0.0046687
7650.0000 0.0046687
7652.0000 0.0046644
7654.0000 0.0046644
7656.0000 0.0046601
7658.0000 0.0046601
7660.0000 0.0046601
7662.0000 0.0046559
7664.0000 0.0046559
7666.0000 0.0046516
7668.0000 0.0046516
7670.0000 0.0046473
7672.0000 0.0046473
7674.0000 0.0046473
7676.0000 0.004643
7678.0000 0.004643
7680.0000 0.0046387
7682.0000 0.0046387
7684.0000 0.0046387
7686.0000 0.0046345
7688.0000 0.0046345
7690.0000 0.0046302
7692.0000 0.0046516
7694.0000 0.0046516
7696.0000 0.0046387
7698.0000 0.0046302
7700.0000 0.0046217
7702.0000 0.0046217
7704.0000 0.0046302
7706.0000 0.0046387
7708.0000 0.0046302
7710.0000 0.0046217
7712.0000 0.0046089
7714.0000 0.0046004
7716.0000 0.0045793
7718.0000 0.0045625
7720.0000 0.0045499
7722.0000 0.0045625
7724.0000 0.0045709
7726.0000 0.0045793
7728.0000 0.004592
7730.0000 0.0046004
7732.0000 0.0046004
7734.0000 0.0046004
7736.0000 0.0046004
7738.0000 0.0046004
7740.0000 0.0046004
7742.0000 0.0046004
7744.0000 0.0046004
7746.0000 0.0046004
7748.0000 0.0046089
7750.0000 0.0046089
7752.0000 0.0046089
7754.0000 0.0046132
7756.0000 0.0046132
7758.0000 0.0046132
7760.0000 0.0046089
7762.0000 0.0046089
7764.0000 0.0045793
7766.0000 0.0045625
7768.0000 0.0045415
7770.0000 0.0045415
7772.0000 0.0045415
7774.0000 0.0045415
7776.0000 0.0045331
7778.0000 0.0045123
7780.0000 0.004504
7782.0000 0.0045123
7784.0000 0.0045206
7786.0000 0.0045206
7788.0000 0.0045331
7790.0000 0.0045415
7792.0000 0.0045499
7794.0000 0.0045499
7796.0000 0.0045499
7798.0000 0.0045625
7800.0000 0.0045625
7802.0000 0.0045625
7804.0000 0.0045709
7806.0000 0.0045625
7808.0000 0.0045415
7810.0000 0.0045331
7812.0000 0.0045206
7814.0000 0.0045123
7816.0000 0.004504
7818.0000 0.0044916
7820.0000 0.0044833
7822.0000 0.004471
7824.0000 0.004471
7826.0000 0.0044751
7828.0000 0.0044833
7830.0000 0.0044916
7832.0000 0.0044916
7834.0000 0.0044999
7836.0000 0.0044916
7838.0000 0.0044833
7840.0000 0.004471
7842.0000 0.004471
7844.0000 0.004471
7846.0000 0.004471
7848.0000 0.0044751
7850.0000 0.0044833
7852.0000 0.0044916
7854.0000 0.0044916
7856.0000 0.0044916
7858.0000 0.0044916
7860.0000 0.0044751
7862.0000 0.0044463
7864.0000 0.0044259
7866.0000 0.0044055
7868.0000 0.0043974
7870.0000 0.0043772
7872.0000 0.0043772
7874.0000 0.0043772
7876.0000 0.0043853
7878.0000 0.0043974
7880.0000 0.0044055
7882.0000 0.0044259
7884.0000 0.0044259
7886.0000 0.0044259
7888.0000 0.0044259
7890.0000 0.0044259
7892.0000 0.0044137
7894.0000 0.0044055
7896.0000 0.0044055
7898.0000 0.0043974
7900.0000 0.0043853
7902.0000 0.0043772
7904.0000 0.0043652
7906.0000 0.0043571
7908.0000 0.0043491
7910.0000 0.0043411
7912.0000 0.0043411
7914.0000 0.0043371
7916.0000 0.0043291
7918.0000 0.0043211
7920.0000 0.0043211
7922.0000 0.0043371
7924.0000 0.0043571
7926.0000 0.0043692
7928.0000 0.0043853
7930.0000 0.0043974
7932.0000 0.0044137
7934.0000 0.0043974
7936.0000 0.0043853
7938.0000 0.0043772
7940.0000 0.0043853
7942.0000 0.0043974
7944.0000 0.0043974
7946.0000 0.0043974
7948.0000 0.0043853
7950.0000 0.0043772
7952.0000 0.0043652
7954.0000 0.0043491
7956.0000 0.0043371
7958.0000 0.0043371
7960.0000 0.0043291
7962.0000 0.0043291
7964.0000 0.0043291
7966.0000 0.0043291
7968.0000 0.0043291
7970.0000 0.0043291
7972.0000 0.0043371
7974.0000 0.0043371
7976.0000 0.0043371
7978.0000 0.0043291
7980.0000 0.0043291
7982.0000 0.0043291
7984.0000 0.0043291
7986.0000 0.0043291
7988.0000 0.0043211
7990.0000 0.0043211
7992.0000 0.0043013
7994.0000 0.0043013
7996.0000 0.0042934
7998.0000 0.0042934
8000.0000 0.0042934
8002.0000 0.0042815
8004.0000 0.0042658
8006.0000 0.0042658
8008.0000 0.004254
8010.0000 0.0042462
8012.0000 0.0042462
8014.0000 0.004254
8016.0000 0.004254
8018.0000 0.0042658
8020.0000 0.0042658
8022.0000 0.0042658
8024.0000 0.0042658
8026.0000 0.004254
8028.0000 0.0042462
8030.0000 0.0042384
8032.0000 0.0042462
8034.0000 0.004254
8036.0000 0.0042658
8038.0000 0.0042658
8040.0000 0.0042737
8042.0000 0.0042815
8044.0000 0.0042815
8046.0000 0.0042815
8048.0000 0.0042815
8050.0000 0.0042815
8052.0000 0.0042737
8054.0000 0.0042658
8056.0000 0.004254
8058.0000 0.0042462
8060.0000 0.0042345
8062.0000 0.0042345
8064.0000 0.0042345
8066.0000 0.0042345
8068.0000 0.0042462
8070.0000 0.004254
8072.0000 0.0042658
8074.0000 0.0042658
8076.0000 0.0042658
8078.0000 0.0042658
8080.0000 0.0042462
8082.0000 0.0042189
8084.0000 0.0041918
8086.0000 0.0041802
8088.0000 0.0041649
8090.0000 0.0041457
8092.0000 0.0041649
8094.0000 0.0041725
8096.0000 0.0041918
8098.0000 0.0041918
8100.0000 0.0041918
8102.0000 0.0041918
8104.0000 0.0041995
8106.0000 0.0042073
8108.0000 0.0042073
8110.0000 0.0042073
8112.0000 0.0042073
8114.0000 0.0042073
8116.0000 0.0041995
8118.0000 0.0041918
8120.0000 0.0041802
8122.0000 0.0041725
8124.0000 0.0041649
8126.0000 0.0041457
8128.0000 0.0041343
8130.0000 0.0041267
8132.0000 0.0041191
8134.0000 0.0041077
8136.0000 0.0041001
8138.0000 0.0040926
8140.0000 0.0040851
8142.0000 0.0040738
8144.0000 0.0040663
8146.0000 0.0040663
8148.0000 0.0040476
8150.0000 0.0040402
8152.0000 0.0040402
8154.0000 0.0040402
8156.0000 0.0040402
8158.0000 0.0040402
8160.0000 0.004029
8162.0000 0.0040216
8164.0000 0.0040142
8166.0000 0.0040142
8168.0000 0.0040142
8170.0000 0.0040142
8172.0000 0.0040216
8174.0000 0.0040402
8176.0000 0.0040402
8178.0000 0.0040402
8180.0000 0.004029
8182.0000 0.004029
8184.0000 0.004029
8186.0000 0.004029
8188.0000 0.004029
8190.0000 0.004029
8192.0000 0.004029
8194.0000 0.004029
8196.0000 0.0040402
8198.0000 0.0040476
8200.0000 0.0040551
8202.0000 0.0040663
8204.0000 0.0040663
8206.0000 0.0040738
8208.0000 0.0040738
8210.0000 0.0040738
8212.0000 0.0040813
8214.0000 0.0040738
8216.0000 0.0040663
8218.0000 0.0040663
8220.0000 0.0040402
8222.0000 0.0040216
8224.0000 0.0040031
8226.0000 0.0039847
8228.0000 0.0039628
8230.0000 0.0039518
8232.0000 0.0039628
8234.0000 0.0039847
8236.0000 0.0040031
8238.0000 0.0040402
8240.0000 0.0040663
8242.0000 0.0041001
8244.0000 0.0040926
8246.0000 0.0040813
8248.0000 0.0040663
8250.0000 0.0040476
8252.0000 0.0040216
8254.0000 0.0039958
8256.0000 0.0039958
8258.0000 0.0039958
8260.0000 0.0040031
8262.0000 0.0039958
8264.0000 0.0039884
8266.0000 0.0039847
8268.0000 0.0039847
8270.0000 0.0039958
8272.0000 0.0040031
8274.0000 0.0040031
8276.0000 0.0040031
8278.0000 0.0039958
8280.0000 0.0039958
8282.0000 0.0039958
8284.0000 0.0039884
8286.0000 0.0039958
8288.0000 0.0040031
8290.0000 0.0040216
8292.0000 0.0040142
8294.0000 0.0040031
8296.0000 0.0039884
8298.0000 0.0039884
8300.0000 0.0040031
8302.0000 0.0040105
8304.0000 0.0040216
8306.0000 0.0040402
8308.0000 0.0040476
8310.0000 0.0040476
8312.0000 0.0040402
8314.0000 0.0040216
8316.0000 0.0040105
8318.0000 0.0040216
8320.0000 0.0040216
8322.0000 0.0040216
8324.0000 0.0040031
8326.0000 0.0039847
8328.0000 0.0039701
8330.0000 0.0039774
8332.0000 0.0039847
8334.0000 0.0039884
8336.0000 0.0039958
8338.0000 0.0040105
8340.0000 0.0040142
8342.0000 0.004029
8344.0000 0.0040402
8346.0000 0.0040402
8348.0000 0.0040402
8350.0000 0.0040402
8352.0000 0.0040402
8354.0000 0.0040216
8356.0000 0.0040142
8358.0000 0.0040031
8360.0000 0.0040031
8362.0000 0.0040031
8364.0000 0.0039958
8366.0000 0.0039884
8368.0000 0.0039847
8370.0000 0.0039774
8372.0000 0.0039847
8374.0000 0.0039958
8376.0000 0.0040105
8378.0000 0.0040105
8380.0000 0.0040216
8382.0000 0.0040216
8384.0000 0.004029
8386.0000 0.004029
8388.0000 0.0040402
8390.0000 0.0040402
8392.0000 0.0040402
8394.0000 0.0040476
8396.0000 0.0040402
8398.0000 0.0040216
8400.0000 0.0040031
8402.0000 0.0039847
8404.0000 0.0039628
8406.0000 0.0039446
8408.0000 0.0039337
8410.0000 0.0039264
8412.0000 0.0039192
8414.0000 0.0039337
8416.0000 0.0039446
8418.0000 0.0039628
8420.0000 0.0039701
8422.0000 0.0039774
8424.0000 0.0039847
8426.0000 0.0039847
8428.0000 0.0039701
8430.0000 0.0039628
8432.0000 0.0039518
8434.0000 0.0039337
8436.0000 0.0039192
8438.0000 0.0039192
8440.0000 0.0039192
8442.0000 0.0039192
8444.0000 0.0039264
8446.0000 0.0039337
8448.0000 0.0039446
8450.0000 0.0039446
8452.0000 0.0039446
8454.0000 0.0039446
8456.0000 0.0039446
8458.0000 0.0039446
8460.0000 0.0039446
8462.0000 0.0039337
8464.0000 0.0039264
8466.0000 0.0039192
8468.0000 0.0039192
8470.0000 0.0039192
8472.0000 0.0039192
8474.0000 0.0039192
8476.0000 0.0039264
8478.0000 0.0039337
8480.0000 0.0039446
8482.0000 0.0039446
8484.0000 0.0039518
8486.0000 0.0039591
8488.0000 0.0039518
8490.0000 0.0039446
8492.0000 0.0039446
8494.0000 0.0039264
8496.0000 0.0039192
8498.0000 0.0039012
8500.0000 0.0039084
8502.0000 0.0039192
8504.0000 0.0039264
8506.0000 0.0039264
8508.0000 0.0039264
8510.0000 0.0039337
8512.0000 0.0039192
8514.0000 0.0039084
8516.0000 0.0038904
8518.0000 0.0038833
8520.0000 0.0038761
8522.0000 0.003869
8524.0000 0.0038761
8526.0000 0.0038761
8528.0000 0.0038833
8530.0000 0.0038904
8532.0000 0.003894
8534.0000 0.0039012
8536.0000 0.0039192
8538.0000 0.0039264
8540.0000 0.0039446
8542.0000 0.0039518
8544.0000 0.0039518
8546.0000 0.0039518
8548.0000 0.0039518
8550.0000 0.0039446
8552.0000 0.0039337
8554.0000 0.0039264
8556.0000 0.0039264
8558.0000 0.0039192
8560.0000 0.0039084
8562.0000 0.003894
8564.0000 0.0038833
8566.0000 0.0038654
8568.0000 0.0038512
8570.0000 0.0038335
8572.0000 0.0038265
8574.0000 0.0038265
8576.0000 0.0038265
8578.0000 0.0038265
8580.0000 0.0038265
8582.0000 0.0038265
8584.0000 0.0038265
8586.0000 0.0038265
8588.0000 0.0038335
8590.0000 0.0038335
8592.0000 0.0038265
8594.0000 0.0038265
8596.0000 0.0038265
8598.0000 0.0038335
8600.0000 0.0038406
8602.0000 0.0038512
8604.0000 0.0038583
8606.0000 0.0038583
8608.0000 0.0038583
8610.0000 0.0038583
8612.0000 0.0038583
8614.0000 0.0038512
8616.0000 0.0038406
8618.0000 0.0038335
8620.0000 0.0038265
8622.0000 0.0038265
8624.0000 0.0038265
8626.0000 0.0038265
8628.0000 0.0038265
8630.0000 0.0038265
8632.0000 0.0038265
8634.0000 0.0038265
8636.0000 0.0038159
8638.0000 0.0038159
8640.0000 0.0037914
8642.0000 0.003774
8644.0000 0.0037532
8646.0000 0.0037601
8648.0000 0.003767
8650.0000 0.003774
8652.0000 0.0037844
8654.0000 0.0037914
8656.0000 0.0038089
8658.0000 0.0038089
8660.0000 0.0038089
8662.0000 0.0038089
8664.0000 0.0038019
8666.0000 0.0038019
8668.0000 0.0037914
8670.0000 0.0037844
8672.0000 0.003767
8674.0000 0.0037601
8676.0000 0.0037601
8678.0000 0.003767
8680.0000 0.003767
8682.0000 0.003767
8684.0000 0.0037601
8686.0000 0.0037601
8688.0000 0.0037497
8690.0000 0.0037428
8692.0000 0.0037359
8694.0000 0.0037256
8696.0000 0.0037256
8698.0000 0.0037256
8700.0000 0.0037188
8702.0000 0.0037119
8704.0000 0.0037119
8706.0000 0.0037119
8708.0000 0.0037119
8710.0000 0.0037188
8712.0000 0.0037256
8714.0000 0.0037359
8716.0000 0.0037428
8718.0000 0.0037532
8720.0000 0.003767
8722.0000 0.003774
8724.0000 0.003774
8726.0000 0.0037532
8728.0000 0.0037359
8730.0000 0.0037188
8732.0000 0.0036949
8734.0000 0.0036711
8736.0000 0.0036543
8738.0000 0.003661
8740.0000 0.0036644
8742.0000 0.0036779
8744.0000 0.0036949
8746.0000 0.0037188
8748.0000 0.0037256
8750.0000 0.0037256
8752.0000 0.0037256
8754.0000 0.0037188
8756.0000 0.0037119
8758.0000 0.0036949
8760.0000 0.0036881
8762.0000 0.0036847
8764.0000 0.0036779
8766.0000 0.0036711
8768.0000 0.0036475
8770.0000 0.0036241
8772.0000 0.0036074
8774.0000 0.0036008
8776.0000 0.0036008
8778.0000 0.0036074
8780.0000 0.0036475
8782.0000 0.0036949
8784.0000 0.0037428
8786.0000 0.003774
8788.0000 0.0038019
8790.0000 0.0038265
8792.0000 0.0038159
8794.0000 0.0038089
8796.0000 0.0038019
8798.0000 0.0037844
8800.0000 0.003767
8802.0000 0.0037532
8804.0000 0.0037497
8806.0000 0.0037497
8808.0000 0.0037428
8810.0000 0.0037256
8812.0000 0.0037017
8814.0000 0.0036847
8816.0000 0.0036847
8818.0000 0.0036779
8820.0000 0.0036779
8822.0000 0.003661
8824.0000 0.0036375
8826.0000 0.0036241
8828.0000 0.0036141
8830.0000 0.0036141
8832.0000 0.0036241
8834.0000 0.0036241
8836.0000 0.0036308
8838.0000 0.0036408
8840.0000 0.003661
8842.0000 0.0036847
8844.0000 0.0037119
8846.0000 0.0037256
8848.0000 0.0037359
8850.0000 0.0037428
8852.0000 0.0037359
8854.0000 0.0037119
8856.0000 0.0036949
8858.0000 0.0036881
8860.0000 0.0037017
8862.0000 0.0037119
8864.0000 0.0037188
8866.0000 0.0037359
8868.0000 0.0037428
8870.0000 0.0037601
8872.0000 0.0037775
8874.0000 0.0038019
8876.0000 0.0037914
8878.0000 0.0037601
8880.0000 0.0037359
8882.0000 0.0037017
8884.0000 0.0036711
8886.0000 0.0036375
8888.0000 0.0036008
8890.0000 0.0035612
8892.0000 0.0035156
8894.0000 0.003493
8896.0000 0.0035059
8898.0000 0.0035156
8900.0000 0.0035286
8902.0000 0.0035547
8904.0000 0.0035843
8906.0000 0.0035909
8908.0000 0.0035612
8910.0000 0.0035318
8912.0000 0.0035059
8914.0000 0.003477
8916.0000 0.0034483
8918.0000 0.0034324
8920.0000 0.0034324
8922.0000 0.0034387
8924.0000 0.0034387
8926.0000 0.0034387
8928.0000 0.0034387
8930.0000 0.0034387
8932.0000 0.0034229
8934.0000 0.0034104
8936.0000 0.0033884
8938.0000 0.0033791
8940.0000 0.0033636
8942.0000 0.0033512
8944.0000 0.0033512
8946.0000 0.003345
8948.0000 0.0033419
8950.0000 0.0033144
8952.0000 0.0032931
8954.0000 0.0032629
8956.0000 0.0032449
8958.0000 0.00323
8960.0000 0.0032092
8962.0000 0.0032092
8964.0000 0.0032092
8966.0000 0.0032092
8968.0000 0.0032004
8970.0000 0.0031945
8972.0000 0.0031886
8974.0000 0.0032092
8976.0000 0.00323
8978.0000 0.0032509
8980.0000 0.0032991
8982.0000 0.0033512
8984.0000 0.0034104
8986.0000 0.0034229
8988.0000 0.0034229
8990.0000 0.0034324
8992.0000 0.0034387
8994.0000 0.0034546
8996.0000 0.0034706
8998.0000 0.003477
9000.0000 0.003477
9002.0000 0.003477
9004.0000 0.0034546
9006.0000 0.0034229
9008.0000 0.0033884
9010.0000 0.0033512
9012.0000 0.0033205
9014.0000 0.0032931
9016.0000 0.0032779
9018.0000 0.0032779
9020.0000 0.003284
9022.0000 0.0032779
9024.0000 0.0032659
9026.0000 0.0032569
9028.0000 0.0032509
9030.0000 0.0032359
9032.0000 0.00323
9034.0000 0.00323
9036.0000 0.0032419
9038.0000 0.0032629
9040.0000 0.0032569
9042.0000 0.00323
9044.0000 0.0032004
9046.0000 0.0031739
9048.0000 0.0031536
9050.0000 0.0031333
9052.0000 0.0031189
9054.0000 0.0031132
9056.0000 0.0031046
9058.0000 0.0031132
9060.0000 0.0031477
9062.0000 0.0031886
9064.0000 0.0032211
9066.0000 0.00323
9068.0000 0.0032419
9070.0000 0.0032509
9072.0000 0.0032359
9074.0000 0.0032211
9076.0000 0.0032092
9078.0000 0.0031945
9080.0000 0.0031798
9082.0000 0.0031681
9084.0000 0.0031594
9086.0000 0.0031477
9088.0000 0.0031448
9090.0000 0.0031536
9092.0000 0.0031594
9094.0000 0.0031652
9096.0000 0.0031652
9098.0000 0.0031594
9100.0000 0.0031536
9102.0000 0.0031448
9104.0000 0.0031333
9106.0000 0.0031189
9108.0000 0.0031333
9110.0000 0.0031536
9112.0000 0.0031652
9114.0000 0.0031681
9116.0000 0.0031739
9118.0000 0.0031739
9120.0000 0.0031857
9122.0000 0.0031945
9124.0000 0.0032004
9126.0000 0.0031798
9128.0000 0.0031536
9130.0000 0.0031333
9132.0000 0.0031391
9134.0000 0.0031477
9136.0000 0.0031652
9138.0000 0.0031739
9140.0000 0.0031857
9142.0000 0.0031945
9144.0000 0.0031945
9146.0000 0.0031945
9148.0000 0.0031886
9150.0000 0.0031857
9152.0000 0.0031739
9154.0000 0.0031681
9156.0000 0.0031594
9158.0000 0.0031448
9160.0000 0.0031333
9162.0000 0.0031246
9164.0000 0.0031189
9166.0000 0.0031132
9168.0000 0.0031046
9170.0000 0.0030988
9172.0000 0.0030931
9174.0000 0.0030931
9176.0000 0.0030988
9178.0000 0.0030988
9180.0000 0.0031046
9182.0000 0.0030988
9184.0000 0.0030988
9186.0000 0.0030931
9188.0000 0.0030846
9190.0000 0.0030789
9192.0000 0.0030931
9194.0000 0.0031333
9196.0000 0.0031739
9198.0000 0.0032092
9200.0000 0.00323
