10.0000 3.50913e-27
10.6200 1.7555e-25
11.2500 5.65458e-24
11.8800 1.25661e-22
12.5000 2.0361e-21
13.1200 2.52116e-20
13.7500 2.47059e-19
14.3800 1.97879e-18
15.0000 1.32801e-17
15.6200 6.78578e-17
16.2500 3.06761e-16
16.8800 1.24509e-15
17.5000 4.58353e-15
18.1200 1.54597e-14
18.7500 4.8217e-14
19.3800 1.39959e-13
20.0000 3.81241e-13
20.6200 8.92894e-13
21.2500 2.00632e-12
21.8800 4.33311e-12
22.5000 9.03649e-12
23.1200 1.82138e-11
23.7500 3.55795e-11
24.3800 6.74217e-11
25.0000 1.24394e-10
25.6200 2.09508e-10
26.2500 3.47376e-10
26.8800 5.665e-10
27.5000 9.10332e-10
28.1200 1.44145e-09
28.7500 2.24905e-09
29.3800 3.46099e-09
30.0000 5.25291e-09
30.6200 7.53009e-09
31.2500 1.07053e-08
31.8800 1.51078e-08
32.5000 2.11252e-08
33.1200 2.93495e-08
33.7500 4.04017e-08
34.3800 5.52077e-08
35.0000 7.48859e-08
35.6200 9.77237e-08
36.2500 1.2694e-07
36.8800 1.63983e-07
37.5000 2.11057e-07
38.1200 2.70396e-07
38.7500 3.44509e-07
39.3800 4.36918e-07
40.0000 5.51569e-07
40.6200 6.7733e-07
41.2500 8.29469e-07
41.8800 1.01298e-06
42.5000 1.23254e-06
43.1200 1.49555e-06
43.7500 1.80801e-06
44.3800 2.17972e-06
45.0000 2.61818e-06
45.6200 3.08461e-06
46.2500 3.6241e-06
46.8800 4.25402e-06
47.5000 4.97508e-06
48.1200 5.813e-06
48.7500 6.76706e-06
49.3800 7.86321e-06
50.0000 9.12011e-06
51.2500 1.18905e-05
51.8800 1.3527e-05
52.5000 1.53745e-05
53.1200 1.74421e-05
53.7500 1.97515e-05
54.3800 2.23254e-05
55.0000 2.51884e-05
56.2500 3.13617e-05
56.8800 3.49301e-05
57.5000 3.88329e-05
58.1200 4.3132e-05
58.7500 4.78189e-05
59.3800 5.29663e-05
60.0000 5.85599e-05
61.2500 7.04044e-05
62.5000 8.42558e-05
63.7500 0.000100462
64.3800 0.000109446
65.0000 0.000119234
66.2500 0.000139316
67.5000 0.00016233
68.7500 0.000188452
70.0000 0.000217972
71.2500 0.000249345
72.5000 0.000284446
73.7500 0.000323296
75.0000 0.000366775
76.2500 0.000411908
77.5000 0.000461743
78.7500 0.000516179
80.0000 0.00057597
82.5000 0.000704044
83.7500 0.000776247
85.0000 0.00085428
87.5000 0.00101953
90.0000 0.00121004
92.5000 0.00141514
95.0000 0.0016474
97.5000 0.00189496
100.0000 0.0021697
105.0000 0.00277715
110.0000 0.00346737
115.0000 0.00424229
120.0000 0.00509096
125.0000 0.00600897
130.0000 0.00700164
135.0000 0.00803896
140.0000 0.00913692
145.0000 0.0102707
150.0000 0.0114393
155.0000 0.0126357
160.0000 0.0138548
165.0000 0.0150938
170.0000 0.016323
175.0000 0.017555
180.0000 0.0187932
185.0000 0.0200078
190.0000 0.0212031
195.0000 0.0223872
200.0000 0.0235505
205.0000 0.0246831
210.0000 0.0257751
215.0000 0.0268411
220.0000 0.027874
227.9400 0.0294307
227.9500 0.0294307
228.5000 0.0295393
229.6000 0.0297303
230.0000 0.0298126
231.0000 0.0300054
233.0000 0.0303669
234.0000 0.0305633
234.3500 0.0306196
234.4500 0.0306196
234.5500 0.0306478
235.5500 0.0308177
235.9500 0.030903
236.9500 0.0310742
237.3400 0.0311315
237.4400 0.0311602
237.5400 0.0311889
238.0000 0.0312464
239.0000 0.0314485
240.0000 0.0315937
242.0000 0.0319448
242.5200 0.0320332
243.0400 0.0321218
243.1400 0.0321514
243.2400 0.0321514
243.6200 0.0322107
244.0000 0.0322998
245.0000 0.0324489
247.0000 0.0327793
249.5000 0.0331742
254.5000 0.0339469
255.0000 0.0340408
256.0000 0.0341665
256.3300 0.0342295
256.4300 0.0342295
256.5300 0.034261
257.5300 0.0344191
258.0000 0.0344826
259.0000 0.0346099
260.0000 0.0347696
262.0000 0.035059
266.0000 0.0356123
270.0000 0.036141
278.0000 0.0371193
280.0000 0.0373594
284.0000 0.0378443
290.0000 0.0384769
300.0000 0.0395185
302.0000 0.0397009
303.0000 0.0398107
303.3400 0.0398474
303.6800 0.0398841
303.7800 0.0398841
303.8800 0.0398841
304.4400 0.0399577
305.0000 0.0399945
306.1200 0.0401051
307.5000 0.0402161
310.0000 0.040439
315.0000 0.0408884
320.0000 0.0413048
330.0000 0.0421114
340.0000 0.0428549
350.0000 0.0435712
360.0000 0.0442588
370.0000 0.0449159
380.0000 0.0455827
390.0000 0.0462168
400.0000 0.0468598
410.0000 0.0474679
420.0000 0.0481282
430.0000 0.0487978
440.0000 0.0494766
450.0000 0.0501649
460.0000 0.0508628
470.0000 0.0515703
480.0000 0.0522878
490.0000 0.0530152
500.0000 0.0537527
504.0000 0.0540505
505.0000 0.0541502
507.0000 0.0543
511.0000 0.0546009
513.0000 0.054752
517.0000 0.0550554
521.0000 0.0553605
521.5600 0.0554115
522.1100 0.0554626
522.2100 0.0554626
522.3100 0.0554626
523.1600 0.0555137
524.0000 0.055616
525.6800 0.0557186
529.0400 0.0559758
530.0000 0.056079
531.9200 0.0562341
535.7600 0.0564937
536.0000 0.0565458
536.4700 0.0565979
536.9300 0.0565979
537.0300 0.0565979
537.1300 0.05665
537.5700 0.05665
538.0000 0.0567022
539.0000 0.0567545
541.0000 0.0569115
545.0000 0.0572796
553.0000 0.0579162
557.5000 0.0582371
566.5000 0.0589929
577.0000 0.0598136
580.0000 0.0600897
583.0000 0.0603115
583.6200 0.0603671
584.2300 0.0604227
584.3300 0.0604227
584.4300 0.0604227
584.7200 0.0604784
585.0000 0.0604784
586.0000 0.0605341
588.0000 0.0607016
592.0000 0.061038
594.0000 0.0612068
598.0000 0.061546
600.0000 0.0617163
604.0000 0.0620012
612.0000 0.0626902
620.0000 0.0633286
636.0000 0.0646249
640.0000 0.0649232
648.0000 0.0655843
660.0000 0.066558
672.0000 0.0674839
680.0000 0.0681083
696.0000 0.0693745
700.0000 0.0696306
708.0000 0.0702749
720.0000 0.0711214
732.0000 0.0720444
740.0000 0.0725772
756.0000 0.0737225
760.0000 0.0739946
768.0000 0.0745418
780.0000 0.0753703
792.0000 0.0761377
800.0000 0.0766302
816.0000 0.0776247
820.0000 0.0778395
828.0000 0.078343
840.0000 0.0790679
852.0000 0.079726
860.0000 0.0801678
876.0000 0.0809841
880.0000 0.0811335
888.0000 0.0815831
900.0000 0.0821107
905.0000 0.0823379
910.0000 0.0824898
911.7400 0.0824898
911.8400 0.0821864
912.0000 0.0821864
912.2500 0.0822621
912.7500 0.0822621
913.7500 0.0822621
915.3300 0.0822621
915.8200 0.0821864
916.4300 0.0821107
917.1800 0.0820352
918.1300 0.0819596
919.3500 0.0821107
920.9600 0.0825658
921.4800 0.0834834
922.0000 0.0840234
922.5200 0.0836373
923.0400 0.0826418
923.1500 0.0826418
923.4000 0.0834834
923.6500 0.0845668
924.1500 0.0862979
924.4000 0.0866962
924.6500 0.0866962
924.9000 0.0862979
925.1500 0.0853493
925.4000 0.0840234
925.6500 0.0822621
926.1500 0.0781988
926.2300 0.0780549
926.4800 0.080094
926.7300 0.0829469
926.9800 0.0856643
927.2300 0.0880643
927.4800 0.0900326
927.7300 0.0914534
927.9800 0.0924698
928.2300 0.0928966
928.4800 0.0928111
928.5000 0.0927257
928.7500 0.0919602
929.0000 0.0905316
929.2500 0.0883894
929.5000 0.0857433
929.7500 0.0824138
930.0000 0.0785597
930.2500 0.0743361
930.5000 0.069952
930.7500 0.0671738
931.0000 0.0701455
931.2500 0.0748859
931.7400 0.0841783
932.2400 0.0924698
932.7400 0.0993574
933.2400 0.10452
933.7400 0.107746
933.9800 0.108643
934.2300 0.108843
934.4800 0.108543
934.7300 0.107547
935.0000 0.105779
935.2700 0.103371
935.5400 0.100184
935.8100 0.0963829
936.0700 0.092045
936.3400 0.0871766
936.6100 0.0819596
936.8800 0.0764188
937.1500 0.0705342
937.3800 0.0652229
937.6100 0.0597585
937.8000 0.0562341
937.8100 0.0562341
938.0100 0.0600897
938.2600 0.0661302
938.5100 0.0719118
939.0100 0.0829469
939.5100 0.0934114
940.0100 0.103181
940.5100 0.112202
941.0100 0.120337
941.5100 0.127292
942.0100 0.133045
942.5100 0.137658
943.0100 0.140864
943.5100 0.142561
943.7800 0.142955
944.3200 0.14243
944.5900 0.141384
944.8600 0.139959
945.1300 0.137911
945.4000 0.135519
945.6700 0.132678
945.9400 0.1293
946.2100 0.125545
946.4800 0.121451
947.0200 0.111995
947.2900 0.106856
947.5600 0.101485
948.1000 0.0900326
948.6400 0.0781268
949.1800 0.0655843
949.3600 0.0606457
949.5500 0.0553605
949.7400 0.0509096
949.7500 0.0509096
949.9500 0.0557699
950.2000 0.0629216
950.4500 0.0692468
950.7000 0.075024
950.9500 0.0807607
951.4500 0.0919602
952.4500 0.113449
952.9500 0.123595
953.4500 0.133168
953.9500 0.142037
954.4500 0.150383
954.9500 0.158052
955.4500 0.165044
955.5500 0.166418
955.8000 0.169512
956.3000 0.17555
957.3000 0.185524
957.8000 0.189671
958.3000 0.193375
959.3000 0.198976
959.8000 0.201002
960.3000 0.202675
961.1500 0.203986
962.0000 0.203986
962.8500 0.202116
963.7000 0.198609
964.5500 0.193197
964.9700 0.189671
965.4000 0.185866
966.2500 0.17636
966.7400 0.169824
967.2300 0.16278
967.7200 0.155024
968.2100 0.146555
968.7000 0.137658
969.1900 0.127997
969.6800 0.118032
970.1700 0.107547
971.1500 0.0858223
971.6400 0.0745418
972.1300 0.0619441
972.3400 0.0549541
972.5400 0.0499804
972.5400 0.0499804
972.7400 0.0552077
972.9900 0.0632703
973.2400 0.0700164
973.4900 0.0759277
973.7400 0.0817335
974.2400 0.0931537
975.2400 0.115345
975.7400 0.125893
976.2400 0.136144
976.3700 0.138676
976.6300 0.143747
977.1500 0.153462
978.1900 0.171396
978.7100 0.179473
979.2300 0.187068
980.0000 0.197515
980.7700 0.206633
981.5400 0.214981
982.3100 0.222229
983.0800 0.228665
984.6200 0.239662
986.1600 0.24797
987.7000 0.254683
989.2400 0.259896
990.0000 0.26206
991.5200 0.265461
994.5700 0.269898
997.6100 0.271894
1000.0000 0.272145
1002.3900 0.270894
1004.7800 0.267917
1007.1600 0.263269
1008.5800 0.259418
1010.0000 0.254449
1011.4200 0.248428
1012.8400 0.240769
1014.2600 0.231206
1015.6700 0.219584
1017.0900 0.205494
1018.5100 0.188625
1019.2600 0.178484
1020.0000 0.167494
1020.7400 0.15574
1021.4900 0.143087
1022.0000 0.133906
1023.0200 0.114604
1023.5100 0.104809
1024.0000 0.0947982
1024.7600 0.0787046
1024.9500 0.0744046
1025.1400 0.0698232
1025.3300 0.0642096
1025.5200 0.0574381
1025.7200 0.0479513
1025.7200 0.0479513
1025.9200 0.0573324
1026.1700 0.0660693
1026.4200 0.072778
1026.4600 0.0737225
1026.7100 0.0794328
1027.0000 0.0856643
1027.5800 0.0979039
1028.5000 0.116413
1029.4200 0.133906
1030.0000 0.144278
1031.1600 0.163531
1031.7400 0.172346
1032.3200 0.180634
1033.4800 0.195524
1034.6400 0.208545
1035.8000 0.219584
1036.9600 0.229087
1038.1200 0.237247
1039.2800 0.243893
1040.0000 0.247514
1041.4400 0.253746
1042.8800 0.258941
1044.3100 0.262785
1047.1900 0.268906
1050.0000 0.272647
1052.8100 0.275169
1055.6200 0.276694
1058.4400 0.277715
1060.0000 0.278227
1063.1200 0.27874
1066.2500 0.27874
1069.3800 0.27874
1070.0000 0.27874
1071.2500 0.278484
1073.7500 0.278227
1078.7500 0.27746
1080.0000 0.277204
1082.5000 0.276949
1087.5000 0.275931
1090.0000 0.275169
1095.0000 0.274157
1100.0000 0.272898
1105.0000 0.271644
1110.0000 0.270147
1115.0000 0.268906
1120.0000 0.26767
1125.0000 0.266195
1130.0000 0.264728
1135.0000 0.263269
1140.0000 0.261818
1145.0000 0.260375
1150.0000 0.258941
1155.0000 0.257276
1160.0000 0.255623
1165.0000 0.25398
1170.0000 0.252116
1175.0000 0.250035
1180.0000 0.247742
1185.0000 0.244568
1190.0000 0.240326
1195.0000 0.233991
1197.5000 0.229298
1200.0000 0.222844
1202.5000 0.21419
1205.0000 0.201744
1206.2500 0.193553
1207.5000 0.183992
1208.7500 0.172504
1210.0000 0.159074
1210.7500 0.14983
1211.5000 0.139701
1212.2500 0.128825
1213.0000 0.11695
1213.6200 0.106463
1214.2400 0.0953235
1214.5500 0.0895365
1214.8500 0.0834065
1215.0100 0.0800203
1215.1600 0.0760677
1215.3200 0.0710559
1215.4700 0.0657052
1215.6700 0.053064
1215.8700 0.0656448
1216.1200 0.0743361
1216.3700 0.0809096
1216.6200 0.0862184
1216.8700 0.0910332
1217.2500 0.0981748
1218.0100 0.111481
1218.6300 0.121675
1219.2500 0.13122
1219.8700 0.140088
1220.0000 0.141775
1220.2600 0.145345
1220.7800 0.151915
1221.8200 0.163832
1222.8600 0.174261
1223.9000 0.183147
1224.9400 0.190897
1225.0000 0.191249
1225.2500 0.192841
1225.7500 0.196065
1226.7500 0.201558
1227.7500 0.206063
1228.7500 0.210087
1230.0000 0.21419
1232.5000 0.220191
1235.0000 0.224285
1237.5000 0.226986
1240.0000 0.228665
1245.0000 0.230569
1250.0000 0.230994
1255.0000 0.230994
1260.0000 0.230569
1265.0000 0.229721
1270.0000 0.228876
1275.0000 0.228034
1280.0000 0.226986
1285.0000 0.225944
1290.0000 0.224905
1295.0000 0.223872
1300.0000 0.222844
1320.0000 0.218575
1340.0000 0.214388
1360.0000 0.210281
1380.0000 0.206253
1400.0000 0.202302
1420.0000 0.198427
1440.0000 0.194805
1450.0000 0.193019
1470.0000 0.189322
1490.0000 0.185866
1500.0000 0.184162
1520.0000 0.180801
1540.0000 0.177664
1550.0000 0.176035
1570.0000 0.172982
1590.0000 0.169824
1600.0000 0.168422
1620.0000 0.165501
1632.0000 0.163832
1634.0000 0.163531
1636.0000 0.16323
1638.0000 0.16293
1640.0000 0.16263
1640.2100 0.16263
1640.4100 0.16263
1640.6100 0.16263
1641.0000 0.16248
1641.7800 0.16233
1642.0000 0.16233
1642.4400 0.16233
1643.3200 0.162181
1644.0000 0.162032
1645.3600 0.161883
1646.0000 0.161883
1647.2800 0.161585
1648.0000 0.161585
1649.4400 0.161287
1650.0000 0.161287
1651.1200 0.161139
1653.3500 0.160842
1657.8200 0.160103
1666.7600 0.158928
1675.0000 0.157906
1691.4800 0.155597
1700.0000 0.154597
1717.0300 0.152335
1734.0600 0.150245
1750.0000 0.14832
1765.9400 0.146285
1781.8800 0.144411
1797.8100 0.142561
1800.0000 0.142298
1804.3800 0.141775
1813.1200 0.140864
1830.6200 0.138931
1848.1200 0.137025
1850.0000 0.136773
1853.7500 0.136395
1861.2500 0.135519
1876.2500 0.134029
1891.2500 0.132434
1900.0000 0.131583
1917.5000 0.129778
1935.0000 0.127997
1952.5000 0.126357
1970.0000 0.124624
1987.5000 0.123027
2000.0000 0.121899
2012.5000 0.120781
2025.0000 0.119674
2037.5000 0.118577
2050.0000 0.11749
2062.5000 0.116413
2075.0000 0.115345
2087.5000 0.114393
2100.0000 0.113344
2112.5000 0.112305
2125.0000 0.111276
2137.5000 0.110357
2150.0000 0.109345
2162.5000 0.108443
2175.0000 0.107448
2187.5000 0.106561
2200.0000 0.105584
2212.5000 0.104713
2225.0000 0.103848
2237.5000 0.102896
2250.0000 0.102047
2262.5000 0.101205
2275.0000 0.100369
2287.5000 0.0995405
2300.0000 0.0986279
2312.5000 0.0978138
2325.0000 0.0970063
2337.5000 0.0962055
2350.0000 0.0954993
2362.5000 0.0947109
2375.0000 0.0939291
2387.5000 0.0931537
2400.0000 0.0923847
2412.5000 0.091622
2425.0000 0.0909494
2437.5000 0.0901986
2450.0000 0.089454
2462.5000 0.0887973
2475.0000 0.0880643
2487.5000 0.0874178
2500.0000 0.0866962
2512.5000 0.0860597
2525.0000 0.0853493
2537.5000 0.0847227
2550.0000 0.0840234
2562.5000 0.0834065
2575.0000 0.0827942
2587.5000 0.0821107
2600.0000 0.081508
2612.5000 0.0809096
2625.0000 0.0803156
2637.5000 0.079726
2650.0000 0.0791407
2662.5000 0.0784874
2675.0000 0.0779112
2687.5000 0.0773393
2700.0000 0.0767715
2712.5000 0.0762079
2725.0000 0.0756484
2737.5000 0.0751623
2750.0000 0.0746105
2762.5000 0.0740628
2775.0000 0.0735191
2787.5000 0.0729794
2800.0000 0.0724436
2812.5000 0.071978
2825.0000 0.0714496
2837.5000 0.0709251
2850.0000 0.0704693
2862.5000 0.069952
2875.0000 0.0694384
2887.5000 0.0689922
2900.0000 0.0684857
2912.5000 0.0680456
2925.0000 0.0675461
2937.5000 0.067112
2950.0000 0.0666193
2962.5000 0.0661912
2975.0000 0.0657052
2987.5000 0.065283
3000.0000 0.0648634
3012.5000 0.0643873
3025.0000 0.0639735
3037.5000 0.0635624
3050.0000 0.0631539
3062.5000 0.0626902
3075.0000 0.0622874
3087.5000 0.0618871
3100.0000 0.0614894
3112.5000 0.0610942
3125.0000 0.0607016
3137.5000 0.060256
3150.0000 0.0598687
3162.5000 0.059484
3175.0000 0.0591017
3187.5000 0.0587219
3200.0000 0.0583445
3212.5000 0.0579696
3225.0000 0.0576501
3237.5000 0.0572796
3250.0000 0.0569115
3262.5000 0.0565458
3275.0000 0.0561824
3287.5000 0.0558213
3300.0000 0.0554626
3312.5000 0.0551569
3325.0000 0.0548025
3337.5000 0.0544503
3350.0000 0.0541003
3362.5000 0.0538022
3375.0000 0.0534564
3387.5000 0.0531129
3400.0000 0.0528202
3412.5000 0.0524807
3425.0000 0.0521915
3437.5000 0.0518561
3450.0000 0.0515703
3462.5000 0.0512389
3475.0000 0.0509096
3487.5000 0.0506291
3500.0000 0.0503501
3512.5000 0.0500265
3525.0000 0.0497508
3537.5000 0.0494311
3550.0000 0.0491587
3562.5000 0.0488427
3575.0000 0.0485736
3587.5000 0.0483059
3600.0000 0.0479954
3612.5000 0.0477309
3623.5600 0.0474679
3634.6200 0.0472498
3645.6800 0.0469894
3647.1200 0.0469462
3647.2200 0.0469462
3647.4700 0.0469029
3647.9700 0.0469029
3648.0000 0.0469029
3648.2500 0.0469029
3648.7500 0.0469029
3649.7500 0.0468598
3650.0000 0.0468598
3650.5000 0.0468598
3651.5000 0.0468598
3653.5000 0.0468166
3657.5000 0.0467305
3660.0000 0.0466874
3665.0000 0.0465586
3670.0000 0.0464729
3680.0000 0.0462594
3682.8100 0.0462168
3686.8300 0.0461318
3690.0000 0.0460469
3691.5500 0.0460469
3694.6600 0.0459621
3697.1500 0.0459198
3700.0000 0.0458775
3703.8500 0.0457931
3711.5600 0.0456247
3711.9700 0.0456247
3712.7900 0.0455827
3714.4400 0.0455827
3717.7400 0.0454988
3720.0000 0.0454569
3721.9400 0.0454151
3725.8100 0.0453315
3733.5700 0.0451648
3734.3700 0.0451648
3735.9700 0.0451232
3739.1800 0.0450402
3740.0000 0.0450402
3741.6400 0.0449987
3744.9200 0.0449573
3750.1500 0.0448332
3760.0000 0.0446272
3770.6300 0.0444222
3780.0000 0.0442588
3797.9000 0.0439339
3800.0000 0.0439339
3804.2000 0.0438531
3812.6100 0.0437724
3829.4300 0.0433711
3835.3800 0.0432116
3847.2900 0.0432116
3850.0000 0.0432116
3855.4100 0.0431718
3866.2300 0.0429339
3877.0500 0.0425011
3887.8800 0.0419566
3889.0500 0.0419179
3891.4000 0.0419179
3896.0900 0.0420727
3900.0000 0.0421891
3907.8200 0.0423448
3920.0000 0.0423838
3932.1800 0.0421502
3940.0000 0.0418023
3947.8200 0.0413048
3955.6400 0.0406256
3960.0000 0.0401421
3964.5400 0.0395913
3969.0700 0.0390481
3970.0700 0.0389404
3970.3200 0.0389404
3970.8200 0.0389762
3971.0700 0.0390122
3971.5700 0.0390841
3972.5600 0.0391562
3974.5600 0.0393731
3975.5400 0.0394821
3977.5100 0.0396643
3980.0000 0.0398841
3984.9900 0.0403274
3990.0000 0.0406631
4000.0000 0.041115
4010.0000 0.0413428
4020.0000 0.041419
4040.0000 0.0411529
4050.0000 0.0408131
4060.0000 0.0403274
4070.0000 0.0395549
4080.0000 0.0384769
4085.0000 0.0377398
4090.0000 0.0368808
4095.3700 0.0357767
4100.7400 0.0348017
4101.7300 0.034898
4101.7400 0.034898
4101.9900 0.0348658
4102.4900 0.0348017
4102.7400 0.0348017
4103.2400 0.0348017
4104.2400 0.034898
4106.2400 0.0352533
4106.3700 0.0352858
4106.6300 0.0353509
4107.1500 0.0354487
4108.1900 0.0356451
4110.0000 0.0359749
4113.6200 0.03661
4120.0000 0.0374973
4126.3800 0.0381593
4132.7500 0.0386545
4140.0000 0.0390122
4154.4900 0.0394094
4160.0000 0.0394821
4171.0200 0.0395185
4180.0000 0.0395185
4197.9700 0.0393369
4200.0000 0.0393369
4204.0600 0.0392645
4212.1900 0.0391562
4220.0000 0.0390481
4235.6200 0.0387614
4240.0000 0.0386901
4248.7500 0.0385123
4260.0000 0.0382296
4271.2500 0.037914
4280.0000 0.0376011
4297.5000 0.0366775
4300.0000 0.036509
4305.0000 0.0360745
4315.0000 0.0349945
4320.0000 0.034261
4325.0000 0.0334195
4330.0000 0.0323594
4334.7400 0.0311602
4339.4700 0.0296483
4339.9700 0.0293495
4340.4600 0.0290536
4340.4700 0.0290536
4340.7200 0.0291608
4341.2200 0.0295121
4341.4700 0.0296483
4341.9700 0.0298401
4342.9700 0.0301439
4344.9700 0.0307044
4345.7400 0.030903
4347.2800 0.031304
4350.0000 0.0319154
4355.4400 0.032961
4360.0000 0.0336667
4364.5600 0.0341979
4370.0000 0.0347376
4380.0000 0.0353509
4390.0000 0.0357108
4400.0000 0.0358757
4410.0000 0.0359418
4430.0000 0.0358757
4450.0000 0.0357108
4470.0000 0.0354813
4490.0000 0.0352533
4500.0000 0.0351237
4520.0000 0.0348658
4540.0000 0.034578
4550.0000 0.0344509
4570.0000 0.0341979
4590.0000 0.0339469
4600.0000 0.0337909
4620.0000 0.0335429
4640.0000 0.033266
4650.0000 0.0331436
4670.0000 0.03287
4690.0000 0.0325987
4700.0000 0.0324788
4720.0000 0.0322107
4740.0000 0.0319154
4750.0000 0.0317687
4770.0000 0.0314196
4790.0000 0.0309599
4800.0000 0.0306761
4820.0000 0.0298401
4825.0000 0.0295121
4835.0000 0.0286814
4840.0000 0.028132
4845.0000 0.027441
4850.0000 0.0266195
4852.5000 0.0261336
4855.0000 0.0255388
4855.1700 0.0254918
4855.5100 0.025398
4856.1900 0.0252116
4857.5500 0.024797
4860.2700 0.0239221
4860.3300 0.0239001
4860.5800 0.0238342
4861.0800 0.0237465
4861.3200 0.0237684
4861.3300 0.0237684
4861.5800 0.0237247
4862.0800 0.0238342
4862.3300 0.0239001
4862.8300 0.0240326
4863.8300 0.024322
4865.8300 0.0249574
4866.1700 0.0250496
4866.8500 0.0252348
4868.2100 0.0255859
4870.0000 0.0259657
4873.5800 0.026595
4877.1600 0.0270894
4884.3300 0.0278997
4885.0000 0.0279512
4886.3400 0.0280802
4889.0300 0.0282879
4894.4100 0.0286286
4900.0000 0.0288935
4911.1900 0.0292146
4922.3800 0.0293765
4933.5600 0.0294307
4944.7500 0.0294307
4955.9400 0.0293765
4967.1200 0.0293224
4978.3100 0.0292415
4989.5000 0.029134
5000.0000 0.0290536
5010.5000 0.0289468
5021.0000 0.0288669
5031.5000 0.0287607
5042.0000 0.028655
5052.5000 0.0285496
5063.0000 0.0284446
5073.5000 0.02834
5084.0000 0.0282358
5094.5000 0.028132
5100.0000 0.0280802
5111.0000 0.0279769
5122.0000 0.027874
5133.0000 0.0277715
5144.0000 0.0276694
5155.0000 0.0275677
5166.0000 0.027441
5177.0000 0.0273401
5188.0000 0.0272396
5199.0000 0.0271394
5200.0000 0.0271394
5202.0000 0.0271144
5206.0000 0.0270645
5214.0000 0.0269898
5230.0000 0.0268411
5246.0000 0.0266932
5262.0000 0.0265461
5278.0000 0.0263998
5294.0000 0.0262543
5300.0000 0.026206
5312.0000 0.0261096
5324.0000 0.0259896
5336.0000 0.0258941
5348.0000 0.0257751
5360.0000 0.0256803
5372.0000 0.0255859
5384.0000 0.0254683
5396.0000 0.0253746
5400.0000 0.0253279
5408.0000 0.0252581
5424.0000 0.025142
5440.0000 0.0250035
5456.0000 0.0248657
5472.0000 0.0247286
5488.0000 0.0245923
5500.0000 0.0245019
5512.0000 0.0244118
5524.0000 0.0242996
5536.0000 0.0242103
5548.0000 0.0241213
5560.0000 0.0240326
5572.0000 0.0239221
5584.0000 0.0238342
5596.0000 0.0237465
5600.0000 0.0237028
5608.0000 0.0236374
5624.0000 0.0235288
5640.0000 0.0233991
5656.0000 0.0232916
5672.0000 0.0231633
5688.0000 0.0230356
5700.0000 0.0229509
5712.0000 0.0228665
5724.0000 0.0227824
5736.0000 0.0226986
5748.0000 0.0226152
5760.0000 0.0225113
5772.0000 0.0224285
5784.0000 0.022346
5796.0000 0.0222638
5800.0000 0.0222433
5808.0000 0.022182
5824.0000 0.0220597
5840.0000 0.0219584
5856.0000 0.0218374
5872.0000 0.021737
5888.0000 0.0216172
5900.0000 0.0215377
5912.0000 0.0214585
5924.0000 0.0213796
5936.0000 0.021301
5948.0000 0.0212227
5960.0000 0.0211446
5972.0000 0.0210669
5984.0000 0.0209894
5996.0000 0.0209122
6000.0000 0.020893
6008.0000 0.0208353
6024.0000 0.0207396
6040.0000 0.0206443
6056.0000 0.0205305
6072.0000 0.0204362
6088.0000 0.0203423
6104.0000 0.0202302
6120.0000 0.0201372
6136.0000 0.0200447
6152.0000 0.0199526
6168.0000 0.0198609
6184.0000 0.0197515
6200.0000 0.0196607
6216.0000 0.0195704
6232.0000 0.0194805
6248.0000 0.019391
6264.0000 0.0192841
6280.0000 0.0191955
6296.0000 0.0191073
6312.0000 0.0190195
6328.0000 0.0189322
6344.0000 0.0188278
6360.0000 0.0187413
6376.0000 0.0186552
6392.0000 0.0185524
6400.0000 0.0185183
6416.0000 0.0184162
6432.0000 0.0183147
6448.0000 0.0182138
6450.0000 0.018197
6454.0000 0.0181803
6462.0000 0.0181134
6478.0000 0.017997
6494.0000 0.017832
6500.0000 0.0177664
6512.0000 0.0175873
6524.0000 0.0173141
6525.0000 0.0172982
6527.0000 0.0172346
6531.0000 0.017108
6539.0000 0.0167958
6544.5000 0.0165044
6550.0000 0.0161139
6553.1500 0.0158343
6556.3100 0.0154739
6557.8900 0.0152616
6559.4600 0.0150245
6560.2500 0.0149142
6561.0400 0.014832
6561.4400 0.0147775
6561.8300 0.014642
6562.2300 0.0143087
6562.6200 0.0138548
6562.8000 0.0137911
6562.8200 0.0137911
6563.0200 0.0138931
6563.2700 0.0141775
6563.5200 0.0144677
6563.7700 0.014642
6564.0200 0.0147367
6564.5200 0.0148184
6565.0200 0.014873
6566.0200 0.014983
6566.5100 0.0150522
6567.4900 0.0151915
6569.4500 0.0154454
6570.0000 0.0155167
6571.1000 0.0156315
6573.3100 0.0158343
6577.7300 0.0161585
6582.1400 0.0163983
6585.0000 0.0165196
6590.7200 0.0167186
6600.0000 0.0169356
6609.2800 0.0170608
6618.5600 0.0171396
6637.1100 0.0171712
6655.6600 0.0171554
6674.2200 0.0170923
6692.7700 0.0170294
6700.0000 0.0169981
6714.4500 0.0169356
6728.9100 0.0168733
6743.3600 0.0168112
6757.8100 0.0167494
6772.2700 0.0166878
6786.7200 0.0166265
6800.0000 0.0165653
6813.2800 0.0165044
6826.5600 0.0164589
6839.8400 0.0163983
6853.1200 0.016338
6866.4100 0.016278
6879.6900 0.0162181
6892.9700 0.0161585
6900.0000 0.0161287
6914.0600 0.0160694
6928.1200 0.0160103
6942.1900 0.0159514
6956.2500 0.0158928
6970.3100 0.0158343
6984.3800 0.0157761
6998.4400 0.0157181
7000.0000 0.0157036
7003.1200 0.0157036
7009.3800 0.0156747
7021.8800 0.0156171
7034.3800 0.015574
7046.8800 0.0155167
7059.3800 0.0154597
7071.8800 0.015417
7084.3800 0.0153603
7096.8800 0.0153179
7109.3800 0.0152616
7121.8800 0.0152195
7134.3800 0.0151635
7146.8800 0.0151217
7159.3800 0.0150661
7171.8800 0.0150245
7184.3800 0.0149692
7196.8800 0.0149142
7209.3800 0.014873
7221.8800 0.0148184
7234.3800 0.0147775
7246.8800 0.0147231
7259.3800 0.0146825
7271.8800 0.014642
7284.3800 0.0145881
7296.8800 0.0145479
7309.3800 0.0144944
7321.8800 0.0144544
7334.3800 0.0144012
7346.8800 0.0143615
7359.3800 0.0143087
7371.8800 0.0142692
7384.3800 0.0142167
7396.8800 0.0141775
7409.3800 0.0141384
7421.8800 0.0140864
7434.3800 0.0140475
7446.8800 0.0139959
7459.3800 0.0139573
7471.8800 0.0139187
7484.3800 0.0138676
7496.8800 0.0138293
7500.0000 0.0138166
7506.2500 0.0137911
7518.7500 0.0137531
7531.2500 0.0137151
7543.7500 0.0136647
7556.2500 0.013627
7568.7500 0.0135769
7581.2500 0.0135394
7593.7500 0.0135021
7606.2500 0.0134524
7618.7500 0.0134153
7631.2500 0.0133783
7643.7500 0.0133291
7656.2500 0.0132923
7668.7500 0.0132556
7681.2500 0.013219
7693.7500 0.0131704
7706.2500 0.0131341
7718.7500 0.0130978
7731.2500 0.0130497
7743.7500 0.0130137
7756.2500 0.0129778
7768.7500 0.012942
7781.2500 0.0128944
7793.7500 0.0128588
7806.2500 0.0128233
7818.7500 0.0127879
7831.2500 0.0127409
7843.7500 0.0127057
7856.2500 0.0126707
7868.7500 0.0126357
7881.2500 0.0125893
7893.7500 0.0125545
7906.2500 0.0125199
7918.7500 0.0124853
7931.2500 0.0124394
7943.7500 0.0124051
7956.2500 0.0123709
7968.7500 0.0123367
7981.2500 0.0123027
7993.7500 0.0122574
8000.0000 0.0122462
8012.5000 0.0122124
8025.0000 0.0121787
8037.5000 0.0121339
8050.0000 0.0121004
8062.5000 0.012067
8075.0000 0.0120337
8087.5000 0.0120005
8100.0000 0.0119674
8112.5000 0.0119234
8125.0000 0.0118905
8137.5000 0.0118577
8150.0000 0.011825
8162.5000 0.0117923
8175.0000 0.0117598
8187.5000 0.0117274
8200.0000 0.011695
8206.0600 0.0116735
8206.1600 0.0116735
8206.4100 0.0116735
8206.5000 0.0116735
8206.7500 0.0116735
8207.2500 0.0116735
8208.2500 0.0116627
8210.2500 0.0116627
8214.2500 0.011652
8222.2500 0.0116305
8238.2500 0.0115878
8254.2500 0.0115452
8270.2500 0.0115027
8286.2500 0.0114604
8302.2500 0.0114183
8318.2500 0.0113868
8334.2500 0.0113449
8350.2500 0.0113032
8366.2500 0.0112616
8382.2500 0.0112202
8392.4000 0.0111995
8402.5400 0.0111686
8412.6900 0.0111481
8413.3200 0.0111481
8414.5900 0.0111378
8417.1300 0.0111378
8422.2000 0.0111173
8432.3400 0.0110969
8437.9600 0.0110866
8449.2000 0.0110561
8460.4400 0.0110255
8467.2600 0.0110154
8480.9000 0.0109749
8494.5400 0.0109446
8500.0000 0.0109345
8502.4900 0.0109245
8507.4600 0.0109144
8517.4000 0.0108943
8537.2900 0.0108443
8545.3900 0.0108243
8561.5700 0.0107845
8577.7600 0.0107448
8593.9400 0.0107053
8598.3900 0.0106955
8607.2900 0.0106758
8625.0900 0.0106365
8642.8900 0.0105974
8660.6800 0.0105584
8665.0200 0.0105487
8673.6900 0.0105293
8691.0400 0.0104906
8708.3900 0.010452
8725.7400 0.0104136
8743.0800 0.0103657
8750.4700 0.0103562
8765.2500 0.0103181
8780.0300 0.0102896
8794.8100 0.0102518
8809.5900 0.0102235
8824.3700 0.0101953
8839.1500 0.0101578
8853.9300 0.0101298
8862.7900 0.0101111
8880.5000 0.010074
8898.2200 0.0100369
8915.9400 0.01
8933.6500 0.00996323
8951.3700 0.00992659
8969.0900 0.00989008
8986.8000 0.00985372
9004.5200 0.00980844
9014.9100 0.00979039
9025.3100 0.00977237
9035.7000 0.00975439
9046.0900 0.00972747
9056.4800 0.00970957
9066.8800 0.0096917
9077.2700 0.00967386
9087.6600 0.00965606
9098.0500 0.00962942
9108.4500 0.0096117
9118.8400 0.00959401
9129.2300 0.00956753
9139.6200 0.00954993
9150.0200 0.00952357
9160.4100 0.00950605
9170.8000 0.00947982
9181.2000 0.00946237
9191.5900 0.00943626
9201.9800 0.0094189
9212.3700 0.00939291
9222.7700 0.00936699
9229.0200 0.00935837
9241.5200 0.00934114
9250.0000 0.00932395
9266.9700 0.00929822
9283.9400 0.00927257
9300.9100 0.00923847
9317.8800 0.00921298
9334.8400 0.00918756
9351.8100 0.00915377
9368.7800 0.00912851
9385.7500 0.00909494
9402.7200 0.0090615
9419.6900 0.00902818
9436.6600 0.00898669
9453.6200 0.00895365
9470.5900 0.00891251
9487.5600 0.00887156
9504.5300 0.0088308
9521.5000 0.00879023
9538.4700 0.00874984
9545.9700 0.00872569
9560.9800 0.00871766
9575.9800 0.00870162
9590.9900 0.00869361
9606.0000 0.00867761
9621.0000 0.00866164
9636.0100 0.0086457
9651.0100 0.00862979
9666.0200 0.00860597
9681.0200 0.00859014
9696.0300 0.00856643
9711.0400 0.0085428
9726.0400 0.00851922
9741.0500 0.00849572
9756.0500 0.00847227
9771.0600 0.0084489
9786.0700 0.00842558
9801.0700 0.00840234
9816.0800 0.00837915
9831.0800 0.00834834
9846.0900 0.0083253
9861.0900 0.00829469
9876.1000 0.0082718
9891.1100 0.00824138
9906.1100 0.00821107
9921.1200 0.00817335
9936.1200 0.00814329
9951.1300 0.00810588
9966.1400 0.00806863
9981.1400 0.00802417
9996.1500 0.00797995
10000.0000 0.00796526
10007.7100 0.00793597
10023.1200 0.00788497
10038.5300 0.0078343
10049.3700 0.00781988
10060.2200 0.00780549
10071.0600 0.00780549
10081.9100 0.00781268
10092.7500 0.00781988
10103.6000 0.00782708
10114.4500 0.00782708
10125.2900 0.00782708
10136.1400 0.00781988
10146.9800 0.00781988
10157.8300 0.00781268
10168.6700 0.00780549
10179.5200 0.0077983
10190.3700 0.00778395
10201.2100 0.00777678
10212.0600 0.00776247
10222.9000 0.00775532
10233.7500 0.00774105
10244.5900 0.00772681
10255.4400 0.00771259
10266.2900 0.00770549
10277.1300 0.0076913
10287.9800 0.00767715
10298.8200 0.00766302
10309.6700 0.00764892
10320.5100 0.00763484
10331.3600 0.00762079
10342.2100 0.00760677
10353.0500 0.00759277
10363.9000 0.00757879
10374.7400 0.00756484
10385.5900 0.00755092
10396.4300 0.00753009
10407.2800 0.00751623
10418.1300 0.0075024
10428.9700 0.00748859
10439.8200 0.00747481
10450.6600 0.00746105
10461.5100 0.00744732
10472.3500 0.00743361
10483.2000 0.0074131
10494.0400 0.00739946
10504.8900 0.00738584
10515.7400 0.00737225
10526.5800 0.00735868
10537.4300 0.00734514
10548.2700 0.00732487
10559.1200 0.00731139
10569.9600 0.00729794
10580.8100 0.0072845
10591.6600 0.0072711
10602.5000 0.00725103
10613.3500 0.00723769
10624.1900 0.00722437
10635.0400 0.00721107
10645.8800 0.00719118
10656.7300 0.00717794
10667.5800 0.00716473
10678.4200 0.00714496
10689.2700 0.00713181
10700.1100 0.00711869
10710.9600 0.00709905
10721.8000 0.00708598
10732.6500 0.00706643
10743.5000 0.00704693
10754.3400 0.00703396
10765.1900 0.00701455
10776.0300 0.0069952
10786.8800 0.0069759
10797.7200 0.00695665
10808.5700 0.00693107
10819.4200 0.00691194
10830.2600 0.00688652
10841.1100 0.00685488
10851.9500 0.00682967
10862.8000 0.00679204
10873.6400 0.00676083
10884.4900 0.00671738
10895.3400 0.00667421
10906.1800 0.00662522
10917.0300 0.00657052
10927.8700 0.00651628
10938.0900 0.00640914
10943.2000 0.00646249
10948.3100 0.00649232
10958.5300 0.00652229
10968.7500 0.00655239
10978.9700 0.00657658
10989.1900 0.00659478
10999.4100 0.00660693
11009.6300 0.00661912
11019.8500 0.00662522
11030.0700 0.00663132
11040.2900 0.00663132
11050.5100 0.00663132
11060.7300 0.00663132
11070.9500 0.00663132
11081.1700 0.00662522
11091.3900 0.00661912
11101.6100 0.00661302
11111.8300 0.00660693
11122.0500 0.00660085
11132.2700 0.0065887
11142.4900 0.00658264
11152.7100 0.00657052
11162.9300 0.00656448
11173.1500 0.00655239
11183.3700 0.00654636
11193.5900 0.00653431
11203.8100 0.00652229
11214.0300 0.00651628
11224.2500 0.00650429
11234.4600 0.00649232
11244.6800 0.00648634
11254.9000 0.00647441
11265.1200 0.00646249
11275.3400 0.0064506
11285.5600 0.00643873
11295.7800 0.0064328
11306.0000 0.00642096
11316.2200 0.00640914
11326.4400 0.00639735
11336.6600 0.00638557
11346.8800 0.0063797
11357.1000 0.00636796
11367.3200 0.00635624
11377.5400 0.00634454
11387.7600 0.00633286
11397.9800 0.00632121
11408.2000 0.00631539
11418.4200 0.00630376
11428.6400 0.00629216
11438.8600 0.00628058
11449.0800 0.00626902
11459.3000 0.00625749
11469.5200 0.00625173
11479.7400 0.00624022
11489.9600 0.00622874
11500.1800 0.00621727
11510.4000 0.00620583
11520.6200 0.00619441
11530.8400 0.00618871
11541.0600 0.00617732
11551.2800 0.00616595
11561.5000 0.0061546
11571.7200 0.00614328
11581.9400 0.00613197
11592.1600 0.00612632
11602.3800 0.00611505
11612.5900 0.0061038
11622.8100 0.00609256
11633.0300 0.00608135
11643.2500 0.00607016
11653.4700 0.00606457
11663.6900 0.00605341
11673.9100 0.00604227
11684.1300 0.00603115
11694.3500 0.00602005
11704.5700 0.00600897
11714.7900 0.00600344
11725.0100 0.00599239
11735.2300 0.00598136
11745.4500 0.00597035
11755.6700 0.00596486
11765.8900 0.00595388
11776.1100 0.00594292
11786.3300 0.00593198
11796.5500 0.00592107
11806.7700 0.00591017
11816.9900 0.00590473
11827.2100 0.00589386
11837.4300 0.00588302
11847.6500 0.00587219
11857.8700 0.00586138
11868.0900 0.00585599
11878.3100 0.00584521
11888.5300 0.00583445
11898.7500 0.00582371
11908.9700 0.005813
11919.1900 0.00580764
11929.4100 0.00579696
11939.6300 0.00578629
11949.8500 0.00577564
11960.0700 0.00577032
11970.2900 0.0057597
11980.5000 0.0057491
11990.7200 0.00573852
12000.0000 0.00573324
12018.5500 0.00571216
12037.1000 0.00569639
12055.6500 0.00568068
12074.2000 0.00565979
12092.7500 0.00564417
12111.3000 0.00562859
12129.8600 0.00561306
12148.4100 0.00559242
12166.9600 0.00557699
12185.5100 0.0055616
12204.0600 0.00554626
12222.6100 0.00553095
12241.1600 0.00551061
12259.7100 0.00549541
12278.2600 0.00548025
12296.8100 0.00546512
12315.3600 0.00545004
12333.9100 0.00543
12352.4600 0.00541502
12371.0200 0.00540008
12389.5700 0.00538518
12408.1200 0.00536537
12426.6700 0.00535057
12445.2200 0.00533581
12463.7700 0.00532108
12482.3200 0.00530152
12500.8700 0.00528689
12519.4200 0.0052723
12537.9700 0.00525291
12556.5200 0.00523842
12575.0700 0.00521915
12593.6300 0.00519996
12612.1800 0.00518084
12630.7300 0.00516179
12649.2800 0.0051428
12667.8300 0.00511918
12686.3800 0.00509096
12704.9300 0.00506291
12723.4800 0.00502574
12742.0300 0.00497966
12760.5800 0.00492493
12779.1300 0.00484842
12797.6800 0.00474679
12816.2300 0.00468598
12818.0800 0.00471628
12819.0000 0.00469894
12819.9200 0.00468166
12821.7600 0.00466874
12825.4400 0.00467305
12829.1200 0.00468166
12836.4800 0.00471194
12851.2100 0.00477309
12865.9400 0.0048217
12880.6600 0.00485289
12895.3900 0.0048708
12910.1200 0.00488427
12924.8400 0.00489328
12939.5700 0.00489779
12954.3000 0.00489779
12969.0200 0.00489328
12983.7500 0.00488877
12998.4800 0.00488427
13013.2000 0.00487978
13027.9300 0.0048708
13042.6600 0.00486183
13057.3800 0.00485289
13072.1100 0.00484842
13086.8300 0.00483949
13101.5600 0.00482614
13116.2900 0.00481726
13131.0100 0.00480839
13145.7400 0.00479954
13160.4700 0.00479071
13175.1900 0.00478189
13189.9200 0.0047687
13204.6500 0.00475992
13219.3700 0.00475116
13234.1000 0.00474242
13248.8300 0.00472933
13263.5500 0.00472063
13278.2800 0.00471194
13293.0100 0.00470327
13307.7300 0.00469029
13322.4600 0.00468166
13337.1900 0.00467305
13351.9100 0.00466445
13366.6400 0.00465157
13381.3700 0.00464301
13396.0900 0.00463447
13410.8200 0.00462168
13425.5500 0.00461318
13440.2700 0.00460469
13455.0000 0.00459621
13469.7300 0.00458353
13484.4500 0.00457509
13499.1800 0.00456667
13513.9100 0.00455407
13528.6300 0.00454569
13543.3600 0.00453733
13558.0800 0.00452898
13572.8100 0.00451648
13587.5400 0.00450817
13602.2600 0.00449987
13616.9900 0.00449159
13631.7200 0.0044792
13646.4400 0.00447095
13661.1700 0.00446272
13675.9000 0.00445451
13690.6200 0.00444222
13705.3500 0.00443404
13720.0800 0.00442588
13734.8000 0.00441774
13749.5300 0.00440555
13764.2600 0.00439744
13778.9800 0.00438935
13793.7100 0.00438127
13808.4400 0.00436918
13823.1600 0.00436114
13837.8900 0.00435311
13852.6200 0.0043451
13867.3400 0.00433311
13882.0700 0.00432514
13896.8000 0.00431718
13911.5200 0.00430923
13926.2500 0.0043013
13940.9800 0.00428943
13955.7000 0.00428154
13970.4300 0.00427366
13985.1600 0.0042658
13999.8800 0.00425402
14000.0000 0.00425402
14000.2500 0.00425402
14000.7500 0.00425402
14001.7500 0.00425402
14003.7500 0.00425402
14007.7500 0.00425011
14015.7500 0.0042462
14031.7500 0.00423838
14047.7500 0.00422669
14063.7500 0.00421891
14079.7500 0.00421114
14095.7500 0.00419952
14111.7500 0.00419179
14127.7500 0.00418408
14143.7500 0.00417254
14159.7500 0.00416486
14175.7500 0.00415719
14191.7500 0.00414572
14207.7500 0.00413809
14223.7500 0.00413048
14239.7500 0.00411908
14255.7500 0.0041115
14271.7500 0.00410393
14287.7500 0.00409261
14303.7500 0.00408507
14319.7500 0.00407756
14335.7500 0.00406631
14351.7500 0.00405882
14367.7500 0.00405135
14383.7500 0.00404017
14399.7500 0.00403274
14415.7500 0.00402532
14431.7500 0.00401421
14447.7500 0.00400682
14463.7500 0.00399945
14479.7500 0.00399209
14495.7500 0.00398107
14511.7500 0.00397375
14527.7500 0.00396643
14543.7500 0.00395549
14559.7500 0.00394821
14575.7500 0.00394094
14591.7500 0.00393369
14607.7500 0.00392283
14623.7500 0.00391562
14639.7500 0.00390841
14655.7500 0.00389762
14671.7500 0.00389045
14687.7500 0.00388329
14703.7500 0.00387614
14719.7500 0.00386545
14735.7500 0.00385834
14751.7500 0.00385123
14767.7500 0.00384415
14783.7500 0.00383354
14799.7500 0.00382648
14815.7500 0.00381944
14831.7500 0.00381241
14847.7500 0.00380189
14863.7500 0.0037949
14879.7500 0.00378791
14895.7500 0.00378094
14911.7500 0.00377051
14927.7500 0.00376357
14943.7500 0.00375664
14959.7500 0.00374973
14975.7500 0.00374283
14991.7500 0.0037325
15007.7500 0.00372563
15023.7500 0.00371878
15039.7500 0.00371193
15055.7500 0.00370169
15071.7500 0.00369488
15087.7500 0.00368808
15103.7500 0.00368129
15119.7500 0.00367451
15135.7500 0.00366438
15151.7500 0.00365763
15167.7500 0.0036509
15183.7500 0.00364418
15199.7500 0.00363747
15215.7500 0.00362744
15231.7500 0.00362076
15247.7500 0.0036141
15263.7500 0.00360745
15279.7500 0.00360081
15295.7500 0.00359418
15311.7500 0.00358426
15327.7500 0.00357767
15343.7500 0.00357108
15359.7500 0.00356451
15375.7500 0.00355795
15391.7500 0.00354813
15407.7500 0.0035416
15423.7500 0.00353509
15439.7500 0.00352858
15455.7500 0.00352209
15471.7500 0.0035156
15487.7500 0.00350913
15503.7500 0.00349945
15519.7500 0.00349301
15535.7500 0.00348658
15551.7500 0.00348017
15567.7500 0.00347376
15583.7500 0.00346737
15599.7500 0.0034578
15615.7500 0.00345144
15631.7500 0.00344509
15647.7500 0.00343875
15663.7500 0.00343242
15679.7500 0.0034261
15695.7500 0.00341979
15711.7500 0.0034135
15727.7500 0.00340408
15743.7500 0.00339782
15759.7500 0.00339156
15775.7500 0.00338532
15791.7500 0.00337909
15807.7500 0.00337287
15823.7500 0.00336667
15839.7500 0.00336047
15855.7500 0.00335429
15871.7500 0.00334503
15887.7500 0.00333887
15903.7500 0.00333273
15919.7500 0.0033266
15935.7500 0.00332047
15951.7500 0.00331436
15967.7500 0.00330826
15983.7500 0.00330217
15999.7500 0.0032961
16000.0000 0.0032961
16000.5000 0.0032961
16001.5000 0.00329306
16003.5000 0.00329306
16007.5000 0.00329306
16015.5000 0.00329003
16031.5000 0.00328095
16047.5000 0.00327491
16063.5000 0.00326889
16079.5000 0.00326287
16095.5000 0.00325687
16111.5000 0.00325087
16127.5000 0.00324489
16143.5000 0.00323892
16159.5000 0.00323296
16175.5000 0.00322701
16191.5000 0.0032181
16207.5000 0.00321218
16223.5000 0.00320627
16239.5000 0.00320037
16255.5000 0.00319448
16271.5000 0.0031886
16287.5000 0.00318273
16303.5000 0.00317687
16319.5000 0.00317103
16335.5000 0.00316519
16351.5000 0.00315937
16367.5000 0.00315355
16383.5000 0.00314775
16399.5000 0.00313906
16415.5000 0.00313329
16431.5000 0.00312752
16447.5000 0.00312176
16463.5000 0.00311602
16479.5000 0.00311028
16495.5000 0.00310456
16511.5000 0.00309885
16527.5000 0.00309314
16543.5000 0.00308745
16559.5000 0.00308177
16575.5000 0.0030761
16591.5000 0.00307044
16607.5000 0.00306478
16623.5000 0.00305914
16639.5000 0.00305351
16655.5000 0.00304789
16671.5000 0.00304229
16687.5000 0.00303669
16703.5000 0.0030311
16719.5000 0.00302552
16735.5000 0.00301995
16751.5000 0.00301439
16767.5000 0.00300608
16783.5000 0.00300054
16799.5000 0.00299502
16815.5000 0.00298951
16831.5000 0.00298401
16847.5000 0.00297852
16863.5000 0.00297303
16879.5000 0.00296756
16895.5000 0.0029621
16911.5000 0.00295665
16927.5000 0.00295121
16943.5000 0.00294578
16959.5000 0.00294036
16975.5000 0.00293495
16991.5000 0.00292954
17007.5000 0.00292415
17023.5000 0.00291877
17039.5000 0.0029134
17055.5000 0.00290804
17071.5000 0.00290269
17087.5000 0.00289734
17103.5000 0.00289201
17119.5000 0.00288669
17135.5000 0.00288138
17151.5000 0.00287872
17167.5000 0.00287343
17183.5000 0.00286814
17199.5000 0.00286286
17215.5000 0.00285759
17231.5000 0.00285233
17247.5000 0.00284708
17263.5000 0.00284184
17279.5000 0.00283661
17295.5000 0.00283139
17311.5000 0.00282618
17327.5000 0.00282098
17343.5000 0.00281579
17359.5000 0.00281061
17375.5000 0.00280543
17391.5000 0.00280027
17407.5000 0.00279512
17423.5000 0.00278997
17439.5000 0.00278484
17455.5000 0.00277971
17471.5000 0.0027746
17487.5000 0.00276949
17503.5000 0.00276439
17519.5000 0.00276185
17535.5000 0.00275677
17551.5000 0.00275169
17567.5000 0.00274663
17583.5000 0.00274157
17599.5000 0.00273653
17615.5000 0.00273149
17631.5000 0.00272647
17647.5000 0.00272145
17663.5000 0.00271644
17679.5000 0.00271144
17695.5000 0.00270645
17711.5000 0.00270147
17727.5000 0.0026965
17743.5000 0.00269401
17759.5000 0.00268906
17775.5000 0.00268411
17791.5000 0.00267917
17807.5000 0.00267424
17823.5000 0.00266932
17839.5000 0.0026644
17855.5000 0.0026595
17871.5000 0.00265461
17887.5000 0.00264972
17903.5000 0.00264728
17919.5000 0.00264241
17935.5000 0.00263755
17951.5000 0.00263269
17967.5000 0.00262785
17983.5000 0.00262301
17999.5000 0.00261818
18000.0000 0.00261818
18001.0000 0.00261818
18003.0000 0.00261577
18007.0000 0.00261577
18015.0000 0.00261336
18031.0000 0.00260856
18047.0000 0.00260375
18063.0000 0.00259896
18079.0000 0.00259418
18095.0000 0.00259179
18111.0000 0.00258702
18127.0000 0.00258226
18143.0000 0.00257751
18159.0000 0.00257276
18175.0000 0.00256803
18191.0000 0.0025633
18207.0000 0.00255859
18223.0000 0.00255388
18239.0000 0.00254918
18255.0000 0.00254683
18271.0000 0.00254214
18287.0000 0.00253746
18303.0000 0.00253279
18319.0000 0.00252813
18335.0000 0.00252348
18351.0000 0.00251884
18367.0000 0.0025142
18383.0000 0.00250957
18399.0000 0.00250496
18415.0000 0.00250035
18431.0000 0.00249574
18447.0000 0.00249115
18463.0000 0.00248657
18479.0000 0.00248199
18495.0000 0.00247742
18511.0000 0.00247059
18527.0000 0.00246604
18543.0000 0.0024615
18559.0000 0.00245471
18575.0000 0.00244794
18591.0000 0.00244118
18607.0000 0.00243445
18623.0000 0.00242549
18639.0000 0.00241435
18655.0000 0.00240326
18671.0000 0.00238781
18687.0000 0.0023681
18703.0000 0.00234423
18719.0000 0.00231633
18735.0000 0.00228665
18739.0000 0.00228034
18743.0000 0.00226986
18745.0000 0.00226152
18747.0000 0.00224078
18749.0000 0.00219989
18751.0000 0.00213796
18751.1200 0.00213796
18751.3700 0.00213993
18751.8700 0.00214981
18752.8700 0.00218575
18753.8700 0.00221615
18754.8700 0.0022346
18755.8700 0.00224698
18757.8700 0.00226152
18761.8700 0.00227405
18765.8700 0.00227824
18773.8700 0.00228876
18789.8700 0.00230994
18805.8700 0.00232916
18821.8700 0.00234423
18837.8700 0.00235288
18853.8700 0.00235722
18869.8700 0.00236157
18885.8700 0.00236157
18901.8700 0.00236157
18917.8700 0.00236157
18933.8700 0.00235939
18949.8700 0.00235722
18965.8700 0.00235505
18981.8700 0.00235288
18997.8700 0.00235072
19013.8700 0.00234639
19029.8700 0.00234423
19045.8700 0.00233991
19061.8700 0.00233776
19077.8700 0.00233346
19093.8700 0.00232916
19109.8700 0.00232702
19125.8700 0.00232274
19141.8700 0.00231846
19157.8700 0.00231633
19173.8700 0.00231206
19189.8700 0.00230781
19205.8700 0.00230569
19221.8700 0.00230144
19237.8700 0.00229721
19253.8700 0.00229298
19269.8700 0.00229087
19285.8700 0.00228665
19301.8700 0.00228244
19317.8700 0.00228034
19333.8700 0.00227615
19349.8700 0.00227196
19365.8700 0.00226778
19381.8700 0.00226569
19397.8700 0.00226152
19413.8700 0.00225736
19429.8700 0.0022532
19445.8700 0.00225113
19461.8700 0.00224698
19477.8700 0.00224285
19493.8700 0.00223872
19509.8700 0.00223666
19525.8700 0.00223254
19541.8700 0.00222844
19557.8700 0.00222638
19573.8700 0.00222229
19589.8700 0.0022182
19605.8700 0.00221411
19621.8700 0.00221208
19637.8700 0.002208
19653.8700 0.00220394
19669.8700 0.00220191
19685.8700 0.00219786
19701.8700 0.00219381
19717.8700 0.00218978
19733.8700 0.00218776
19749.8700 0.00218374
19765.8700 0.00217972
19781.8700 0.0021757
19797.8700 0.0021737
19813.8700 0.0021697
19829.8700 0.00216571
19845.8700 0.00216371
19861.8700 0.00215973
19877.8700 0.00215576
19893.8700 0.00215179
19909.8700 0.00214981
19925.8700 0.00214585
19941.8700 0.0021419
19957.8700 0.00213993
19973.8700 0.00213599
19989.8700 0.00213206
20000.0000 0.0021301
20010.1300 0.00212814
20020.2500 0.00212618
20030.3800 0.00212422
20040.5100 0.00212227
20050.6300 0.00212031
20060.7600 0.00211836
20070.8900 0.00211641
20081.0200 0.00211446
20091.1400 0.00211057
20101.2700 0.00210863
20111.4000 0.00210669
20121.5200 0.00210475
20131.6500 0.00210281
20141.7800 0.00210087
20151.9000 0.00209894
20162.0300 0.00209701
20172.1600 0.00209508
20182.2900 0.00209315
20192.4100 0.00209122
20202.5400 0.0020893
20212.6700 0.00208737
20222.7900 0.00208545
20232.9200 0.00208353
20243.0500 0.0020797
20253.1700 0.00207778
20263.3000 0.00207587
20273.4300 0.00207396
20283.5500 0.00207205
20293.6800 0.00207014
20303.8100 0.00206824
20313.9400 0.00206633
20324.0600 0.00206443
20334.1900 0.00206253
20344.3200 0.00206063
20354.4400 0.00205873
20364.5700 0.00205684
20374.7000 0.00205494
20384.8200 0.00205305
20394.9500 0.00205116
20405.0800 0.00204927
20415.2100 0.0020455
20425.3300 0.00204362
20435.4600 0.00204174
20445.5900 0.00203986
20455.7100 0.00203798
20465.8400 0.0020361
20475.9700 0.00203423
20486.0900 0.00203236
20496.2200 0.00203049
20506.3500 0.00202862
20516.4700 0.00202675
20526.6000 0.00202488
20536.7300 0.00202302
20546.8600 0.00202116
20556.9800 0.0020193
20567.1100 0.00201744
20577.2400 0.00201558
20587.3600 0.00201372
20597.4900 0.00201187
20607.6200 0.00201002
20617.7400 0.00200632
20627.8700 0.00200447
20638.0000 0.00200263
20648.1300 0.00200078
20658.2500 0.00199894
20668.3800 0.0019971
20678.5100 0.00199526
20688.6300 0.00199343
20698.7600 0.00199159
20708.8900 0.00198976
20719.0100 0.00198793
20729.1400 0.00198609
20739.2700 0.00198427
20749.3900 0.00198244
20759.5200 0.00198061
20769.6500 0.00197879
20779.7800 0.00197697
20789.9000 0.00197515
20800.0300 0.00197333
20810.1600 0.00197151
20820.2800 0.0019697
20830.4100 0.00196789
20840.5400 0.00196607
20850.6600 0.00196426
20860.7900 0.00196246
20870.9200 0.00195884
20881.0400 0.00195704
20891.1700 0.00195524
20901.3000 0.00195344
20911.4300 0.00195164
20921.5500 0.00194984
20931.6800 0.00194805
20941.8100 0.00194626
20951.9300 0.00194446
20962.0600 0.00194267
20972.1900 0.00194089
20982.3100 0.0019391
20992.4400 0.00193731
21002.5700 0.00193553
21012.7000 0.00193375
21022.8200 0.00193197
21032.9500 0.00193019
21043.0800 0.00192841
21053.2000 0.00192664
21063.3300 0.00192486
21073.4600 0.00192309
21083.5800 0.00192132
21093.7100 0.00191955
21103.8400 0.00191779
21113.9600 0.00191602
21124.0900 0.00191426
21134.2200 0.00191249
21144.3500 0.00191073
21154.4700 0.00190897
21164.6000 0.00190722
21174.7300 0.00190546
21184.8500 0.00190371
21194.9800 0.00190195
21205.1100 0.0019002
21215.2300 0.00189845
21225.3600 0.00189671
21235.4900 0.00189496
21245.6200 0.00189322
21255.7400 0.00189147
21265.8700 0.00188973
21276.0000 0.00188799
21286.1200 0.00188625
21296.2500 0.00188452
21306.3800 0.00188278
21316.5000 0.00188105
21326.6300 0.00187932
21336.7600 0.00187759
21346.8800 0.00187586
21357.0100 0.00187241
21367.1400 0.00187068
21377.2700 0.00186896
21387.3900 0.00186724
21397.5200 0.00186552
21407.6500 0.0018638
21417.7700 0.00186209
21427.9000 0.00186037
21438.0300 0.00185866
21448.1500 0.00185695
21458.2800 0.00185524
21468.4100 0.00185353
21478.5400 0.00185183
21488.6600 0.00185012
21498.7900 0.00184842
21508.9200 0.00184672
21519.0400 0.00184502
21529.1700 0.00184332
21539.3000 0.00184162
21549.4200 0.00183992
21559.5500 0.00183823
21569.6800 0.00183654
21579.8000 0.00183485
21589.9300 0.00183316
21600.0600 0.00183147
21610.1900 0.00182978
21620.3100 0.0018281
21630.4400 0.00182642
21640.5700 0.00182474
21650.6900 0.00182306
21660.8200 0.00182138
21670.9500 0.0018197
21681.0700 0.00181803
21691.2000 0.00181635
21701.3300 0.00181468
21711.4600 0.00181301
21721.5800 0.00181134
21731.7100 0.00180967
21741.8400 0.00180801
21751.9600 0.00180634
21762.0900 0.00180468
21772.2200 0.00180468
21782.3400 0.00180302
21792.4700 0.00180136
21802.6000 0.0017997
21812.7200 0.00179804
21822.8500 0.00179639
21832.9800 0.00179473
21843.1100 0.00179308
21853.2300 0.00179143
21863.3600 0.00178978
21873.4900 0.00178813
21883.6100 0.00178649
21893.7400 0.00178484
21903.8700 0.0017832
21913.9900 0.00178156
21924.1200 0.00177992
21934.2500 0.00177828
21944.3800 0.00177664
21954.5000 0.00177501
21964.6300 0.00177337
21974.7600 0.00177174
21984.8800 0.00177011
21995.0100 0.00176848
22005.1400 0.00176685
22015.2600 0.00176522
22025.3900 0.0017636
22035.5200 0.00176198
22045.6400 0.00176035
22055.7700 0.00175873
22065.9000 0.00175711
22076.0300 0.0017555
22086.1500 0.00175388
22096.2800 0.00175227
22106.4100 0.00175065
22116.5300 0.00174904
22126.6600 0.00174743
22136.7900 0.00174582
22146.9100 0.00174421
22157.0400 0.00174261
22167.1700 0.001741
22177.2900 0.0017394
22187.4200 0.0017378
22197.5500 0.0017362
22207.6800 0.0017346
22217.8000 0.00173301
22227.9300 0.00173141
22238.0600 0.00172982
22248.1800 0.00172822
22258.3100 0.00172663
22268.4400 0.00172504
22278.5600 0.00172504
22288.6900 0.00172346
22298.8200 0.00172187
22308.9500 0.00172028
22319.0700 0.0017187
22329.2000 0.00171712
22339.3300 0.00171554
22349.4500 0.00171396
22359.5800 0.00171238
22369.7100 0.0017108
22379.8300 0.00170923
22389.9600 0.00170765
22400.0900 0.00170608
22410.2100 0.00170451
22420.3400 0.00170294
22430.4700 0.00170137
22440.6000 0.00169981
22450.7200 0.00169824
22460.8500 0.00169668
22470.9800 0.00169512
22481.1000 0.00169356
22491.2300 0.001692
22501.3600 0.00169044
22511.4800 0.00168888
22521.6100 0.00168733
22531.7400 0.00168578
22541.8700 0.00168422
22551.9900 0.00168422
22562.1200 0.00168267
22572.2500 0.00168112
22582.3700 0.00167958
22592.5000 0.00167803
22602.6300 0.00167649
22612.7500 0.00167494
22622.8800 0.0016734
22633.0100 0.00167186
22643.1300 0.00167032
22653.2600 0.00166878
22663.3900 0.00166725
22673.5200 0.00166571
22683.6400 0.00166418
22693.7700 0.00166265
22703.9000 0.00166112
22714.0200 0.00165959
22724.1500 0.00165806
22734.2800 0.00165653
22744.4000 0.00165501
22754.5300 0.00165348
22764.6600 0.00165348
22774.7900 0.00165196
22784.9100 0.00165044
22795.0400 0.00164892
22805.1700 0.0016474
22815.2900 0.00164589
22825.4200 0.00164437
22835.5500 0.00164286
22845.6700 0.00164135
22855.8000 0.00163983
22865.9300 0.00163832
22876.0500 0.00163682
22886.1800 0.00163531
22896.3100 0.0016338
22906.4400 0.0016323
22916.5600 0.0016308
22926.6900 0.0016293
22936.8200 0.0016278
22946.9400 0.0016278
22957.0700 0.0016263
22967.2000 0.0016248
22977.3200 0.0016233
22987.4500 0.00162181
22997.5800 0.00162032
23007.7100 0.00161883
23017.8300 0.00161734
23027.9600 0.00161585
23038.0900 0.00161436
23048.2100 0.00161287
23058.3400 0.00161139
23068.4700 0.0016099
23078.5900 0.00160842
23088.7200 0.00160694
23098.8500 0.00160546
23108.9700 0.00160546
23119.1000 0.00160398
23129.2300 0.00160251
23139.3600 0.00160103
23149.4800 0.00159956
23159.6100 0.00159809
23169.7400 0.00159661
23179.8600 0.00159514
23189.9900 0.00159368
23200.1200 0.00159221
23210.2400 0.00159074
23220.3700 0.00158928
23230.5000 0.00158782
23240.6300 0.00158635
23250.7500 0.00158489
23260.8800 0.00158489
23271.0100 0.00158343
23281.1300 0.00158198
23291.2600 0.00158052
23301.3900 0.00157906
23311.5100 0.00157761
23321.6400 0.00157616
23331.7700 0.00157471
23341.8900 0.00157326
23352.0200 0.00157181
23362.1500 0.00157036
23372.2800 0.00156892
23382.4000 0.00156747
23392.5300 0.00156603
23402.6600 0.00156603
23412.7800 0.00156459
23422.9100 0.00156315
23433.0400 0.00156171
23443.1600 0.00156027
23453.2900 0.00155883
23463.4200 0.0015574
23473.5400 0.00155597
23483.6700 0.00155453
23493.8000 0.0015531
23503.9300 0.00155167
23514.0500 0.00155024
23524.1800 0.00155024
23534.3100 0.00154882
23544.4300 0.00154739
23554.5600 0.00154597
23564.6900 0.00154454
23574.8100 0.00154312
23584.9400 0.0015417
23595.0700 0.00154028
23605.2000 0.00153886
23615.3200 0.00153745
23625.4500 0.00153603
23635.5800 0.00153462
23645.7000 0.00153462
23655.8300 0.0015332
23665.9600 0.00153179
23676.0800 0.00153038
23686.2100 0.00152897
23696.3400 0.00152757
23706.4600 0.00152616
23716.5900 0.00152475
23726.7200 0.00152335
23736.8500 0.00152195
23746.9700 0.00152055
23757.1000 0.00151915
23767.2300 0.00151915
23777.3500 0.00151775
23787.4800 0.00151635
23797.6100 0.00151496
23807.7300 0.00151356
23817.8600 0.00151217
23827.9900 0.00151078
23838.1200 0.00150938
23848.2400 0.001508
23858.3700 0.00150661
23868.5000 0.00150522
23878.6200 0.00150522
23888.7500 0.00150383
23898.8800 0.00150245
23909.0000 0.00150107
23919.1300 0.00149968
23929.2600 0.0014983
23939.3800 0.00149692
23949.5100 0.00149555
23959.6400 0.00149417
23969.7700 0.00149279
23979.8900 0.00149279
23990.0200 0.00149142
24000.1500 0.00149005
24010.2700 0.00148868
24020.4000 0.0014873
24030.5300 0.00148594
24040.6500 0.00148457
24050.7800 0.0014832
24060.9100 0.00148184
24071.0400 0.00148047
24081.1600 0.00148047
24091.2900 0.00147911
24101.4200 0.00147775
24111.5400 0.00147639
24121.6700 0.00147503
24131.8000 0.00147367
24141.9200 0.00147231
24152.0500 0.00147096
24162.1800 0.0014696
24172.3000 0.00146825
24182.4300 0.00146825
24192.5600 0.0014669
24202.6900 0.00146555
24212.8100 0.0014642
24222.9400 0.00146285
24233.0700 0.0014615
24243.1900 0.00146016
24253.3200 0.00145881
24263.4500 0.00145747
24273.5700 0.00145747
24283.7000 0.00145613
24293.8300 0.00145479
24303.9600 0.00145345
24314.0800 0.00145211
24324.2100 0.00145077
24334.3400 0.00144944
24344.4600 0.0014481
24354.5900 0.00144677
24364.7200 0.00144677
24374.8400 0.00144544
24384.9700 0.00144411
24395.1000 0.00144278
24405.2200 0.00144145
24415.3500 0.00144012
24425.4800 0.0014388
24435.6100 0.00143747
24445.7300 0.00143615
24455.8600 0.00143615
24465.9900 0.00143483
24476.1100 0.00143351
24486.2400 0.00143219
24496.3700 0.00143087
24506.4900 0.00142955
24516.6200 0.00142824
24526.7500 0.00142692
24536.8800 0.00142561
24547.0000 0.00142561
24557.1300 0.0014243
24567.2600 0.00142298
24577.3800 0.00142167
24587.5100 0.00142037
24597.6400 0.00141906
24607.7600 0.00141775
24617.8900 0.00141645
24628.0200 0.00141645
24638.1400 0.00141514
24648.2700 0.00141384
24658.4000 0.00141254
24668.5300 0.00141124
24678.6500 0.00140994
24688.7800 0.00140864
24698.9100 0.00140734
24709.0300 0.00140734
24719.1600 0.00140605
24729.2900 0.00140475
24739.4100 0.00140346
24749.5400 0.00140217
24759.6700 0.00140088
24769.7900 0.00139959
24779.9200 0.0013983
24790.0500 0.0013983
24800.1800 0.00139701
24810.3000 0.00139573
24820.4300 0.00139444
24830.5600 0.00139316
24840.6800 0.00139187
24850.8100 0.00139059
24860.9400 0.00138931
24871.0600 0.00138931
24881.1900 0.00138803
24891.3200 0.00138676
24901.4500 0.00138548
24911.5700 0.0013842
24921.7000 0.00138293
24931.8300 0.00138166
24941.9500 0.00138038
24952.0800 0.00138038
24962.2100 0.00137911
24972.3300 0.00137784
24982.4600 0.00137658
24992.5900 0.00137531
25002.7100 0.00137404
25012.8400 0.00137278
25022.9700 0.00137278
25033.1000 0.00137151
25043.2200 0.00137025
25053.3500 0.00136899
25063.4800 0.00136773
25073.6000 0.00136647
25083.7300 0.00136521
25093.8600 0.00136521
25103.9800 0.00136395
25114.1100 0.0013627
25124.2400 0.00136144
25134.3700 0.00136019
25144.4900 0.00135894
25154.6200 0.00135769
25164.7500 0.00135644
25174.8700 0.00135644
25185.0000 0.00135519
25195.1300 0.00135394
25205.2500 0.0013527
25215.3800 0.00135145
25225.5100 0.00135021
25235.6300 0.00134896
25245.7600 0.00134896
25255.8900 0.00134772
25266.0200 0.00134648
25276.1400 0.00134524
25286.2700 0.001344
25296.4000 0.00134276
25306.5200 0.00134153
25316.6500 0.00134153
25326.7800 0.00134029
25336.9000 0.00133906
25347.0300 0.00133783
25357.1600 0.0013366
25367.2900 0.00133537
25377.4100 0.00133414
25387.5400 0.00133414
25397.6700 0.00133291
25407.7900 0.00133168
25417.9200 0.00133045
25428.0500 0.00132923
25438.1700 0.00132801
25448.3000 0.00132801
25458.4300 0.00132678
25468.5500 0.00132556
25478.6800 0.00132434
25488.8100 0.00132312
25498.9400 0.0013219
25509.0600 0.00132069
25519.1900 0.00132069
25529.3200 0.00131947
25539.4400 0.00131826
25549.5700 0.00131704
25559.7000 0.00131583
25569.8200 0.00131462
25579.9500 0.00131341
25590.0800 0.00131341
25600.2100 0.0013122
25610.3300 0.00131099
25620.4600 0.00130978
25630.5900 0.00130858
25640.7100 0.00130737
25650.8400 0.00130737
25660.9700 0.00130617
25671.0900 0.00130497
25681.2200 0.00130377
25691.3500 0.00130257
25701.4700 0.00130137
25711.6000 0.00130017
25721.7300 0.00130017
25731.8600 0.00129897
25741.9800 0.00129778
25752.1100 0.00129658
25762.2400 0.00129539
25772.3600 0.0012942
25782.4900 0.0012942
25792.6200 0.001293
25802.7400 0.00129181
25812.8700 0.00129062
25823.0000 0.00128944
25833.1300 0.00128825
25843.2500 0.00128825
25853.3800 0.00128706
25863.5100 0.00128588
25873.6300 0.00128469
25883.7600 0.00128351
25893.8900 0.00128233
25904.0100 0.00128233
25914.1400 0.00128115
25924.2700 0.00127997
25934.3900 0.00127879
25944.5200 0.00127761
25954.6500 0.00127644
25964.7800 0.00127644
25974.9000 0.00127526
25985.0300 0.00127409
25995.1600 0.00127292
26005.2800 0.00127174
26015.4100 0.00127057
26025.5400 0.00127057
26035.6600 0.0012694
26045.7900 0.00126824
26055.9200 0.00126707
26066.0400 0.0012659
26076.1700 0.00126474
26086.3000 0.00126474
26096.4300 0.00126357
26106.5500 0.00126241
26116.6800 0.00126125
26126.8100 0.00126009
26136.9300 0.00125893
26147.0600 0.00125893
26157.1900 0.00125777
26167.3100 0.00125661
26177.4400 0.00125545
26187.5700 0.0012543
26197.7000 0.00125314
26207.8200 0.00125314
26217.9500 0.00125199
26228.0800 0.00125083
26238.2000 0.00124968
26248.3300 0.00124853
26258.4600 0.00124738
26268.5800 0.00124738
26278.7100 0.00124624
26288.8400 0.00124509
26298.9600 0.00124394
26309.0900 0.0012428
26319.2200 0.00124165
26329.3500 0.00124165
26339.4700 0.00124051
26349.6000 0.00123937
26359.7300 0.00123823
26369.8500 0.00123709
26379.9800 0.00123709
26390.1100 0.00123595
26400.2300 0.00123481
26410.3600 0.00123367
26420.4900 0.00123254
26430.6200 0.0012314
26440.7400 0.0012314
26450.8700 0.00123027
26461.0000 0.00122914
26471.1200 0.001228
26481.2500 0.00122687
26491.3800 0.00122687
26501.5000 0.00122574
26511.6300 0.00122462
26521.7600 0.00122349
26531.8800 0.00122236
26542.0100 0.00122124
26552.1400 0.00122124
26562.2700 0.00122011
26572.3900 0.00121899
26582.5200 0.00121787
26592.6500 0.00121675
26602.7700 0.00121675
26612.9000 0.00121563
26623.0300 0.00121451
26633.1500 0.00121339
26643.2800 0.00121227
26653.4100 0.00121116
26663.5400 0.00121116
26673.6600 0.00121004
26683.7900 0.00120893
26693.9200 0.00120781
26704.0400 0.0012067
26714.1700 0.0012067
26724.3000 0.00120559
26734.4200 0.00120448
26744.5500 0.00120337
26754.6800 0.00120226
26764.8000 0.00120226
26774.9300 0.00120116
26785.0600 0.00120005
26795.1900 0.00119895
26805.3100 0.00119784
26815.4400 0.00119784
26825.5700 0.00119674
26835.6900 0.00119564
26845.8200 0.00119454
26855.9500 0.00119344
26866.0700 0.00119234
26876.2000 0.00119234
26886.3300 0.00119124
26896.4600 0.00119015
26906.5800 0.00118905
26916.7100 0.00118796
26926.8400 0.00118796
26936.9600 0.00118686
26947.0900 0.00118577
26957.2200 0.00118468
26967.3400 0.00118359
26977.4700 0.00118359
26987.6000 0.0011825
26997.7200 0.00118141
27007.8500 0.00118032
27017.9800 0.00117923
27028.1100 0.00117923
27038.2300 0.00117815
27048.3600 0.00117706
27058.4900 0.00117598
27068.6100 0.0011749
27078.7400 0.0011749
27088.8700 0.00117382
27098.9900 0.00117274
27109.1200 0.00117166
27119.2500 0.00117058
27129.3800 0.00117058
27139.5000 0.0011695
27149.6300 0.00116842
27159.7600 0.00116735
27169.8800 0.00116627
27180.0100 0.00116627
27190.1400 0.0011652
27200.2600 0.00116413
27210.3900 0.00116305
27220.5200 0.00116198
27230.6400 0.00116198
27240.7700 0.00116091
27250.9000 0.00115985
27261.0300 0.00115878
27271.1500 0.00115771
27281.2800 0.00115771
27291.4100 0.00115664
27301.5300 0.00115558
27311.6600 0.00115452
27321.7900 0.00115345
27331.9100 0.00115345
27342.0400 0.00115239
27352.1700 0.00115133
27362.2900 0.00115027
27372.4200 0.00114921
27382.5500 0.00114921
27392.6800 0.00114815
27402.8000 0.0011471
27412.9300 0.00114604
27423.0600 0.00114604
27433.1800 0.00114499
27443.3100 0.00114393
27453.4400 0.00114288
27463.5600 0.00114183
27473.6900 0.00114183
27483.8200 0.00114078
27493.9500 0.00113972
27504.0700 0.00113868
27514.2000 0.00113763
27524.3300 0.00113763
27534.4500 0.00113658
27544.5800 0.00113553
27554.7100 0.00113449
27564.8300 0.00113344
27574.9600 0.00113344
27585.0900 0.0011324
27595.2100 0.00113136
27605.3400 0.00113032
27615.4700 0.00113032
27625.6000 0.00112928
27635.7200 0.00112824
27645.8500 0.0011272
27655.9800 0.00112616
27666.1000 0.00112616
27676.2300 0.00112512
27686.3600 0.00112409
27696.4800 0.00112305
27706.6100 0.00112202
27716.7400 0.00112202
27726.8700 0.00112099
27736.9900 0.00111995
27747.1200 0.00111892
27757.2500 0.00111892
27767.3700 0.00111789
27777.5000 0.00111686
27787.6300 0.00111584
27797.7500 0.00111481
27807.8800 0.00111481
27818.0100 0.00111378
27828.1300 0.00111276
27838.2600 0.00111173
27848.3900 0.00111173
27858.5200 0.00111071
27868.6400 0.00110969
27878.7700 0.00110866
27888.9000 0.00110764
27899.0200 0.00110764
27909.1500 0.00110662
27919.2800 0.00110561
27929.4000 0.00110459
27939.5300 0.00110459
27949.6600 0.00110357
27959.7900 0.00110255
27969.9100 0.00110154
27980.0400 0.00110053
27990.1700 0.00110053
28000.2900 0.00109951
28010.4200 0.0010985
28020.5500 0.00109749
28030.6700 0.00109749
28040.8000 0.00109648
28050.9300 0.00109547
28061.0500 0.00109446
28071.1800 0.00109345
28081.3100 0.00109345
28091.4400 0.00109245
28101.5600 0.00109144
28111.6900 0.00109044
28121.8200 0.00109044
28131.9400 0.00108943
28142.0700 0.00108843
28152.2000 0.00108743
28162.3200 0.00108743
28172.4500 0.00108643
28182.5800 0.00108543
28192.7100 0.00108443
28202.8300 0.00108343
28212.9600 0.00108343
28223.0900 0.00108243
28233.2100 0.00108143
28243.3400 0.00108044
28253.4700 0.00108044
28263.5900 0.00107944
28273.7200 0.00107845
28283.8500 0.00107746
28293.9700 0.00107746
28304.1000 0.00107647
28314.2300 0.00107547
28324.3600 0.00107448
28334.4800 0.00107349
28344.6100 0.00107349
28354.7400 0.00107251
28364.8600 0.00107152
28374.9900 0.00107053
28385.1200 0.00107053
28395.2400 0.00106955
28405.3700 0.00106856
28415.5000 0.00106758
28425.6300 0.00106758
28435.7500 0.0010666
28445.8800 0.00106561
28456.0100 0.00106463
28466.1300 0.00106463
28476.2600 0.00106365
28486.3900 0.00106267
28496.5100 0.0010617
28506.6400 0.00106072
28516.7700 0.00106072
28526.8900 0.00105974
28537.0200 0.00105877
28547.1500 0.00105779
28557.2800 0.00105779
28567.4000 0.00105682
28577.5300 0.00105584
28587.6600 0.00105487
28597.7800 0.00105487
28607.9100 0.0010539
28618.0400 0.00105293
28628.1600 0.00105196
28638.2900 0.00105196
28648.4200 0.00105099
28658.5400 0.00105003
28668.6700 0.00104906
28678.8000 0.00104906
28688.9300 0.00104809
28699.0500 0.00104713
28709.1800 0.00104616
28719.3100 0.00104616
28729.4300 0.0010452
28739.5600 0.00104424
28749.6900 0.00104328
28759.8100 0.00104328
28769.9400 0.00104232
28780.0700 0.00104136
28790.2000 0.0010404
28800.3200 0.00103944
28810.4500 0.00103944
28820.5800 0.00103848
28830.7000 0.00103753
28840.8300 0.00103657
28850.9600 0.00103657
28861.0800 0.00103562
28871.2100 0.00103467
28881.3400 0.00103371
28891.4600 0.00103371
28901.5900 0.00103276
28911.7200 0.00103181
28921.8500 0.00103086
28931.9700 0.00103086
28942.1000 0.00102991
28952.2300 0.00102896
28962.3500 0.00102802
28972.4800 0.00102802
28982.6100 0.00102707
28992.7300 0.00102612
29002.8600 0.00102518
29012.9900 0.00102518
29023.1200 0.00102424
29033.2400 0.00102329
29043.3700 0.00102235
29053.5000 0.00102235
29063.6200 0.00102141
29073.7500 0.00102047
29083.8800 0.00101953
29094.0000 0.00101953
29104.1300 0.00101859
29114.2600 0.00101765
29124.3800 0.00101672
29134.5100 0.00101672
29144.6400 0.00101578
29154.7700 0.00101485
29164.8900 0.00101485
29175.0200 0.00101391
29185.1500 0.00101298
29195.2700 0.00101205
29205.4000 0.00101205
29215.5300 0.00101111
29225.6500 0.00101018
29235.7800 0.00100925
29245.9100 0.00100925
29256.0400 0.00100832
29266.1600 0.0010074
29276.2900 0.00100647
29286.4200 0.00100647
29296.5400 0.00100554
29306.6700 0.00100462
29316.8000 0.00100369
29326.9200 0.00100369
29337.0500 0.00100277
29347.1800 0.00100184
29357.3000 0.00100092
29367.4300 0.00100092
29377.5600 0.001
29387.6900 0.000999079
29397.8100 0.00099816
29407.9400 0.00099816
29418.0700 0.000997241
29428.1900 0.000996323
29438.3200 0.000995405
29448.4500 0.000995405
29458.5700 0.000994489
29468.7000 0.000993574
29478.8300 0.000993574
29488.9600 0.000992659
29499.0800 0.000991745
29509.2100 0.000990832
29519.3400 0.000990832
29529.4600 0.00098992
29539.5900 0.000989008
29549.7200 0.000988098
29559.8400 0.000988098
29569.9700 0.000987188
29580.1000 0.000986279
29590.2200 0.000985372
29600.3500 0.000985372
29610.4800 0.000984464
29620.6100 0.000983558
29630.7300 0.000983558
29640.8600 0.000982653
29650.9900 0.000981748
29661.1100 0.000980844
29671.2400 0.000980844
29681.3700 0.000979941
29691.4900 0.000979039
29701.6200 0.000978138
29711.7500 0.000978138
29721.8800 0.000977237
29732.0000 0.000976338
29742.1300 0.000975439
29752.2600 0.000975439
29762.3800 0.000974541
29772.5100 0.000973644
29782.6400 0.000973644
29792.7600 0.000972747
29802.8900 0.000971852
29813.0200 0.000970957
29823.1400 0.000970957
29833.2700 0.000970063
29843.4000 0.00096917
29853.5300 0.000968278
29863.6500 0.000968278
29873.7800 0.000967386
29883.9100 0.000966496
29894.0300 0.000966496
29904.1600 0.000965606
29914.2900 0.000964717
29924.4100 0.000963829
29934.5400 0.000963829
29944.6700 0.000962942
29954.7900 0.000962055
29964.9200 0.00096117
29975.0500 0.00096117
29985.1800 0.000960285
29995.3000 0.000959401
30000.0000 0.000959401
