3300.00 0.025398
3350.00 0.0263998
3400.00 0.0278227
3450.00 0.027874
3500.00 0.0296756
3550.00 0.0313617
3600.00 0.031886
3650.00 0.0350268
3700.00 0.0359749
3750.00 0.0359087
3800.00 0.0406256
3850.00 0.0413809
3900.00 0.0419566
3950.00 0.0384415
4000.00 0.0498884
4050.00 0.0531618
4100.00 0.0538022
4150.00 0.0565458
4200.00 0.0567022
4250.00 0.0563378
4300.00 0.0541003
4350.00 0.0581835
4400.00 0.0616595
4450.00 0.0647441
4500.00 0.067112
4550.00 0.0682339
4600.00 0.0702749
4650.00 0.0716473
4700.00 0.072711
4750.00 0.0740628
4800.00 0.0755092
4850.00 0.0737225
4900.00 0.0774105
4950.00 0.0792136
5000.00 0.079873
5050.00 0.0809841
5100.00 0.0825658
5150.00 0.0826418
5200.00 0.0830998
5250.00 0.0862979
5300.00 0.0879023
5350.00 0.089043
5400.00 0.0897842
5450.00 0.0910332
5500.00 0.0926403
5550.00 0.0938426
5600.00 0.094189
5650.00 0.0955873
5700.00 0.0958517
5750.00 0.0971852
5800.00 0.0987188
5850.00 0.100092
5900.00 0.099816
5950.00 0.101111
6000.00 0.101765
6050.00 0.102518
6100.00 0.103371
6150.00 0.104136
6200.00 0.105099
6250.00 0.104809
6300.00 0.104424
6350.00 0.106955
6400.00 0.107349
6450.00 0.107845
6500.00 0.108443
6550.00 0.103848
6600.00 0.109547
6650.00 0.111481
6700.00 0.112409
6750.00 0.113032
6800.00 0.113449
6850.00 0.108843
6900.00 0.103848
6950.00 0.112928
7000.00 0.113972
7050.00 0.114604
7100.00 0.115133
7150.00 0.113868
7200.00 0.109245
7250.00 0.110866
7300.00 0.112512
7350.00 0.115985
7400.00 0.117166
7450.00 0.118032
7500.00 0.118032
7550.00 0.118577
7600.00 0.0771969
7650.00 0.0863774
7700.00 0.117815
7750.00 0.120448
7800.00 0.121116
7850.00 0.121116
7900.00 0.121227
7950.00 0.121563
8000.00 0.121675
8050.00 0.121787
8100.00 0.121227
8150.00 0.115452
8200.00 0.116091
8250.00 0.117058
8300.00 0.11825
8350.00 0.121004
8400.00 0.122124
8450.00 0.122914
8500.00 0.121339
8550.00 0.119454
8600.00 0.122574
8650.00 0.120337
8700.00 0.122011
8750.00 0.122011
8800.00 0.121004
8850.00 0.121227
8900.00 0.121116
8950.00 0.116842
9000.00 0.109547
9050.00 0.115133
9100.00 0.111276
9150.00 0.110255
9200.00 0.11471
9250.00 0.114288
9300.00 0.0987188
9350.00 0.0773393
9400.00 0.0937562
9450.00 0.0878213
9500.00 0.0917065
9550.00 0.0935837
9600.00 0.0986279
9650.00 0.104424
9700.00 0.11272
9750.00 0.109547
9800.00 0.11272
9850.00 0.116091
9900.00 0.118141
9950.00 0.120116
10000.00 0.117598
10050.00 0.115878
10100.00 0.119344
