3300.00 0.0413809
3350.00 0.042658
3400.00 0.042658
3450.00 0.042776
3500.00 0.043411
3550.00 0.0440961
3600.00 0.0449159
3650.00 0.0457509
3700.00 0.046302
3750.00 0.0466445
3800.00 0.0479954
3850.00 0.049705
3900.00 0.0503501
3950.00 0.0496592
4000.00 0.0558727
4050.00 0.0601451
4100.00 0.0464729
4150.00 0.0617732
4200.00 0.0655239
4250.00 0.0651028
4300.00 0.0584521
4350.00 0.0471194
4400.00 0.0632121
4450.00 0.0658264
4500.00 0.0666193
4550.00 0.0668036
4600.00 0.0668652
4650.00 0.0668036
4700.00 0.0664967
4750.00 0.0657052
4800.00 0.0629216
4850.00 0.0478189
4900.00 0.0591562
4950.00 0.0657052
5000.00 0.0666193
5050.00 0.0666193
5100.00 0.0666193
5150.00 0.0668036
5200.00 0.0668036
5250.00 0.0668036
5300.00 0.0667421
5350.00 0.0667421
5400.00 0.0667421
5450.00 0.066558
5500.00 0.0664967
5550.00 0.0664355
5600.00 0.0663132
5650.00 0.0658264
5700.00 0.064983
5750.00 0.0646249
5800.00 0.0649232
5850.00 0.0653431
5900.00 0.0646845
5950.00 0.0643873
6000.00 0.0643873
6050.00 0.0640324
6100.00 0.0639146
6150.00 0.0636796
6200.00 0.0632121
6250.00 0.0624597
6300.00 0.0616027
6350.00 0.0620583
6400.00 0.0617163
6450.00 0.0609256
6500.00 0.0579162
6550.00 0.0457509
6600.00 0.0536043
6650.00 0.0594292
6700.00 0.0606457
6750.00 0.0608695
6800.00 0.0607575
6850.00 0.0577564
6900.00 0.0549035
6950.00 0.058776
7000.00 0.0588844
7050.00 0.0588844
7100.00 0.0588844
7150.00 0.057544
7200.00 0.0540505
7250.00 0.0543
7300.00 0.0551569
7350.00 0.0567022
7400.00 0.0569639
7450.00 0.0570164
7500.00 0.0568591
7550.00 0.0569639
7600.00 0.037222
7650.00 0.0414572
7700.00 0.0555648
7750.00 0.0562859
7800.00 0.0561306
7850.00 0.0557186
7900.00 0.0551569
7950.00 0.0550554
8000.00 0.0545004
8050.00 0.0543501
8100.00 0.0537527
8150.00 0.0496592
8200.00 0.0501649
8250.00 0.0503037
8300.00 0.0503501
8350.00 0.0517607
8400.00 0.0524324
8450.00 0.0521435
8500.00 0.0519039
8550.00 0.0513334
8600.00 0.0510035
8650.00 0.0508628
8700.00 0.0502574
8750.00 0.0499804
8800.00 0.0499344
8850.00 0.0490682
8900.00 0.0487528
8950.00 0.0457509
9000.00 0.0417254
9050.00 0.0449159
9100.00 0.0426187
9150.00 0.0417254
9200.00 0.0433311
9250.00 0.043132
9300.00 0.0352209
9350.00 0.0257988
9400.00 0.033358
9450.00 0.030903
9500.00 0.0312752
9550.00 0.0314196
9600.00 0.0346099
9650.00 0.0385123
9700.00 0.0420727
9750.00 0.0410015
9800.00 0.0424229
9850.00 0.0447507
9900.00 0.0440555
9950.00 0.0438531
