3300 0.0142037
3350 0.0143351
3400 0.01508
3450 0.0155453
3500 0.016099
3550 0.0171238
3600 0.0175711
3650 0.0191955
3700 0.0200447
3750 0.0211836
3800 0.0242326
3850 0.0257276
3900 0.0260136
3950 0.0240991
4000 0.0305914
4050 0.0323594
4100 0.0309599
4150 0.0339469
4200 0.0341979
4250 0.0346099
4300 0.0335738
4350 0.0334811
4400 0.0367113
4450 0.0374628
4500 0.0386901
4550 0.0392645
4600 0.0402532
4650 0.0410393
4700 0.0414954
4750 0.0420727
4800 0.042658
4850 0.0405882
4900 0.0432912
4950 0.0445862
5000 0.0449573
5050 0.0455827
5100 0.0462594
5150 0.0463447
5200 0.0464301
5250 0.047687
5300 0.0484395
5350 0.049023
5400 0.0494766
5450 0.0502574
5500 0.0507224
5550 0.051428
5600 0.0513807
5650 0.0520475
5700 0.0520475
5750 0.0523359
5800 0.0531129
5850 0.0539511
5900 0.0533089
5950 0.0542001
6000 0.0545507
6050 0.0550554
6100 0.0553605
6150 0.0551569
6200 0.0556673
6250 0.0555137
6300 0.0551569
6350 0.0564937
6400 0.0567545
6450 0.0571742
6500 0.0571216
6550 0.0539511
6600 0.0572796
6650 0.058776
6700 0.0591017
6750 0.0594292
6800 0.0595937
6850 0.0570164
6900 0.0543501
6950 0.0589386
7000 0.0594292
7050 0.0598687
7100 0.0602005
7150 0.0593198
7200 0.0564417
7250 0.0571216
7300 0.058023
7350 0.0599239
7400 0.0603115
7450 0.0606457
7500 0.0609818
7550 0.0613762
7600 0.0401791
7650 0.0451232
7700 0.0607575
7750 0.0621727
7800 0.0624022
7850 0.0628058
7900 0.0625173
7950 0.0626902
8000 0.0629216
8050 0.0628637
8100 0.0626902
8150 0.0592652
8200 0.0598136
8250 0.0601451
8300 0.0607575
8350 0.0619441
8400 0.0628058
8450 0.0629216
8500 0.0622874
8550 0.0613197
8600 0.0628058
8650 0.0617732
8700 0.0628058
8750 0.0623448
8800 0.0626902
8850 0.0621727
8900 0.06223
8950 0.0598687
9000 0.055616
9050 0.0588844
9100 0.0571216
9150 0.0567545
9200 0.0585599
9250 0.0579162
9300 0.0494311
9350 0.0386545
9400 0.0475116
9450 0.0443404
9500 0.0463447
9550 0.0467305
9600 0.0502574
9650 0.0536537
9700 0.0585059
9750 0.0580764
9800 0.0589929
9850 0.0607016
9900 0.0614328
9950 0.0617732
10000 0.0621155
10050 0.0613197
10100 0.0619441
