3200.0000 0.008598
3201.0000 0.0087176
3202.0000 0.0087337
3203.0000 0.0087498
3204.0000 0.0088308
3205.0000 0.0089454
3206.0000 0.0090199
3207.0000 0.0090782
3208.0000 0.0091201
3209.0000 0.0091369
3210.0000 0.0091791
3211.0000 0.0092215
3212.0000 0.0092385
3213.0000 0.0092215
3214.0000 0.0092045
3215.0000 0.0091201
3216.0000 0.0090448
3217.0000 0.0088634
3218.0000 0.0086936
3219.0000 0.0087176
3220.0000 0.0088064
3221.0000 0.0088471
3222.0000 0.0088716
3223.0000 0.0089207
3224.0000 0.0089619
3225.0000 0.0090448
3226.0000 0.0091201
3227.0000 0.009196
3228.0000 0.0092811
3229.0000 0.0093411
3230.0000 0.0093584
3231.0000 0.0093584
3232.0000 0.0093842
3233.0000 0.0093842
3234.0000 0.0093584
3235.0000 0.0093411
3236.0000 0.0092215
3237.0000 0.0090782
3238.0000 0.0089207
3239.0000 0.0087498
3240.0000 0.0086218
3241.0000 0.0085114
3242.0000 0.0084178
3243.0000 0.0083406
3244.0000 0.0082566
3245.0000 0.0082718
3246.0000 0.0082718
3247.0000 0.0083253
3248.0000 0.0083791
3249.0000 0.0083791
3250.0000 0.0083637
3251.0000 0.00831
3252.0000 0.0082338
3253.0000 0.0082338
3254.0000 0.0082718
3255.0000 0.008287
3256.0000 0.008249
3257.0000 0.0082035
3258.0000 0.0081433
3259.0000 0.0081133
3260.0000 0.0081808
3261.0000 0.008249
3262.0000 0.008287
3263.0000 0.0083253
3264.0000 0.0083406
3265.0000 0.0083637
3266.0000 0.0083637
3267.0000 0.0083406
3268.0000 0.0083406
3269.0000 0.0083406
3270.0000 0.0083253
3271.0000 0.0083253
3272.0000 0.0083253
3273.0000 0.0083253
3274.0000 0.0083406
3275.0000 0.0084489
3276.0000 0.0085428
3277.0000 0.0085664
3278.0000 0.0085664
3279.0000 0.0085428
3280.0000 0.0085271
3281.0000 0.0085428
3282.0000 0.0085664
3283.0000 0.008598
3284.0000 0.0086218
3285.0000 0.0086218
3286.0000 0.0085822
3287.0000 0.0085664
3288.0000 0.0084879
3289.0000 0.0084178
3290.0000 0.0083946
3291.0000 0.0083637
3292.0000 0.008287
3293.0000 0.0082035
3294.0000 0.0081433
3295.0000 0.0080909
3296.0000 0.008076
3297.0000 0.0080909
3298.0000 0.008076
3299.0000 0.008076
3300.0000 0.008076
3301.0000 0.0081133
3302.0000 0.0081433
3303.0000 0.0081808
3304.0000 0.0082186
3305.0000 0.0081808
3306.0000 0.0081508
3307.0000 0.0081433
3308.0000 0.0081433
3309.0000 0.0081658
3310.0000 0.0081808
3311.0000 0.0081433
3312.0000 0.0080612
3313.0000 0.0080389
3314.0000 0.0080612
3315.0000 0.0081133
3316.0000 0.0081808
3317.0000 0.0082718
3318.0000 0.0083406
3319.0000 0.0083946
3320.0000 0.0083637
3321.0000 0.00831
3322.0000 0.0083253
3323.0000 0.0083406
3324.0000 0.0083637
3325.0000 0.0083637
3326.0000 0.00831
3327.0000 0.0082035
3328.0000 0.0081959
3329.0000 0.008249
3330.0000 0.0082718
3331.0000 0.0081959
3332.0000 0.0081658
3333.0000 0.0082718
3334.0000 0.0083637
3335.0000 0.0084489
3336.0000 0.0085428
3337.0000 0.008598
3338.0000 0.0086536
3339.0000 0.0086776
3340.0000 0.0086776
3341.0000 0.0086776
3342.0000 0.0086936
3343.0000 0.0087498
3344.0000 0.0088308
3345.0000 0.0088716
3346.0000 0.0088634
3347.0000 0.0088471
3348.0000 0.0087902
3349.0000 0.0087337
3350.0000 0.0086536
3351.0000 0.0085664
3352.0000 0.0085664
3353.0000 0.0085428
3354.0000 0.0085271
3355.0000 0.0085114
3356.0000 0.0085428
3357.0000 0.0085664
3358.0000 0.0086218
3359.0000 0.0087096
3360.0000 0.0087741
3361.0000 0.0087741
3362.0000 0.0087741
3363.0000 0.0087902
3364.0000 0.0088064
3365.0000 0.0088634
3366.0000 0.0089289
3367.0000 0.0089207
3368.0000 0.0089043
3369.0000 0.0089207
3370.0000 0.0089619
3371.0000 0.0089454
3372.0000 0.0088879
3373.0000 0.0088634
3374.0000 0.0088634
3375.0000 0.0088716
3376.0000 0.0088634
3377.0000 0.0088634
3378.0000 0.0088716
3379.0000 0.0088879
3380.0000 0.0088879
3381.0000 0.0089043
3382.0000 0.0088471
3383.0000 0.0087902
3384.0000 0.0087741
3385.0000 0.0087741
3386.0000 0.0087498
3387.0000 0.0087096
3388.0000 0.0086776
3389.0000 0.0086617
3390.0000 0.0086536
3391.0000 0.0086377
3392.0000 0.008598
3393.0000 0.0085428
3394.0000 0.0085114
3395.0000 0.0084879
3396.0000 0.0084723
3397.0000 0.0084723
3398.0000 0.0084879
3399.0000 0.0084567
3400.0000 0.0084178
3401.0000 0.0084333
3402.0000 0.0085114
3403.0000 0.0085664
3404.0000 0.0086218
3405.0000 0.0086536
3406.0000 0.0086936
3407.0000 0.0087337
3408.0000 0.0086936
3409.0000 0.0086536
3410.0000 0.0086377
3411.0000 0.0086218
3412.0000 0.0085664
3413.0000 0.0084879
3414.0000 0.0084489
3415.0000 0.0084023
3416.0000 0.0083637
3417.0000 0.008287
3418.0000 0.0082566
3419.0000 0.008287
3420.0000 0.00831
3421.0000 0.008287
3422.0000 0.0082718
3423.0000 0.008249
3424.0000 0.0082338
3425.0000 0.0082566
3426.0000 0.00831
3427.0000 0.0083406
3428.0000 0.0083637
3429.0000 0.0083406
3430.0000 0.00831
3431.0000 0.0082338
3432.0000 0.0081658
3433.0000 0.0081658
3434.0000 0.008287
3435.0000 0.0084178
3436.0000 0.0085271
3437.0000 0.0086377
3438.0000 0.0086536
3439.0000 0.0086776
3440.0000 0.0086936
3441.0000 0.0086936
3442.0000 0.0087096
3443.0000 0.0087096
3444.0000 0.0087096
3445.0000 0.0086936
3446.0000 0.0086776
3447.0000 0.0086776
3448.0000 0.0086776
3449.0000 0.0086776
3450.0000 0.0086536
3451.0000 0.0086377
3452.0000 0.008598
3453.0000 0.0086377
3454.0000 0.0086936
3455.0000 0.0087096
3456.0000 0.0087176
3457.0000 0.0087096
3458.0000 0.0086776
3459.0000 0.0087096
3460.0000 0.0088064
3461.0000 0.0088308
3462.0000 0.0087741
3463.0000 0.0087176
3464.0000 0.0086536
3465.0000 0.0085822
3466.0000 0.0085822
3467.0000 0.0085664
3468.0000 0.0086377
3469.0000 0.0086936
3470.0000 0.0087741
3471.0000 0.0088308
3472.0000 0.0088308
3473.0000 0.0087741
3474.0000 0.0087096
3475.0000 0.0086377
3476.0000 0.0085822
3477.0000 0.0085664
3478.0000 0.0085664
3479.0000 0.0085114
3480.0000 0.0084567
3481.0000 0.0085114
3482.0000 0.0085822
3483.0000 0.0086218
3484.0000 0.0086377
3485.0000 0.0086936
3486.0000 0.0087741
3487.0000 0.0088064
3488.0000 0.0088471
3489.0000 0.0088634
3490.0000 0.0088634
3491.0000 0.0088634
3492.0000 0.0088634
3493.0000 0.0088471
3494.0000 0.0088879
3495.0000 0.0089207
3496.0000 0.0088879
3497.0000 0.0088634
3498.0000 0.0088308
3499.0000 0.0087902
3500.0000 0.0087741
3501.0000 0.0087498
3502.0000 0.0087337
3503.0000 0.0086776
3504.0000 0.0086776
3505.0000 0.0087337
3506.0000 0.0087741
3507.0000 0.0087498
3508.0000 0.0087337
3509.0000 0.0087337
3510.0000 0.0087498
3511.0000 0.0087741
3512.0000 0.0087741
3513.0000 0.0087337
3514.0000 0.0086536
3515.0000 0.0086776
3516.0000 0.0087741
3517.0000 0.0088308
3518.0000 0.0089043
3519.0000 0.0089619
3520.0000 0.0090448
3521.0000 0.0091201
3522.0000 0.0091033
3523.0000 0.0090782
3524.0000 0.0090033
3525.0000 0.0089454
3526.0000 0.0088634
3527.0000 0.0087902
3528.0000 0.0087337
3529.0000 0.0086776
3530.0000 0.0086536
3531.0000 0.0086776
3532.0000 0.0086617
3533.0000 0.0086218
3534.0000 0.0085664
3535.0000 0.0085271
3536.0000 0.0085114
3537.0000 0.0085114
3538.0000 0.0085114
3539.0000 0.0084489
3540.0000 0.0084023
3541.0000 0.0083791
3542.0000 0.0083637
3543.0000 0.0083791
3544.0000 0.0083946
3545.0000 0.0084333
3546.0000 0.0084567
3547.0000 0.0084879
3548.0000 0.0084879
3549.0000 0.0085114
3550.0000 0.0085271
3551.0000 0.0085428
3552.0000 0.0086218
3553.0000 0.0086936
3554.0000 0.0086936
3555.0000 0.0086776
3556.0000 0.0086617
3557.0000 0.0086536
3558.0000 0.0086218
3559.0000 0.0085822
3560.0000 0.0085822
3561.0000 0.0085822
3562.0000 0.0086218
3563.0000 0.0086377
3564.0000 0.0086617
3565.0000 0.0087176
3566.0000 0.0087741
3567.0000 0.0087498
3568.0000 0.0087176
3569.0000 0.0087176
3570.0000 0.0087337
3571.0000 0.0087498
3572.0000 0.0087741
3573.0000 0.0087902
3574.0000 0.0088064
3575.0000 0.0088064
3576.0000 0.0087741
3577.0000 0.0087498
3578.0000 0.0087176
3579.0000 0.0087096
3580.0000 0.0087498
3581.0000 0.0087902
3582.0000 0.0087902
3583.0000 0.0087741
3584.0000 0.0087741
3585.0000 0.0087741
3586.0000 0.0087902
3587.0000 0.0088064
3588.0000 0.0088308
3589.0000 0.0088064
3590.0000 0.0087902
3591.0000 0.0087176
3592.0000 0.0086617
3593.0000 0.0086776
3594.0000 0.0086776
3595.0000 0.0087741
3596.0000 0.0088308
3597.0000 0.0088308
3598.0000 0.0088308
3599.0000 0.0088308
3600.0000 0.0088308
3601.0000 0.0088064
3602.0000 0.0087741
3603.0000 0.0087498
3604.0000 0.0087902
3605.0000 0.0088308
3606.0000 0.0088716
3607.0000 0.0089207
3608.0000 0.0089043
3609.0000 0.0088879
3610.0000 0.0088308
3611.0000 0.0087741
3612.0000 0.0087741
3613.0000 0.0088064
3614.0000 0.0087902
3615.0000 0.0087741
3616.0000 0.0087741
3617.0000 0.0087741
3618.0000 0.0087498
3619.0000 0.0087337
3620.0000 0.0087337
3621.0000 0.0087337
3622.0000 0.0087498
3623.0000 0.0087498
3624.0000 0.0087337
3625.0000 0.0087902
3626.0000 0.0088308
3627.0000 0.0088634
3628.0000 0.0088634
3629.0000 0.0088879
3630.0000 0.0089043
3631.0000 0.0089289
3632.0000 0.0089784
3633.0000 0.0089867
3634.0000 0.0089207
3635.0000 0.0088634
3636.0000 0.0088471
3637.0000 0.0088308
3638.0000 0.0088308
3639.0000 0.0088064
3640.0000 0.0088471
3641.0000 0.0088879
3642.0000 0.0088879
3643.0000 0.0089043
3644.0000 0.0088879
3645.0000 0.0088879
3646.0000 0.0088716
3647.0000 0.0088308
3648.0000 0.0087902
3649.0000 0.0087176
3650.0000 0.0086536
3651.0000 0.008598
3652.0000 0.0085664
3653.0000 0.0085664
3654.0000 0.0085428
3655.0000 0.0085428
3656.0000 0.0085271
3657.0000 0.0085822
3658.0000 0.0086617
3659.0000 0.0086936
3660.0000 0.0086536
3661.0000 0.0086218
3662.0000 0.0086218
3663.0000 0.0086218
3664.0000 0.0086377
3665.0000 0.0086536
3666.0000 0.0086377
3667.0000 0.0086218
3668.0000 0.008598
3669.0000 0.008598
3670.0000 0.0086218
3671.0000 0.0086617
3672.0000 0.0087096
3673.0000 0.0087741
3674.0000 0.0088308
3675.0000 0.0089043
3676.0000 0.0089619
3677.0000 0.0089619
3678.0000 0.0089619
3679.0000 0.0089289
3680.0000 0.0089043
3681.0000 0.0088879
3682.0000 0.0089043
3683.0000 0.0088879
3684.0000 0.0088471
3685.0000 0.0088308
3686.0000 0.0088064
3687.0000 0.0087741
3688.0000 0.0087337
3689.0000 0.0086936
3690.0000 0.0086936
3691.0000 0.0086776
3692.0000 0.0086617
3693.0000 0.0086536
3694.0000 0.0086218
3695.0000 0.0085664
3696.0000 0.0085822
3697.0000 0.008598
3698.0000 0.0086377
3699.0000 0.0086776
3700.0000 0.0087337
3701.0000 0.0087902
3702.0000 0.0088471
3703.0000 0.0089207
3704.0000 0.0089619
3705.0000 0.0088716
3706.0000 0.0087902
3707.0000 0.0087337
3708.0000 0.0086776
3709.0000 0.0086218
3710.0000 0.0085822
3711.0000 0.0085428
3712.0000 0.0084879
3713.0000 0.0084879
3714.0000 0.0085271
3715.0000 0.0085664
3716.0000 0.0086218
3717.0000 0.0086377
3718.0000 0.0086377
3719.0000 0.0086218
3720.0000 0.0086536
3721.0000 0.0086776
3722.0000 0.0086617
3723.0000 0.0086536
3724.0000 0.008598
3725.0000 0.0085271
3726.0000 0.0085822
3727.0000 0.0087176
3728.0000 0.0087741
3729.0000 0.0087337
3730.0000 0.0086936
3731.0000 0.0086377
3732.0000 0.008598
3733.0000 0.008598
3734.0000 0.0085822
3735.0000 0.0086218
3736.0000 0.0086536
3737.0000 0.0086377
3738.0000 0.008598
3739.0000 0.008598
3740.0000 0.0086218
3741.0000 0.008598
3742.0000 0.0085822
3743.0000 0.0085664
3744.0000 0.0085428
3745.0000 0.0085271
3746.0000 0.0085664
3747.0000 0.0085664
3748.0000 0.0085428
3749.0000 0.0085114
3750.0000 0.0085428
3751.0000 0.0085822
3752.0000 0.0086218
3753.0000 0.0086218
3754.0000 0.0086218
3755.0000 0.0086218
3756.0000 0.0086377
3757.0000 0.0087096
3758.0000 0.0087741
3759.0000 0.0088308
3760.0000 0.0088471
3761.0000 0.0087337
3762.0000 0.0086218
3763.0000 0.0086218
3764.0000 0.008598
3765.0000 0.0086218
3766.0000 0.0086377
3767.0000 0.0086536
3768.0000 0.0086936
3769.0000 0.0086936
3770.0000 0.0086936
3771.0000 0.0086776
3772.0000 0.0086377
3773.0000 0.0086218
3774.0000 0.0086218
3775.0000 0.0086536
3776.0000 0.0086377
3777.0000 0.0086218
3778.0000 0.0085114
3779.0000 0.0084023
3780.0000 0.0083637
3781.0000 0.0083406
3782.0000 0.0083406
3783.0000 0.0083791
3784.0000 0.0083946
3785.0000 0.0084178
3786.0000 0.0084178
3787.0000 0.0084023
3788.0000 0.0083946
3789.0000 0.0083791
3790.0000 0.0083637
3791.0000 0.0083406
3792.0000 0.0083406
3793.0000 0.00831
3794.0000 0.0082566
3795.0000 0.0082035
3796.0000 0.0081508
3797.0000 0.0081508
3798.0000 0.0082186
3799.0000 0.008287
3800.0000 0.008598
3801.0000 0.0086377
3802.0000 0.0086536
3803.0000 0.0086617
3804.0000 0.0086776
3805.0000 0.0086936
3806.0000 0.0087176
3807.0000 0.0087498
3808.0000 0.0087741
3809.0000 0.0087741
3810.0000 0.0087741
3811.0000 0.0088064
3812.0000 0.0088471
3813.0000 0.0089289
3814.0000 0.0090199
3815.0000 0.0090033
3816.0000 0.0090033
3817.0000 0.0090033
3818.0000 0.0090033
3819.0000 0.0089784
3820.0000 0.0089784
3821.0000 0.0089289
3822.0000 0.0088879
3823.0000 0.0088879
3824.0000 0.0089207
3825.0000 0.0089207
3826.0000 0.0089043
3827.0000 0.0089043
3828.0000 0.0089207
3829.0000 0.0089454
3830.0000 0.0089207
3831.0000 0.0088879
3832.0000 0.0089207
3833.0000 0.0089454
3834.0000 0.0089454
3835.0000 0.0089454
3836.0000 0.0089619
3837.0000 0.0089867
3838.0000 0.0090199
3839.0000 0.0090448
3840.0000 0.0090448
3841.0000 0.0090448
3842.0000 0.0090615
3843.0000 0.0090615
3844.0000 0.0090448
3845.0000 0.0090448
3846.0000 0.0090199
3847.0000 0.0090033
3848.0000 0.0090033
3849.0000 0.0090033
3850.0000 0.0089784
3851.0000 0.0091369
3852.0000 0.0091369
3853.0000 0.0091622
3854.0000 0.0091791
3855.0000 0.009196
3856.0000 0.0092045
3857.0000 0.0092045
3858.0000 0.009196
3859.0000 0.0091622
3860.0000 0.0091201
3861.0000 0.0090782
3862.0000 0.0090448
3863.0000 0.0090033
3864.0000 0.0090033
3865.0000 0.0090199
3866.0000 0.0090033
3867.0000 0.0089784
3868.0000 0.0089454
3869.0000 0.0089454
3870.0000 0.0089454
3871.0000 0.0089454
3872.0000 0.0089619
3873.0000 0.0089289
3874.0000 0.0089207
3875.0000 0.0088879
3876.0000 0.0088634
3877.0000 0.0088308
3878.0000 0.0088308
3879.0000 0.0087902
3880.0000 0.0087498
3881.0000 0.0087337
3882.0000 0.0087337
3883.0000 0.0087498
3884.0000 0.0087741
3885.0000 0.0087902
3886.0000 0.0088308
3887.0000 0.0088471
3888.0000 0.0088634
3889.0000 0.0088879
3890.0000 0.0089207
3891.0000 0.0089619
3892.0000 0.0090199
3893.0000 0.0090615
3894.0000 0.0091033
3895.0000 0.0091033
3896.0000 0.0091201
3897.0000 0.0091201
3898.0000 0.0091369
3899.0000 0.0091033
3900.0000 0.0091033
3901.0000 0.0090782
3902.0000 0.0090615
3903.0000 0.0090615
3904.0000 0.0090782
3905.0000 0.0090615
3906.0000 0.0090448
3907.0000 0.0090448
3908.0000 0.0090448
3909.0000 0.0090615
3910.0000 0.0090782
3911.0000 0.0090782
3912.0000 0.0091033
3913.0000 0.0091033
3914.0000 0.0091033
3915.0000 0.0091033
3916.0000 0.0091033
3917.0000 0.0090782
3918.0000 0.0090615
3919.0000 0.0090448
3920.0000 0.0090199
3921.0000 0.0090033
3922.0000 0.0089867
3923.0000 0.0090033
3924.0000 0.0090033
3925.0000 0.0089784
3926.0000 0.0089619
3927.0000 0.0089454
3928.0000 0.0089207
3929.0000 0.0089289
3930.0000 0.0089454
3931.0000 0.0089619
3932.0000 0.0089784
3933.0000 0.0090033
3934.0000 0.0090033
3935.0000 0.0090199
3936.0000 0.0090199
3937.0000 0.0090448
3938.0000 0.0090448
3939.0000 0.0090615
3940.0000 0.0090448
3941.0000 0.0090199
3942.0000 0.0090033
3943.0000 0.0090033
3944.0000 0.0089867
3945.0000 0.0089784
3946.0000 0.0089867
3947.0000 0.0090199
3948.0000 0.0090448
3949.0000 0.0090615
3950.0000 0.0090782
3951.0000 0.0090615
3952.0000 0.0090448
3953.0000 0.0090033
3954.0000 0.0089619
3955.0000 0.0089454
3956.0000 0.0089454
3957.0000 0.0089454
3958.0000 0.0089289
3959.0000 0.0089289
3960.0000 0.0089207
3961.0000 0.0089207
3962.0000 0.0089207
3963.0000 0.0089043
3964.0000 0.0088879
3965.0000 0.0088634
3966.0000 0.0088471
3967.0000 0.0088308
3968.0000 0.0088308
3969.0000 0.0088308
3970.0000 0.0088634
3971.0000 0.0088879
3972.0000 0.0089207
3973.0000 0.0089454
3974.0000 0.0089619
3975.0000 0.0089619
3976.0000 0.0089619
3977.0000 0.0089289
3978.0000 0.0089043
3979.0000 0.0088716
3980.0000 0.0088471
3981.0000 0.0088471
3982.0000 0.0088634
3983.0000 0.0088716
3984.0000 0.0088879
3985.0000 0.0088879
3986.0000 0.0088879
3987.0000 0.0088716
3988.0000 0.0088716
3989.0000 0.0088879
3990.0000 0.0089043
3991.0000 0.0089207
3992.0000 0.0089207
3993.0000 0.0089043
3994.0000 0.0089207
3995.0000 0.0089454
3996.0000 0.0089784
3997.0000 0.0090033
3998.0000 0.0090448
3999.0000 0.0090448
4000.0000 0.0090615
4001.0000 0.0090615
4002.0000 0.0090615
4003.0000 0.0090033
4004.0000 0.0089454
4005.0000 0.0089207
4006.0000 0.0088879
4007.0000 0.0089043
4008.0000 0.0089207
4009.0000 0.0089454
4010.0000 0.0089619
4011.0000 0.0089619
4012.0000 0.0089619
4013.0000 0.0089454
4014.0000 0.0089454
4015.0000 0.0089619
4016.0000 0.0089619
4017.0000 0.0089619
4018.0000 0.0089784
4019.0000 0.0089867
4020.0000 0.0090033
4021.0000 0.0090199
4022.0000 0.0090448
4023.0000 0.0090782
4024.0000 0.0091033
4025.0000 0.0091033
4026.0000 0.0091201
4027.0000 0.0091033
4028.0000 0.0091033
4029.0000 0.0091033
4030.0000 0.0091033
4031.0000 0.0091201
4032.0000 0.0091369
4033.0000 0.0091369
4034.0000 0.0091369
4035.0000 0.0091369
4036.0000 0.0091369
4037.0000 0.0091369
4038.0000 0.0091453
4039.0000 0.0091622
4040.0000 0.009196
4041.0000 0.0092215
4042.0000 0.0092045
4043.0000 0.009196
4044.0000 0.009196
4045.0000 0.0091791
4046.0000 0.0091453
4047.0000 0.0091201
4048.0000 0.0091201
4049.0000 0.0091201
4050.0000 0.0091033
4051.0000 0.0091033
4052.0000 0.0091033
4053.0000 0.0091201
4054.0000 0.0091369
4055.0000 0.0091369
4056.0000 0.0091369
4057.0000 0.0091201
4058.0000 0.0091201
4059.0000 0.0091201
4060.0000 0.0091369
4061.0000 0.0091369
4062.0000 0.0091369
4063.0000 0.0091453
4064.0000 0.0091453
4065.0000 0.0091453
4066.0000 0.0091369
4067.0000 0.0091369
4068.0000 0.0091622
4069.0000 0.0091791
4070.0000 0.0092215
4071.0000 0.0092555
4072.0000 0.0092555
4073.0000 0.0092555
4074.0000 0.0092385
4075.0000 0.0092215
4076.0000 0.009196
4077.0000 0.0091622
4078.0000 0.0091369
4079.0000 0.0091201
4080.0000 0.0091033
4081.0000 0.0091033
4082.0000 0.0091033
4083.0000 0.0091201
4084.0000 0.0091453
4085.0000 0.0091622
4086.0000 0.0091622
4087.0000 0.0091453
4088.0000 0.0091201
4089.0000 0.0091033
4090.0000 0.0090615
4091.0000 0.0090448
4092.0000 0.0090448
4093.0000 0.0090448
4094.0000 0.0090782
4095.0000 0.0091033
4096.0000 0.0091201
4097.0000 0.0091201
4098.0000 0.0091201
4099.0000 0.0091369
4100.0000 0.0091369
4101.0000 0.0091369
4102.0000 0.0091369
4103.0000 0.0091201
4104.0000 0.0091201
4105.0000 0.0091201
4106.0000 0.0091201
4107.0000 0.0091201
4108.0000 0.0091201
4109.0000 0.0091201
4110.0000 0.0091201
4111.0000 0.0091201
4112.0000 0.0091201
4113.0000 0.0091369
4114.0000 0.0091369
4115.0000 0.0091453
4116.0000 0.0091453
4117.0000 0.0091453
4118.0000 0.0091201
4119.0000 0.0091033
4120.0000 0.0090782
4121.0000 0.0090782
4122.0000 0.0090615
4123.0000 0.0090615
4124.0000 0.0090615
4125.0000 0.0090448
4126.0000 0.0090615
4127.0000 0.0090615
4128.0000 0.0090615
4129.0000 0.0090615
4130.0000 0.0090615
4131.0000 0.0090615
4132.0000 0.0090448
4133.0000 0.0090448
4134.0000 0.0090615
4135.0000 0.0090615
4136.0000 0.0090615
4137.0000 0.0090448
4138.0000 0.0090448
4139.0000 0.0090199
4140.0000 0.0090033
4141.0000 0.0090033
4142.0000 0.0089784
4143.0000 0.0089619
4144.0000 0.0089619
4145.0000 0.0089619
4146.0000 0.0089784
4147.0000 0.0089784
4148.0000 0.0090033
4149.0000 0.0090199
4150.0000 0.0090448
4151.0000 0.0090448
4152.0000 0.0090448
4153.0000 0.0090448
4154.0000 0.0090199
4155.0000 0.0090033
4156.0000 0.0089867
4157.0000 0.0089867
4158.0000 0.0089867
4159.0000 0.0089867
4160.0000 0.0089784
4161.0000 0.0089784
4162.0000 0.0089784
4163.0000 0.0089867
4164.0000 0.0090033
4165.0000 0.0090033
4166.0000 0.0090199
4167.0000 0.0090448
4168.0000 0.0090448
4169.0000 0.0090448
4170.0000 0.0090448
4171.0000 0.0090448
4172.0000 0.0090448
4173.0000 0.0090448
4174.0000 0.0090448
4175.0000 0.0090199
4176.0000 0.0090199
4177.0000 0.0090199
4178.0000 0.0090199
4179.0000 0.0090199
4180.0000 0.0090199
4181.0000 0.0090199
4182.0000 0.0090199
4183.0000 0.0090448
4184.0000 0.0090448
4185.0000 0.0090448
4186.0000 0.0090448
4187.0000 0.0090615
4188.0000 0.0090615
4189.0000 0.0090615
4190.0000 0.0090782
4191.0000 0.0090782
4192.0000 0.0091033
4193.0000 0.0091033
4194.0000 0.0091033
4195.0000 0.0091033
4196.0000 0.0091033
4197.0000 0.0090782
4198.0000 0.0090615
4199.0000 0.0090448
4200.0000 0.0090448
4201.0000 0.0090448
4202.0000 0.0090448
4203.0000 0.0090448
4204.0000 0.0090615
4205.0000 0.0090782
4206.0000 0.0091033
4207.0000 0.0091033
4208.0000 0.0091201
4209.0000 0.0091201
4210.0000 0.0091201
4211.0000 0.0091033
4212.0000 0.0091033
4213.0000 0.0091033
4214.0000 0.0091033
4215.0000 0.0091201
4216.0000 0.0091201
4217.0000 0.0091369
4218.0000 0.0091622
4219.0000 0.0091791
4220.0000 0.0092045
4221.0000 0.0092385
4222.0000 0.009264
4223.0000 0.0092811
4224.0000 0.0092811
4225.0000 0.009264
4226.0000 0.0092555
4227.0000 0.0092385
4228.0000 0.0092385
4229.0000 0.0092385
4230.0000 0.0092385
4231.0000 0.0092215
4232.0000 0.009196
4233.0000 0.0091791
4234.0000 0.0091453
4235.0000 0.0091369
4236.0000 0.0091201
4237.0000 0.0091201
4238.0000 0.0091201
4239.0000 0.0091201
4240.0000 0.0091201
4241.0000 0.0091201
4242.0000 0.0091201
4243.0000 0.0091201
4244.0000 0.0091201
4245.0000 0.0091201
4246.0000 0.0091369
4247.0000 0.0091369
4248.0000 0.0091369
4249.0000 0.0091369
4250.0000 0.0091369
4251.0000 0.0091453
4252.0000 0.0091622
4253.0000 0.0091791
4254.0000 0.0091791
4255.0000 0.0091622
4256.0000 0.0091453
4257.0000 0.0091453
4258.0000 0.0091369
4259.0000 0.0091453
4260.0000 0.0091622
4261.0000 0.0091453
4262.0000 0.0091369
4263.0000 0.0091369
4264.0000 0.0091453
4265.0000 0.0091622
4266.0000 0.0091791
4267.0000 0.009196
4268.0000 0.009196
4269.0000 0.0091791
4270.0000 0.0091791
4271.0000 0.0091622
4272.0000 0.0091453
4273.0000 0.0091369
4274.0000 0.0091201
4275.0000 0.0091201
4276.0000 0.0091369
4277.0000 0.0091622
4278.0000 0.0091791
4279.0000 0.009196
4280.0000 0.009196
4281.0000 0.009196
4282.0000 0.009196
4283.0000 0.009196
4284.0000 0.0091791
4285.0000 0.0091622
4286.0000 0.0091622
4287.0000 0.0091622
4288.0000 0.0091791
4289.0000 0.0091791
4290.0000 0.0091791
4291.0000 0.0091791
4292.0000 0.0091791
4293.0000 0.0091791
4294.0000 0.0091622
4295.0000 0.0091622
4296.0000 0.0091622
4297.0000 0.0091453
4298.0000 0.0091369
4299.0000 0.0091369
4300.0000 0.0091369
4301.0000 0.0091369
4302.0000 0.0091369
4303.0000 0.0091453
4304.0000 0.0091622
4305.0000 0.0091622
4306.0000 0.0091453
4307.0000 0.0091369
4308.0000 0.0091369
4309.0000 0.0091453
4310.0000 0.0091622
4311.0000 0.0091791
4312.0000 0.009196
4313.0000 0.0092045
4314.0000 0.0092215
4315.0000 0.0092385
4316.0000 0.0092385
4317.0000 0.0092385
4318.0000 0.0092555
4319.0000 0.009264
4320.0000 0.0092982
4321.0000 0.0093239
4322.0000 0.0093239
4323.0000 0.0093239
4324.0000 0.0092811
4325.0000 0.0092385
4326.0000 0.0092215
4327.0000 0.009196
4328.0000 0.0091791
4329.0000 0.0091791
4330.0000 0.0091622
4331.0000 0.0091622
4332.0000 0.0091369
4333.0000 0.0091369
4334.0000 0.0091201
4335.0000 0.0091033
4336.0000 0.0091033
4337.0000 0.0090782
4338.0000 0.0090782
4339.0000 0.0090782
4340.0000 0.0090782
4341.0000 0.0090782
4342.0000 0.0090782
4343.0000 0.0091033
4344.0000 0.0091201
4345.0000 0.0091201
4346.0000 0.0091033
4347.0000 0.0091033
4348.0000 0.0091033
4349.0000 0.0091033
4350.0000 0.0091033
4351.0000 0.0091033
4352.0000 0.0090782
4353.0000 0.0090782
4354.0000 0.0090782
4355.0000 0.0091033
4356.0000 0.0091033
4357.0000 0.0091033
4358.0000 0.0091033
4359.0000 0.0090782
4360.0000 0.0090615
4361.0000 0.0090615
4362.0000 0.0090615
4363.0000 0.0090448
4364.0000 0.0090448
4365.0000 0.0090448
4366.0000 0.0090448
4367.0000 0.0090448
4368.0000 0.0090448
4369.0000 0.0090448
4370.0000 0.0090448
4371.0000 0.0090448
4372.0000 0.0090448
4373.0000 0.0090448
4374.0000 0.0090448
4375.0000 0.0090615
4376.0000 0.0090782
4377.0000 0.0090782
4378.0000 0.0090782
4379.0000 0.0090782
4380.0000 0.0090782
4381.0000 0.0090615
4382.0000 0.0090448
4383.0000 0.0090199
4384.0000 0.0090033
4385.0000 0.0089867
4386.0000 0.0089784
4387.0000 0.0089867
4388.0000 0.0089867
4389.0000 0.0089784
4390.0000 0.0089784
4391.0000 0.0089784
4392.0000 0.0089784
4393.0000 0.0089867
4394.0000 0.0090033
4395.0000 0.0090199
4396.0000 0.0090448
4397.0000 0.0090448
4398.0000 0.0090448
4399.0000 0.0090448
4400.0000 0.0090199
4401.0000 0.0090199
4402.0000 0.0090199
4403.0000 0.0090199
4404.0000 0.0090448
4405.0000 0.0090448
4406.0000 0.0090448
4407.0000 0.0090448
4408.0000 0.0090448
4409.0000 0.0090448
4410.0000 0.0090448
4411.0000 0.0090448
4412.0000 0.0090448
4413.0000 0.0090448
4414.0000 0.0090199
4415.0000 0.0090033
4416.0000 0.0089867
4417.0000 0.0089867
4418.0000 0.0090033
4419.0000 0.0090033
4420.0000 0.0089867
4421.0000 0.0090033
4422.0000 0.0090033
4423.0000 0.0090199
4424.0000 0.0090448
4425.0000 0.0090448
4426.0000 0.0090448
4427.0000 0.0090615
4428.0000 0.0090448
4429.0000 0.0090448
4430.0000 0.0090199
4431.0000 0.0090033
4432.0000 0.0090033
4433.0000 0.0089867
4434.0000 0.0089867
4435.0000 0.0089867
4436.0000 0.0089784
4437.0000 0.0089784
4438.0000 0.0089619
4439.0000 0.0089784
4440.0000 0.0089784
4441.0000 0.0089784
4442.0000 0.0089784
4443.0000 0.0089784
4444.0000 0.0089619
4445.0000 0.0089454
4446.0000 0.0089289
4447.0000 0.0089207
4448.0000 0.0089207
4449.0000 0.0089043
4450.0000 0.0089043
4451.0000 0.0089043
4452.0000 0.0089043
4453.0000 0.0088879
4454.0000 0.0088716
4455.0000 0.0088634
4456.0000 0.0088471
4457.0000 0.0088308
4458.0000 0.0088308
4459.0000 0.0087902
4460.0000 0.0087741
4461.0000 0.0087337
4462.0000 0.0087096
4463.0000 0.0086936
4464.0000 0.0086776
4465.0000 0.0086776
4466.0000 0.0086776
4467.0000 0.0086617
4468.0000 0.0086536
4469.0000 0.0086536
4470.0000 0.0086377
4471.0000 0.0086377
4472.0000 0.0086617
4473.0000 0.0086936
4474.0000 0.0087096
4475.0000 0.0087337
4476.0000 0.0087337
4477.0000 0.0087498
4478.0000 0.0087337
4479.0000 0.0087176
4480.0000 0.0087096
4481.0000 0.0087096
4482.0000 0.0087337
4483.0000 0.0087498
4484.0000 0.0087741
4485.0000 0.0087741
4486.0000 0.0088064
4487.0000 0.0088308
4488.0000 0.0088471
4489.0000 0.0088308
4490.0000 0.0088308
4491.0000 0.0088064
4492.0000 0.0087741
4493.0000 0.0087902
4494.0000 0.0088064
4495.0000 0.0088308
4496.0000 0.0088308
4497.0000 0.0088471
4498.0000 0.0088471
4499.0000 0.0088471
4500.0000 0.0088471
4501.0000 0.0088308
4502.0000 0.0088308
4503.0000 0.0088308
4504.0000 0.0088308
4505.0000 0.0088308
4506.0000 0.0088308
4507.0000 0.0088471
4508.0000 0.0088308
4509.0000 0.0088308
4510.0000 0.0088471
4511.0000 0.0088634
4512.0000 0.0088634
4513.0000 0.0088716
4514.0000 0.0088879
4515.0000 0.0088716
4516.0000 0.0088634
4517.0000 0.0088634
4518.0000 0.0088634
4519.0000 0.0088634
4520.0000 0.0088634
4521.0000 0.0088716
4522.0000 0.0088879
4523.0000 0.0088879
4524.0000 0.0089043
4525.0000 0.0089043
4526.0000 0.0089454
4527.0000 0.0089619
4528.0000 0.0089619
4529.0000 0.0089619
4530.0000 0.0089454
4531.0000 0.0089289
4532.0000 0.0089043
4533.0000 0.0088716
4534.0000 0.0088634
4535.0000 0.0088471
4536.0000 0.0088471
4537.0000 0.0088634
4538.0000 0.0088634
4539.0000 0.0088634
4540.0000 0.0088471
4541.0000 0.0088471
4542.0000 0.0088471
4543.0000 0.0088634
4544.0000 0.0088716
4545.0000 0.0088879
4546.0000 0.0089043
4547.0000 0.0089043
4548.0000 0.0089207
4549.0000 0.0089289
4550.0000 0.0089207
4551.0000 0.0089043
4552.0000 0.0088879
4553.0000 0.0088634
4554.0000 0.0088308
4555.0000 0.0088064
4556.0000 0.0088064
4557.0000 0.0088064
4558.0000 0.0088064
4559.0000 0.0088064
4560.0000 0.0088064
4561.0000 0.0088308
4562.0000 0.0088308
4563.0000 0.0088308
4564.0000 0.0088308
4565.0000 0.0088308
4566.0000 0.0088308
4567.0000 0.0088471
4568.0000 0.0088471
4569.0000 0.0088308
4570.0000 0.0088308
4571.0000 0.0088308
4572.0000 0.0088308
4573.0000 0.0088064
4574.0000 0.0087902
4575.0000 0.0087902
4576.0000 0.0087902
4577.0000 0.0088064
4578.0000 0.0088471
4579.0000 0.0088634
4580.0000 0.0088716
4581.0000 0.0088879
4582.0000 0.0088716
4583.0000 0.0088634
4584.0000 0.0088471
4585.0000 0.0088308
4586.0000 0.0088064
4587.0000 0.0087902
4588.0000 0.0087741
4589.0000 0.0087498
4590.0000 0.0087498
4591.0000 0.0087498
4592.0000 0.0087498
4593.0000 0.0087498
4594.0000 0.0087741
4595.0000 0.0087741
4596.0000 0.0087741
4597.0000 0.0087741
4598.0000 0.0087741
4599.0000 0.0087741
4600.0000 0.0087498
4601.0000 0.0087498
4602.0000 0.0087741
4603.0000 0.0087741
4604.0000 0.0087498
4605.0000 0.0087498
4606.0000 0.0087498
4607.0000 0.0087741
4608.0000 0.0087902
4609.0000 0.0088064
4610.0000 0.0088064
4611.0000 0.0088064
4612.0000 0.0088308
4613.0000 0.0088308
4614.0000 0.0088308
4615.0000 0.0088471
4616.0000 0.0088471
4617.0000 0.0088471
4618.0000 0.0088308
4619.0000 0.0088308
4620.0000 0.0088308
4621.0000 0.0088471
4622.0000 0.0088634
4623.0000 0.0088716
4624.0000 0.0089043
4625.0000 0.0088879
4626.0000 0.0088716
4627.0000 0.0088634
4628.0000 0.0088471
4629.0000 0.0088308
4630.0000 0.0088308
4631.0000 0.0088308
4632.0000 0.0088308
4633.0000 0.0088064
4634.0000 0.0088064
4635.0000 0.0087902
4636.0000 0.0087902
4637.0000 0.0088064
4638.0000 0.0088308
4639.0000 0.0088308
4640.0000 0.0088471
4641.0000 0.0088634
4642.0000 0.0088879
4643.0000 0.0088879
4644.0000 0.0088716
4645.0000 0.0088471
4646.0000 0.0088308
4647.0000 0.0088308
4648.0000 0.0088064
4649.0000 0.0088064
4650.0000 0.0088308
4651.0000 0.0088471
4652.0000 0.0088471
4653.0000 0.0088634
4654.0000 0.0089043
4655.0000 0.0089289
4656.0000 0.0089454
4657.0000 0.0089454
4658.0000 0.0089454
4659.0000 0.0089289
4660.0000 0.0089207
4661.0000 0.0089043
4662.0000 0.0088879
4663.0000 0.0088634
4664.0000 0.0088634
4665.0000 0.0088716
4666.0000 0.0088879
4667.0000 0.0088879
4668.0000 0.0088879
4669.0000 0.0089043
4670.0000 0.0089043
4671.0000 0.0089043
4672.0000 0.0089043
4673.0000 0.0089043
4674.0000 0.0089043
4675.0000 0.0089043
4676.0000 0.0089043
4677.0000 0.0089043
4678.0000 0.0089043
4679.0000 0.0088879
4680.0000 0.0088634
4681.0000 0.0089207
4682.0000 0.0089043
4683.0000 0.0088716
4684.0000 0.0088634
4685.0000 0.0088471
4686.0000 0.0088471
4687.0000 0.0088471
4688.0000 0.0088471
4689.0000 0.0088634
4690.0000 0.0088634
4691.0000 0.0088634
4692.0000 0.0088634
4693.0000 0.0088716
4694.0000 0.0088879
4695.0000 0.0088879
4696.0000 0.0088879
4697.0000 0.0088879
4698.0000 0.0088879
4699.0000 0.0088716
4700.0000 0.0088716
4702.0000 0.0088634
4704.0000 0.0088471
4706.0000 0.0088308
4708.0000 0.0088308
4710.0000 0.0088308
4712.0000 0.0088308
4714.0000 0.0088308
4716.0000 0.0088634
4718.0000 0.0088879
4720.0000 0.0089043
4722.0000 0.0089207
4724.0000 0.0089207
4726.0000 0.0089207
4728.0000 0.0089207
4730.0000 0.0089289
4732.0000 0.0089289
4734.0000 0.0089207
4736.0000 0.0089207
4738.0000 0.0089043
4740.0000 0.0088879
4742.0000 0.0088716
4744.0000 0.0088634
4746.0000 0.0088634
4748.0000 0.0088634
4750.0000 0.0088716
4752.0000 0.0088879
4754.0000 0.0088879
4756.0000 0.0088879
4758.0000 0.0089043
4760.0000 0.0089043
4762.0000 0.0089043
4764.0000 0.0088879
4766.0000 0.0088716
4768.0000 0.0088634
4770.0000 0.0088634
4772.0000 0.0088634
4774.0000 0.0088634
4776.0000 0.0088634
4778.0000 0.0088716
4780.0000 0.0088716
4782.0000 0.0088879
4784.0000 0.0088879
4786.0000 0.0088879
4788.0000 0.0089043
4790.0000 0.0089043
4792.0000 0.0089043
4794.0000 0.0089207
4796.0000 0.0089207
4798.0000 0.0089207
4800.0000 0.0089207
4802.0000 0.0089207
4804.0000 0.0089207
4806.0000 0.0089043
4808.0000 0.0088879
4810.0000 0.0088879
4812.0000 0.0088634
4814.0000 0.0088471
4816.0000 0.0088471
4818.0000 0.0088471
4820.0000 0.0088471
4822.0000 0.0088471
4824.0000 0.0088471
4826.0000 0.0088471
4828.0000 0.0088634
4830.0000 0.0088634
4832.0000 0.0088716
4834.0000 0.0088879
4836.0000 0.0089043
4838.0000 0.0089207
4840.0000 0.0089289
4842.0000 0.0089454
4844.0000 0.0089619
4846.0000 0.0089784
4848.0000 0.0089784
4850.0000 0.0089784
4852.0000 0.0089784
4854.0000 0.0089619
4856.0000 0.0089619
4858.0000 0.0089454
4860.0000 0.0089619
4862.0000 0.0089619
4864.0000 0.0089784
4866.0000 0.0089867
4868.0000 0.0090033
4870.0000 0.0090199
4872.0000 0.0090448
4874.0000 0.0090448
4876.0000 0.0090448
4878.0000 0.0090615
4880.0000 0.0090782
4882.0000 0.0090782
4884.0000 0.0090782
4886.0000 0.0090782
4888.0000 0.0090782
4890.0000 0.0090615
4892.0000 0.0090448
4894.0000 0.0090199
4896.0000 0.0090033
4898.0000 0.0089784
4900.0000 0.0089619
4902.0000 0.0089454
4904.0000 0.0089207
4906.0000 0.0089043
4908.0000 0.0088879
4910.0000 0.0088716
4912.0000 0.0088634
4914.0000 0.0088634
4916.0000 0.0088471
4918.0000 0.0088471
4920.0000 0.0088308
4922.0000 0.0088308
4924.0000 0.0088308
4926.0000 0.0088064
4928.0000 0.0088064
4930.0000 0.0087902
4932.0000 0.0087902
4934.0000 0.0087902
4936.0000 0.0087741
4938.0000 0.0087741
4940.0000 0.0087741
4942.0000 0.0087741
4944.0000 0.0087498
4946.0000 0.0087337
4948.0000 0.0087337
4950.0000 0.0087176
4952.0000 0.0087096
4954.0000 0.0087096
4956.0000 0.0087096
4958.0000 0.0087096
4960.0000 0.0087096
4962.0000 0.0087176
4964.0000 0.0087337
4966.0000 0.0087337
4968.0000 0.0087337
4970.0000 0.0087498
4972.0000 0.0087498
4974.0000 0.0087498
4976.0000 0.0087498
4978.0000 0.0087498
4980.0000 0.0087498
4982.0000 0.0087498
4984.0000 0.0087498
4986.0000 0.0087741
4988.0000 0.0087741
4990.0000 0.0087741
4992.0000 0.0087741
4994.0000 0.0087902
4996.0000 0.0087902
4998.0000 0.0087741
5000.0000 0.0087741
5002.0000 0.0087741
5004.0000 0.0087741
5006.0000 0.0087741
5008.0000 0.0087741
5010.0000 0.0087498
5012.0000 0.0087498
5014.0000 0.0087498
5016.0000 0.0087337
5018.0000 0.0087337
5020.0000 0.0087096
5022.0000 0.0087096
5024.0000 0.0086936
5026.0000 0.0086936
5028.0000 0.0086936
5030.0000 0.0086936
5032.0000 0.0086936
5034.0000 0.0086936
5036.0000 0.0086936
5038.0000 0.0086936
5040.0000 0.0086936
5042.0000 0.0086936
5044.0000 0.0086936
5046.0000 0.0086936
5048.0000 0.0086936
5050.0000 0.0086936
5052.0000 0.0086936
5054.0000 0.0086776
5056.0000 0.0086776
5058.0000 0.0086776
5060.0000 0.0086776
5062.0000 0.0086776
5064.0000 0.0086776
5066.0000 0.0086936
5068.0000 0.0086936
5070.0000 0.0086936
5072.0000 0.0086936
5074.0000 0.0086936
5076.0000 0.0086936
5078.0000 0.0086936
5080.0000 0.0086936
5082.0000 0.0086936
5084.0000 0.0086936
5086.0000 0.0086936
5088.0000 0.0086776
5090.0000 0.0086776
5092.0000 0.0086776
5094.0000 0.0086776
5096.0000 0.0086776
5098.0000 0.0086776
5100.0000 0.0086776
5102.0000 0.0086776
5104.0000 0.0086936
5106.0000 0.0086936
5108.0000 0.0086936
5110.0000 0.0086936
5112.0000 0.0086936
5114.0000 0.0086936
5116.0000 0.0086936
5118.0000 0.0086936
5120.0000 0.0087096
5122.0000 0.0087096
5124.0000 0.0087096
5126.0000 0.0087176
5128.0000 0.0087176
5130.0000 0.0087176
5132.0000 0.0087176
5134.0000 0.0087176
5136.0000 0.0087176
5138.0000 0.0087337
5140.0000 0.0087337
5142.0000 0.0087337
5144.0000 0.0087498
5146.0000 0.0087498
5148.0000 0.0087498
5150.0000 0.0087337
5152.0000 0.0087337
5154.0000 0.0087337
5156.0000 0.0087337
5158.0000 0.0087337
5160.0000 0.0087337
5162.0000 0.0087337
5164.0000 0.0087337
5166.0000 0.0087257
5168.0000 0.0087257
5170.0000 0.0087257
5172.0000 0.0087257
5174.0000 0.0087257
5176.0000 0.0087257
5178.0000 0.0087257
5180.0000 0.0087257
5182.0000 0.0087257
5184.0000 0.0087176
5186.0000 0.0087176
5188.0000 0.0087176
5190.0000 0.0087176
5192.0000 0.0087176
5194.0000 0.0087176
5196.0000 0.0087096
5198.0000 0.0087096
5200.0000 0.0087096
5202.0000 0.0087016
5204.0000 0.0087016
5206.0000 0.0087176
5208.0000 0.0087096
5210.0000 0.0087096
5212.0000 0.0087096
5214.0000 0.0086936
5216.0000 0.0086936
5218.0000 0.0086776
5220.0000 0.0086776
5222.0000 0.0086776
5224.0000 0.0086776
5226.0000 0.0086617
5228.0000 0.0086536
5230.0000 0.0086536
5232.0000 0.0086377
5234.0000 0.0086377
5236.0000 0.0086218
5238.0000 0.0086218
5240.0000 0.008598
5242.0000 0.008598
5244.0000 0.008598
5246.0000 0.008598
5248.0000 0.008598
5250.0000 0.008598
5252.0000 0.0086218
5254.0000 0.0086218
5256.0000 0.0086218
5258.0000 0.0086218
5260.0000 0.0086377
5262.0000 0.0086377
5264.0000 0.0086377
5266.0000 0.0086377
5268.0000 0.0086377
5270.0000 0.0086377
5272.0000 0.0086377
5274.0000 0.0086218
5276.0000 0.0086218
5278.0000 0.008598
5280.0000 0.0085822
5282.0000 0.0085664
5284.0000 0.0085428
5286.0000 0.0085271
5288.0000 0.0085114
5290.0000 0.0085114
5292.0000 0.0084879
5294.0000 0.0084879
5296.0000 0.0084723
5298.0000 0.0084723
5300.0000 0.0084723
5302.0000 0.0084723
5304.0000 0.0084879
5306.0000 0.0084879
5308.0000 0.0084879
5310.0000 0.0085114
5312.0000 0.0085114
5314.0000 0.0085114
5316.0000 0.0085114
5318.0000 0.0085271
5320.0000 0.0085271
5322.0000 0.0085428
5324.0000 0.0085428
5326.0000 0.0085664
5328.0000 0.0085664
5330.0000 0.0085664
5332.0000 0.0085664
5334.0000 0.0085428
5336.0000 0.0085428
5338.0000 0.0085428
5340.0000 0.0085271
5342.0000 0.0085271
5344.0000 0.0085114
5346.0000 0.0085114
5348.0000 0.0084879
5350.0000 0.0084879
5352.0000 0.0084723
5354.0000 0.0084723
5356.0000 0.0084723
5358.0000 0.0084723
5360.0000 0.0084723
5362.0000 0.0084723
5364.0000 0.0084723
5366.0000 0.0084879
5368.0000 0.0084879
5370.0000 0.0084879
5372.0000 0.0084879
5374.0000 0.0084879
5376.0000 0.0084879
5378.0000 0.0084879
5380.0000 0.0084879
5382.0000 0.0084879
5384.0000 0.0084879
5386.0000 0.0084879
5388.0000 0.0084879
5390.0000 0.0084879
5392.0000 0.0084879
5394.0000 0.0084879
5396.0000 0.0084879
5398.0000 0.0084879
5400.0000 0.0084879
5402.0000 0.0084879
5404.0000 0.0084879
5406.0000 0.0084723
5408.0000 0.0084723
5410.0000 0.0084723
5412.0000 0.0084723
5414.0000 0.0084567
5416.0000 0.0084567
5418.0000 0.0084567
5420.0000 0.0084567
5422.0000 0.0084567
5424.0000 0.0084489
5426.0000 0.0084489
5428.0000 0.0084489
5430.0000 0.0084333
5432.0000 0.0084333
5434.0000 0.0084333
5436.0000 0.0084178
5438.0000 0.0084178
5440.0000 0.0084178
5442.0000 0.0084178
5444.0000 0.0084178
5446.0000 0.0084178
5448.0000 0.0084178
5450.0000 0.0084178
5452.0000 0.0084178
5454.0000 0.0084023
5456.0000 0.0083946
5458.0000 0.0083946
5460.0000 0.0083791
5462.0000 0.0083637
5464.0000 0.0083637
5466.0000 0.0083637
5468.0000 0.0083406
5470.0000 0.0083253
5472.0000 0.0083253
5474.0000 0.0083253
5476.0000 0.0083253
5478.0000 0.0083253
5480.0000 0.0083253
5482.0000 0.0083253
5484.0000 0.0083253
5486.0000 0.0083253
5488.0000 0.0083406
5490.0000 0.0083406
5492.0000 0.0083406
5494.0000 0.0083406
5496.0000 0.0083406
5498.0000 0.0083406
5500.0000 0.0083406
5502.0000 0.0083253
5504.0000 0.0083253
5506.0000 0.0083253
5508.0000 0.0083253
5510.0000 0.0083253
5512.0000 0.0083253
5514.0000 0.00831
5516.0000 0.00831
5518.0000 0.00831
5520.0000 0.00831
5522.0000 0.00831
5524.0000 0.00831
5526.0000 0.00831
5528.0000 0.00831
5530.0000 0.00831
5532.0000 0.00831
5534.0000 0.00831
5536.0000 0.00831
5538.0000 0.00831
5540.0000 0.00831
5542.0000 0.00831
5544.0000 0.00831
5546.0000 0.00831
5548.0000 0.008287
5550.0000 0.008287
5552.0000 0.008287
5554.0000 0.008287
5556.0000 0.008287
5558.0000 0.008287
5560.0000 0.008287
5562.0000 0.008287
5564.0000 0.008287
5566.0000 0.008287
5568.0000 0.008287
5570.0000 0.008287
5572.0000 0.008287
5574.0000 0.008287
5576.0000 0.008287
5578.0000 0.008287
5580.0000 0.008287
5582.0000 0.008287
5584.0000 0.0082718
5586.0000 0.0082718
5588.0000 0.0082718
5590.0000 0.0082718
5592.0000 0.0082566
5594.0000 0.008249
5596.0000 0.008249
5598.0000 0.0082338
5600.0000 0.0082338
5602.0000 0.0082186
5604.0000 0.0082186
5606.0000 0.0082186
5608.0000 0.0082035
5610.0000 0.0081959
5612.0000 0.0081959
5614.0000 0.0081959
5616.0000 0.0081808
5618.0000 0.0081808
5620.0000 0.0081808
5622.0000 0.0081658
5624.0000 0.0081658
5626.0000 0.0081658
5628.0000 0.0081658
5630.0000 0.0081508
5632.0000 0.0081508
5634.0000 0.0081508
5636.0000 0.0081508
5638.0000 0.0081433
5640.0000 0.0081433
5642.0000 0.0081433
5644.0000 0.0081433
5646.0000 0.0081433
5648.0000 0.0081433
5650.0000 0.0081433
5652.0000 0.0081433
5654.0000 0.0081433
5656.0000 0.0081433
5658.0000 0.0081283
5660.0000 0.0081283
5662.0000 0.0081283
5664.0000 0.0081283
5666.0000 0.0081133
5668.0000 0.0081133
5670.0000 0.0081133
5672.0000 0.0081133
5674.0000 0.0080909
5676.0000 0.0080909
5678.0000 0.0080909
5680.0000 0.008076
5682.0000 0.008076
5684.0000 0.0080612
5686.0000 0.0080612
5688.0000 0.0080612
5690.0000 0.0080389
5692.0000 0.0080389
5694.0000 0.0080389
5696.0000 0.0080389
5698.0000 0.0080389
5700.0000 0.0080389
5702.0000 0.0080389
5704.0000 0.0080612
5706.0000 0.0080612
5708.0000 0.0080389
5710.0000 0.0080389
5712.0000 0.0080389
5714.0000 0.0080242
5716.0000 0.0080242
5718.0000 0.0080094
5720.0000 0.0080094
5722.0000 0.008002
5724.0000 0.008002
5726.0000 0.0079873
5728.0000 0.0079873
5730.0000 0.0079726
5732.0000 0.0079726
5734.0000 0.0079726
5736.0000 0.0079726
5738.0000 0.0079726
5740.0000 0.0079579
5742.0000 0.0079726
5744.0000 0.0079726
5746.0000 0.0079726
5748.0000 0.0079726
5750.0000 0.0079579
5752.0000 0.0079579
5754.0000 0.0079579
5756.0000 0.0079506
5758.0000 0.0079506
5760.0000 0.0079506
5762.0000 0.0079506
5764.0000 0.007936
5766.0000 0.007936
5768.0000 0.007936
5770.0000 0.0079506
5772.0000 0.0079506
5774.0000 0.0079506
5776.0000 0.0079506
5778.0000 0.0079506
5780.0000 0.0079506
5782.0000 0.0079506
5784.0000 0.0079506
5786.0000 0.0079506
5788.0000 0.007936
5790.0000 0.007936
5792.0000 0.007936
5794.0000 0.007936
5796.0000 0.007936
5798.0000 0.007936
5800.0000 0.007936
5802.0000 0.0079214
5804.0000 0.0079214
5806.0000 0.0079214
5808.0000 0.0079214
5810.0000 0.0079068
5812.0000 0.0079068
5814.0000 0.0078995
5816.0000 0.0078995
5818.0000 0.0078995
5820.0000 0.007885
5822.0000 0.007885
5824.0000 0.0078704
5826.0000 0.0078704
5828.0000 0.0078704
5830.0000 0.0078487
5832.0000 0.0078343
5834.0000 0.0078343
5836.0000 0.0078199
5838.0000 0.0078199
5840.0000 0.0077983
5842.0000 0.0077839
5844.0000 0.0077696
5846.0000 0.0077625
5848.0000 0.0077482
5850.0000 0.0077339
5852.0000 0.0077126
5854.0000 0.0076842
5856.0000 0.0076489
5858.0000 0.0076138
5860.0000 0.0075858
5862.0000 0.0075509
5864.0000 0.0075024
5866.0000 0.0074679
5868.0000 0.0074199
5870.0000 0.0074063
5872.0000 0.0073722
5874.0000 0.0073519
5876.0000 0.0073519
5878.0000 0.0073587
5880.0000 0.0073587
5882.0000 0.0073858
5884.0000 0.0074199
5886.0000 0.0074336
5888.0000 0.0074679
5890.0000 0.0075024
5892.0000 0.0075509
5894.0000 0.0075858
5896.0000 0.0075998
5898.0000 0.0076348
5900.0000 0.0076489
5902.0000 0.007663
5904.0000 0.0076842
5906.0000 0.0076842
5908.0000 0.0076842
5910.0000 0.0076984
5912.0000 0.0076984
5914.0000 0.0076984
5916.0000 0.0077126
5918.0000 0.0077126
5920.0000 0.0077197
5922.0000 0.0077339
5924.0000 0.0077339
5926.0000 0.0077482
5928.0000 0.0077482
5930.0000 0.0077482
5932.0000 0.0077482
5934.0000 0.0077625
5936.0000 0.0077482
5938.0000 0.0077482
5940.0000 0.0077482
5942.0000 0.0077339
5944.0000 0.0077339
5946.0000 0.0077339
5948.0000 0.0077482
5950.0000 0.0077482
5952.0000 0.0077625
5954.0000 0.0077696
5956.0000 0.0077839
5958.0000 0.0077839
5960.0000 0.0077839
5962.0000 0.0077983
5964.0000 0.0077983
5966.0000 0.0077983
5968.0000 0.0077983
5970.0000 0.0077839
5972.0000 0.0077839
5974.0000 0.0077839
5976.0000 0.0077839
5978.0000 0.0077839
5980.0000 0.0077839
5982.0000 0.0077983
5984.0000 0.0077983
5986.0000 0.0077983
5988.0000 0.0077983
5990.0000 0.0077983
5992.0000 0.0077983
5994.0000 0.0077983
5996.0000 0.0077983
5998.0000 0.0077983
6000.0000 0.0077983
6002.0000 0.0077983
6004.0000 0.0077983
6006.0000 0.0077983
6008.0000 0.0077983
6010.0000 0.0077983
6012.0000 0.0077983
6014.0000 0.0077983
6016.0000 0.0077983
6018.0000 0.0077983
6020.0000 0.0077983
6022.0000 0.0077983
6024.0000 0.0077839
6026.0000 0.0077839
6028.0000 0.0077839
6030.0000 0.0077839
6032.0000 0.0077696
6034.0000 0.0077696
6036.0000 0.0077696
6038.0000 0.0077839
6040.0000 0.0077839
6042.0000 0.0077839
6044.0000 0.0077839
6046.0000 0.0077839
6048.0000 0.0077839
6050.0000 0.0077839
6052.0000 0.0077839
6054.0000 0.0077696
6056.0000 0.0077696
6058.0000 0.0077696
6060.0000 0.0077696
6062.0000 0.0077696
6064.0000 0.0077696
6066.0000 0.0077839
6068.0000 0.0077839
6070.0000 0.0077696
6072.0000 0.0077625
6074.0000 0.0077625
6076.0000 0.0077625
6078.0000 0.0077625
6080.0000 0.0077625
6082.0000 0.0077482
6084.0000 0.0077482
6086.0000 0.0077482
6088.0000 0.0077482
6090.0000 0.0077482
6092.0000 0.0077482
6094.0000 0.0077482
6096.0000 0.0077482
6098.0000 0.0077482
6100.0000 0.0077482
6102.0000 0.0077482
6104.0000 0.0077482
6106.0000 0.0077482
6108.0000 0.0077482
6110.0000 0.0077482
6112.0000 0.0077482
6114.0000 0.0077482
6116.0000 0.0077482
6118.0000 0.0077625
6120.0000 0.0077625
6122.0000 0.0077625
6124.0000 0.0077625
6126.0000 0.0077625
6128.0000 0.0077625
6130.0000 0.0077625
6132.0000 0.0077696
6134.0000 0.0077696
6136.0000 0.0077625
6138.0000 0.0077625
6140.0000 0.0077625
6142.0000 0.0077625
6144.0000 0.0077482
6146.0000 0.0077482
6148.0000 0.0077482
6150.0000 0.0077482
6152.0000 0.0077482
6154.0000 0.0077482
6156.0000 0.0077625
6158.0000 0.0077625
6160.0000 0.0077625
6162.0000 0.0077625
6164.0000 0.0077482
6166.0000 0.0077482
6168.0000 0.0077339
6170.0000 0.0077339
6172.0000 0.0077197
6174.0000 0.0077126
6176.0000 0.0077126
6178.0000 0.0077126
6180.0000 0.0077126
6182.0000 0.0077126
6184.0000 0.0077126
6186.0000 0.0076984
6188.0000 0.0076984
6190.0000 0.0076984
6192.0000 0.0076984
6194.0000 0.0076842
6196.0000 0.0076842
6198.0000 0.0076842
6200.0000 0.007663
6202.0000 0.007663
6204.0000 0.007663
6206.0000 0.0076489
6208.0000 0.0076489
6210.0000 0.0076489
6212.0000 0.0076489
6214.0000 0.0076489
6216.0000 0.0076489
6218.0000 0.007663
6220.0000 0.007663
6222.0000 0.007663
6224.0000 0.007663
6226.0000 0.007663
6228.0000 0.007663
6230.0000 0.007663
6232.0000 0.007663
6234.0000 0.007663
6236.0000 0.007663
6238.0000 0.007663
6240.0000 0.007663
6242.0000 0.0076842
6244.0000 0.0076842
6246.0000 0.007663
6248.0000 0.007663
6250.0000 0.0076489
6252.0000 0.0076489
6254.0000 0.0076348
6256.0000 0.0076348
6258.0000 0.0076348
6260.0000 0.0076348
6262.0000 0.0076348
6264.0000 0.0076138
6266.0000 0.0075998
6268.0000 0.0075858
6270.0000 0.0075858
6272.0000 0.0075648
6274.0000 0.0075509
6276.0000 0.0075301
6278.0000 0.0075162
6280.0000 0.0075024
6282.0000 0.0075024
6284.0000 0.0075162
6286.0000 0.0075162
6288.0000 0.0075162
6290.0000 0.0075162
6292.0000 0.0075301
6294.0000 0.0075301
6296.0000 0.0075301
6298.0000 0.007537
6300.0000 0.0075509
6302.0000 0.0075509
6304.0000 0.0075509
6306.0000 0.0075509
6308.0000 0.0075648
6310.0000 0.0075648
6312.0000 0.0075648
6314.0000 0.0075648
6316.0000 0.0075648
6318.0000 0.0075648
6320.0000 0.0075648
6322.0000 0.0075648
6324.0000 0.0075648
6326.0000 0.0075509
6328.0000 0.0075509
6330.0000 0.0075509
6332.0000 0.0075509
6334.0000 0.0075509
6336.0000 0.0075509
6338.0000 0.0075509
6340.0000 0.0075509
6342.0000 0.0075509
6344.0000 0.0075509
6346.0000 0.0075648
6348.0000 0.0075648
6350.0000 0.0075648
6352.0000 0.0075858
6354.0000 0.0075858
6356.0000 0.0075858
6358.0000 0.0075648
6360.0000 0.0075648
6362.0000 0.0075648
6364.0000 0.0075648
6366.0000 0.0075648
6368.0000 0.0075648
6370.0000 0.0075648
6372.0000 0.0075648
6374.0000 0.0075509
6376.0000 0.0075509
6378.0000 0.0075509
6380.0000 0.0075509
6382.0000 0.0075509
6384.0000 0.0075509
6386.0000 0.0075509
6388.0000 0.0075509
6390.0000 0.0075648
6392.0000 0.0075648
6394.0000 0.0075648
6396.0000 0.0075648
6398.0000 0.0075648
6400.0000 0.0075648
6402.0000 0.0075648
6404.0000 0.0075648
6406.0000 0.0075648
6408.0000 0.0075648
6410.0000 0.0075648
6412.0000 0.0075648
6414.0000 0.0075509
6416.0000 0.0075509
6418.0000 0.0075509
6420.0000 0.0075509
6422.0000 0.0075509
6424.0000 0.0075509
6426.0000 0.007537
6428.0000 0.007537
6430.0000 0.007537
6432.0000 0.007537
6434.0000 0.007537
6436.0000 0.007537
6438.0000 0.0075301
6440.0000 0.0075301
6442.0000 0.0075301
6444.0000 0.0075301
6446.0000 0.0075162
6448.0000 0.0075162
6450.0000 0.0075024
6452.0000 0.0074886
6454.0000 0.0074817
6456.0000 0.0074817
6458.0000 0.0074679
6460.0000 0.0074679
6462.0000 0.0074542
6464.0000 0.0074542
6466.0000 0.0074336
6468.0000 0.0074199
6470.0000 0.0074199
6472.0000 0.0074063
6474.0000 0.0074063
6476.0000 0.0074063
6478.0000 0.0074063
6480.0000 0.0074063
6482.0000 0.0074063
6484.0000 0.0074063
6486.0000 0.0074063
6488.0000 0.0074063
6490.0000 0.0074063
6492.0000 0.0074199
6494.0000 0.0074063
6496.0000 0.0074063
6498.0000 0.0074063
6500.0000 0.0073858
6502.0000 0.0073587
6504.0000 0.0073519
6506.0000 0.0073249
6508.0000 0.0073047
6510.0000 0.0072778
6512.0000 0.0072644
6514.0000 0.0072444
6516.0000 0.007231
6518.0000 0.0072111
6520.0000 0.0071978
6522.0000 0.0071845
6524.0000 0.0071647
6526.0000 0.0071647
6528.0000 0.0071516
6530.0000 0.0071384
6532.0000 0.0071318
6534.0000 0.0071318
6536.0000 0.0071187
6538.0000 0.0071056
6540.0000 0.007086
6542.0000 0.0070729
6544.0000 0.0070469
6546.0000 0.0070275
6548.0000 0.0069952
6550.0000 0.0069695
6552.0000 0.0069374
6554.0000 0.0069183
6556.0000 0.0068929
6558.0000 0.0068612
6560.0000 0.0068486
6562.0000 0.0068486
6564.0000 0.0068296
6566.0000 0.0068296
6568.0000 0.0068296
6570.0000 0.0068486
6572.0000 0.0068612
6574.0000 0.0068802
6576.0000 0.0069056
6578.0000 0.0069247
6580.0000 0.0069502
6582.0000 0.0069695
6584.0000 0.0069952
6586.0000 0.0070145
6588.0000 0.0070275
6590.0000 0.0070469
6592.0000 0.0070599
6594.0000 0.007086
6596.0000 0.0070925
6598.0000 0.0071056
6600.0000 0.0071187
6602.0000 0.0071318
6604.0000 0.0071318
6606.0000 0.0071516
6608.0000 0.0071516
6610.0000 0.0071647
6612.0000 0.0071845
6614.0000 0.0071978
6616.0000 0.0071978
6618.0000 0.0072111
6620.0000 0.007231
6622.0000 0.007231
6624.0000 0.007231
6626.0000 0.007231
6628.0000 0.007231
6630.0000 0.007231
6632.0000 0.007231
6634.0000 0.0072111
6636.0000 0.0072111
6638.0000 0.0072111
6640.0000 0.0071978
6642.0000 0.0071978
6644.0000 0.0071978
6646.0000 0.0071845
6648.0000 0.0071845
6650.0000 0.0071845
6652.0000 0.0071845
6654.0000 0.0071845
6656.0000 0.0071647
6658.0000 0.0071647
6660.0000 0.0071516
6662.0000 0.0071384
6664.0000 0.0071187
6666.0000 0.0071056
6668.0000 0.0070925
6670.0000 0.0070729
6672.0000 0.0070599
6674.0000 0.0070404
6676.0000 0.0070404
6678.0000 0.0070275
6680.0000 0.0070145
6682.0000 0.0070145
6684.0000 0.0070145
6686.0000 0.0070145
6688.0000 0.0070145
6690.0000 0.0070275
6692.0000 0.0070404
6694.0000 0.0070599
6696.0000 0.0070729
6698.0000 0.0071056
6700.0000 0.0071187
6702.0000 0.0071318
6704.0000 0.0071516
6706.0000 0.0071647
6708.0000 0.0071647
6710.0000 0.0071845
6712.0000 0.0071845
6714.0000 0.0071845
6716.0000 0.0071845
6718.0000 0.0071845
6720.0000 0.0071845
6722.0000 0.0071845
6724.0000 0.0071845
6726.0000 0.0071845
6728.0000 0.0071647
6730.0000 0.0071647
6732.0000 0.0071647
6734.0000 0.0071516
6736.0000 0.0071516
6738.0000 0.0071647
6740.0000 0.0071647
6742.0000 0.0071647
6744.0000 0.0071845
6746.0000 0.0071845
6748.0000 0.0071845
6750.0000 0.0071845
6752.0000 0.0071845
6754.0000 0.0071845
6756.0000 0.0071845
6758.0000 0.0071647
6760.0000 0.0071647
6762.0000 0.0071647
6764.0000 0.0071516
6766.0000 0.0071516
6768.0000 0.0071516
6770.0000 0.0071516
6772.0000 0.0071384
6774.0000 0.0071384
6776.0000 0.0071384
6778.0000 0.0071384
6780.0000 0.0071384
6782.0000 0.0071516
6784.0000 0.0071516
6786.0000 0.0071516
6788.0000 0.0071647
6790.0000 0.0071647
6792.0000 0.0071845
6794.0000 0.0071845
6796.0000 0.0071845
6798.0000 0.0071845
6800.0000 0.0071978
6802.0000 0.0071978
6804.0000 0.0071978
6806.0000 0.0071845
6808.0000 0.0071845
6810.0000 0.0071845
6812.0000 0.0071647
6814.0000 0.0071516
6816.0000 0.0071516
6818.0000 0.0071516
6820.0000 0.0071516
6822.0000 0.0071516
6824.0000 0.0071516
6826.0000 0.0071516
6828.0000 0.0071516
6830.0000 0.0071647
6832.0000 0.0071647
6834.0000 0.0071845
6836.0000 0.0071845
6838.0000 0.0071845
6840.0000 0.0071845
6842.0000 0.0071978
6844.0000 0.0071978
6846.0000 0.0071516
6848.0000 0.0071516
6850.0000 0.007145
6852.0000 0.007145
6854.0000 0.007145
6856.0000 0.0071384
6858.0000 0.0071384
6860.0000 0.0071384
6862.0000 0.0071318
6864.0000 0.0071318
6866.0000 0.0071318
6868.0000 0.0071318
6870.0000 0.0071253
6872.0000 0.0071253
6874.0000 0.0071253
6876.0000 0.0071187
6878.0000 0.0071187
6880.0000 0.0071121
6882.0000 0.0071121
6884.0000 0.0071121
6886.0000 0.0071056
6888.0000 0.0071056
6890.0000 0.0071056
6892.0000 0.007099
6894.0000 0.007099
6896.0000 0.007099
6898.0000 0.0070925
6900.0000 0.0070925
6902.0000 0.007086
6904.0000 0.007086
6906.0000 0.007086
6908.0000 0.0070795
6910.0000 0.0070795
6912.0000 0.0070729
6914.0000 0.0070729
6916.0000 0.0070664
6918.0000 0.0070664
6920.0000 0.0070599
6922.0000 0.0070599
6924.0000 0.0070599
6926.0000 0.0070534
6928.0000 0.0070534
6930.0000 0.0070469
6932.0000 0.0070469
6934.0000 0.0070404
6936.0000 0.0070404
6938.0000 0.007034
6940.0000 0.007034
6942.0000 0.0070275
6944.0000 0.0070275
6946.0000 0.007021
6948.0000 0.007021
6950.0000 0.0070145
6952.0000 0.0069823
6954.0000 0.0069695
6956.0000 0.0069695
6958.0000 0.0069695
6960.0000 0.0069695
6962.0000 0.0069695
6964.0000 0.0069695
6966.0000 0.0069695
6968.0000 0.0069695
6970.0000 0.0069695
6972.0000 0.0069695
6974.0000 0.0069695
6976.0000 0.0069695
6978.0000 0.0069695
6980.0000 0.0069695
6982.0000 0.0069695
6984.0000 0.0069695
6986.0000 0.0069695
6988.0000 0.0069695
6990.0000 0.0069695
6992.0000 0.0069695
6994.0000 0.0069502
6996.0000 0.0069502
6998.0000 0.0069502
7000.0000 0.0069374
7002.0000 0.0069247
7004.0000 0.0069183
7006.0000 0.0069056
7008.0000 0.0068929
7010.0000 0.0068738
7012.0000 0.0068612
7014.0000 0.0068486
7016.0000 0.0068486
7018.0000 0.0068486
7020.0000 0.0068296
7022.0000 0.0068296
7024.0000 0.0068296
7026.0000 0.0068486
7028.0000 0.0068486
7030.0000 0.0068486
7032.0000 0.0068486
7034.0000 0.0068486
7036.0000 0.0068486
7038.0000 0.0068486
7040.0000 0.0068486
7042.0000 0.0068486
7044.0000 0.0068296
7046.0000 0.0068296
7048.0000 0.0068296
7050.0000 0.0068171
7052.0000 0.0068296
7054.0000 0.0068296
7056.0000 0.0068486
7058.0000 0.0068486
7060.0000 0.0068612
7062.0000 0.0068738
7064.0000 0.0068802
7066.0000 0.0068929
7068.0000 0.0068929
7070.0000 0.0068929
7072.0000 0.0068802
7074.0000 0.0068738
7076.0000 0.0068612
7078.0000 0.0068486
7080.0000 0.0068296
7082.0000 0.0068296
7084.0000 0.0068171
7086.0000 0.0068171
7088.0000 0.0068171
7090.0000 0.0068171
7092.0000 0.0068296
7094.0000 0.0068296
7096.0000 0.0068486
7098.0000 0.0068486
7100.0000 0.0068612
7102.0000 0.0068738
7104.0000 0.0068929
7106.0000 0.0068929
7108.0000 0.0069056
7110.0000 0.0069183
7112.0000 0.0069247
7114.0000 0.0069247
7116.0000 0.0069374
7118.0000 0.0069374
7120.0000 0.0069374
7122.0000 0.0069247
7124.0000 0.0069183
7126.0000 0.0069056
7128.0000 0.0068929
7130.0000 0.0068738
7132.0000 0.0068612
7134.0000 0.0068486
7136.0000 0.0068171
7138.0000 0.0068171
7140.0000 0.0068046
7142.0000 0.0068046
7144.0000 0.0068046
7146.0000 0.0068046
7148.0000 0.0068046
7150.0000 0.0068046
7152.0000 0.0068046
7154.0000 0.0068046
7156.0000 0.0067858
7158.0000 0.0067733
7160.0000 0.0067608
7162.0000 0.0067421
7164.0000 0.0067174
7166.0000 0.0066988
7168.0000 0.0066865
7170.0000 0.0066865
7172.0000 0.0066742
7174.0000 0.0066742
7176.0000 0.0066865
7178.0000 0.0066865
7180.0000 0.0066865
7182.0000 0.0066988
7184.0000 0.0066988
7186.0000 0.0067112
7188.0000 0.0067174
7190.0000 0.0067298
7192.0000 0.0067421
7194.0000 0.0067608
7196.0000 0.0067608
7198.0000 0.0067733
7200.0000 0.0067858
7202.0000 0.0067858
7204.0000 0.0068046
7206.0000 0.0068171
7208.0000 0.0068296
7210.0000 0.0068296
7212.0000 0.0068296
7214.0000 0.0068296
7216.0000 0.0068171
7218.0000 0.0068046
7220.0000 0.0067733
7222.0000 0.0067608
7224.0000 0.0067298
7226.0000 0.0067112
7228.0000 0.0066865
7230.0000 0.0066681
7232.0000 0.0066558
7234.0000 0.0066435
7236.0000 0.0066435
7238.0000 0.0066435
7240.0000 0.0066435
7242.0000 0.0066435
7244.0000 0.0066435
7246.0000 0.0066435
7248.0000 0.0066435
7250.0000 0.0066435
7252.0000 0.0066435
7254.0000 0.0066252
7256.0000 0.006613
7258.0000 0.006613
7260.0000 0.0066008
7262.0000 0.0066008
7264.0000 0.0065826
7266.0000 0.0065826
7268.0000 0.0065826
7270.0000 0.0065826
7272.0000 0.0066008
7274.0000 0.0066008
7276.0000 0.0066008
7278.0000 0.0066252
7280.0000 0.0066435
7282.0000 0.0066435
7284.0000 0.0066435
7286.0000 0.0066435
7288.0000 0.0066435
7290.0000 0.0066435
7292.0000 0.0066252
7294.0000 0.006613
7296.0000 0.0066008
7298.0000 0.0066008
7300.0000 0.0066008
7302.0000 0.0066008
7304.0000 0.0065826
7306.0000 0.0065826
7308.0000 0.0066008
7310.0000 0.0066008
7312.0000 0.0066008
7314.0000 0.006613
7316.0000 0.0066252
7318.0000 0.0066435
7320.0000 0.0066435
7322.0000 0.0066558
7324.0000 0.0066558
7326.0000 0.0066681
7328.0000 0.0066681
7330.0000 0.0066742
7332.0000 0.0066865
7334.0000 0.0066865
7336.0000 0.0066865
7338.0000 0.0066865
7340.0000 0.0066865
7342.0000 0.0066865
7344.0000 0.0066865
7346.0000 0.0066742
7348.0000 0.0066681
7350.0000 0.0066681
7352.0000 0.0066558
7354.0000 0.0066558
7356.0000 0.0066558
7358.0000 0.0066435
7360.0000 0.0066435
7362.0000 0.0066435
7364.0000 0.0066558
7366.0000 0.0066558
7368.0000 0.0066681
7370.0000 0.0066742
7372.0000 0.0066865
7374.0000 0.0066865
7376.0000 0.0066865
7378.0000 0.0066865
7380.0000 0.0066865
7382.0000 0.0066865
7384.0000 0.0066742
7386.0000 0.0066742
7388.0000 0.0066681
7390.0000 0.0066681
7392.0000 0.0066681
7394.0000 0.0066681
7396.0000 0.0066681
7398.0000 0.0066742
7400.0000 0.0066742
7402.0000 0.0066742
7404.0000 0.0066865
7406.0000 0.0066865
7408.0000 0.0066865
7410.0000 0.0066865
7412.0000 0.0066865
7414.0000 0.0066865
7416.0000 0.0066865
7418.0000 0.0066865
7420.0000 0.0066742
7422.0000 0.0066681
7424.0000 0.0066681
7426.0000 0.0066681
7428.0000 0.0066681
7430.0000 0.0066558
7432.0000 0.0066558
7434.0000 0.0066558
7436.0000 0.0066558
7438.0000 0.0066558
7440.0000 0.0066558
7442.0000 0.0066558
7444.0000 0.0066435
7446.0000 0.0066435
7448.0000 0.0066435
7450.0000 0.0066435
7452.0000 0.0066435
7454.0000 0.0066435
7456.0000 0.0066435
7458.0000 0.0066435
7460.0000 0.0066435
7462.0000 0.0066435
7464.0000 0.0066435
7466.0000 0.0066435
7468.0000 0.0066435
7470.0000 0.0066435
7472.0000 0.0066435
7474.0000 0.0066252
7476.0000 0.0066252
7478.0000 0.0066252
7480.0000 0.0066252
7482.0000 0.006613
7484.0000 0.006613
7486.0000 0.006613
7488.0000 0.006613
7490.0000 0.006613
7492.0000 0.006613
7494.0000 0.006613
7496.0000 0.006613
7498.0000 0.006613
7500.0000 0.0066252
7502.0000 0.0066252
7504.0000 0.006613
7506.0000 0.006613
7508.0000 0.006613
7510.0000 0.006613
7512.0000 0.0066008
7514.0000 0.0066008
7516.0000 0.0066008
7518.0000 0.0065826
7520.0000 0.0065826
7522.0000 0.0065705
7524.0000 0.0065705
7526.0000 0.0065705
7528.0000 0.0065584
7530.0000 0.0065584
7532.0000 0.0065524
7534.0000 0.0065524
7536.0000 0.0065524
7538.0000 0.0065524
7540.0000 0.0065524
7542.0000 0.0065403
7544.0000 0.0065403
7546.0000 0.0065403
7548.0000 0.0065403
7550.0000 0.0065705
7552.0000 0.0065705
7554.0000 0.0065705
7556.0000 0.0065645
7558.0000 0.0065645
7560.0000 0.0065645
7562.0000 0.0065645
7564.0000 0.0065645
7566.0000 0.0065584
7568.0000 0.0065584
7570.0000 0.0065584
7572.0000 0.0065584
7574.0000 0.0065524
7576.0000 0.0065524
7578.0000 0.0065524
7580.0000 0.0065524
7582.0000 0.0065464
7584.0000 0.0065464
7586.0000 0.0065464
7588.0000 0.0065403
7590.0000 0.0065403
7592.0000 0.0065403
7594.0000 0.0065403
7596.0000 0.0065343
7598.0000 0.0065343
7600.0000 0.0065343
7602.0000 0.0065343
7604.0000 0.0065283
7606.0000 0.0065283
7608.0000 0.0065283
7610.0000 0.0065223
7612.0000 0.0065223
7614.0000 0.0065223
7616.0000 0.0065163
7618.0000 0.0065163
7620.0000 0.0065163
7622.0000 0.0065103
7624.0000 0.0065103
7626.0000 0.0065103
7628.0000 0.0065043
7630.0000 0.0065043
7632.0000 0.0065043
7634.0000 0.0064983
7636.0000 0.0064983
7638.0000 0.0064983
7640.0000 0.0064923
7642.0000 0.0064923
7644.0000 0.0064923
7646.0000 0.0064863
7648.0000 0.0064863
7650.0000 0.0064863
7652.0000 0.0064804
7654.0000 0.0064804
7656.0000 0.0064804
7658.0000 0.0064744
7660.0000 0.0064744
7662.0000 0.0064685
7664.0000 0.0064685
7666.0000 0.0064685
7668.0000 0.0064625
7670.0000 0.0064625
7672.0000 0.0064565
7674.0000 0.0064565
7676.0000 0.0064565
7678.0000 0.0064506
7680.0000 0.0064506
7682.0000 0.0064446
7684.0000 0.0064446
7686.0000 0.0064446
7688.0000 0.0064387
7690.0000 0.0064387
7692.0000 0.0064685
7694.0000 0.0064565
7696.0000 0.0064565
7698.0000 0.0064446
7700.0000 0.0064446
7702.0000 0.0064446
7704.0000 0.0064269
7706.0000 0.0064269
7708.0000 0.006415
7710.0000 0.006415
7712.0000 0.006415
7714.0000 0.006415
7716.0000 0.006415
7718.0000 0.006415
7720.0000 0.006415
7722.0000 0.006415
7724.0000 0.006415
7726.0000 0.0064032
7728.0000 0.0064032
7730.0000 0.0063856
7732.0000 0.0063738
7734.0000 0.0063562
7736.0000 0.0063445
7738.0000 0.0063445
7740.0000 0.0063329
7742.0000 0.0063329
7744.0000 0.0063212
7746.0000 0.0063329
7748.0000 0.0063329
7750.0000 0.0063329
7752.0000 0.0063445
7754.0000 0.0063445
7756.0000 0.0063562
7758.0000 0.0063562
7760.0000 0.0063562
7762.0000 0.0063621
7764.0000 0.0063621
7766.0000 0.0063621
7768.0000 0.0063621
7770.0000 0.0063621
7772.0000 0.0063621
7774.0000 0.0063621
7776.0000 0.0063562
7778.0000 0.0063562
7780.0000 0.0063445
7782.0000 0.0063445
7784.0000 0.0063329
7786.0000 0.0063329
7788.0000 0.0063212
7790.0000 0.0063212
7792.0000 0.0063212
7794.0000 0.0063212
7796.0000 0.0063154
7798.0000 0.0063154
7800.0000 0.0063154
7802.0000 0.0063038
7804.0000 0.0062922
7806.0000 0.0062922
7808.0000 0.0062922
7810.0000 0.0062922
7812.0000 0.0062922
7814.0000 0.0062922
7816.0000 0.0062922
7818.0000 0.0062922
7820.0000 0.0062922
7822.0000 0.0062922
7824.0000 0.0062922
7826.0000 0.0062806
7828.0000 0.0062748
7830.0000 0.0062748
7832.0000 0.0062748
7834.0000 0.0062633
7836.0000 0.0062633
7838.0000 0.0062633
7840.0000 0.0062633
7842.0000 0.0062633
7844.0000 0.0062633
7846.0000 0.0062633
7848.0000 0.0062748
7850.0000 0.0062633
7852.0000 0.0062633
7854.0000 0.0062633
7856.0000 0.0062633
7858.0000 0.0062517
7860.0000 0.0062517
7862.0000 0.0062345
7864.0000 0.0062345
7866.0000 0.006223
7868.0000 0.006223
7870.0000 0.0062115
7872.0000 0.0062115
7874.0000 0.0062115
7876.0000 0.0062115
7878.0000 0.0062115
7880.0000 0.0061944
7882.0000 0.0061944
7884.0000 0.006183
7886.0000 0.006183
7888.0000 0.006183
7890.0000 0.006183
7892.0000 0.0061716
7894.0000 0.0061716
7896.0000 0.0061716
7898.0000 0.0061716
7900.0000 0.0061716
7902.0000 0.0061716
7904.0000 0.0061716
7906.0000 0.0061716
7908.0000 0.0061716
7910.0000 0.0061716
7912.0000 0.0061716
7914.0000 0.006183
7916.0000 0.006183
7918.0000 0.006183
7920.0000 0.006183
7922.0000 0.006183
7924.0000 0.006183
7926.0000 0.006183
7928.0000 0.006183
7930.0000 0.0061944
7932.0000 0.0061944
7934.0000 0.0061944
7936.0000 0.0061944
7938.0000 0.006183
7940.0000 0.006183
7942.0000 0.0061716
7944.0000 0.0061659
7946.0000 0.0061546
7948.0000 0.0061546
7950.0000 0.0061433
7952.0000 0.0061433
7954.0000 0.0061433
7956.0000 0.0061433
7958.0000 0.0061433
7960.0000 0.0061433
7962.0000 0.0061433
7964.0000 0.0061546
7966.0000 0.0061546
7968.0000 0.0061546
7970.0000 0.0061546
7972.0000 0.0061546
7974.0000 0.0061546
7976.0000 0.0061433
7978.0000 0.006132
7980.0000 0.0061263
7982.0000 0.006115
7984.0000 0.006115
7986.0000 0.0061038
7988.0000 0.0061038
7990.0000 0.0061038
7992.0000 0.0061038
7994.0000 0.0061038
7996.0000 0.0060869
7998.0000 0.0060757
8000.0000 0.0060757
8002.0000 0.0060757
8004.0000 0.0060757
8006.0000 0.0060757
8008.0000 0.0060757
8010.0000 0.0060757
8012.0000 0.0060757
8014.0000 0.0060757
8016.0000 0.0060757
8018.0000 0.0060869
8020.0000 0.0060869
8022.0000 0.0060869
8024.0000 0.0061038
8026.0000 0.0061038
8028.0000 0.0061038
8030.0000 0.0061038
8032.0000 0.0061038
8034.0000 0.0061038
8036.0000 0.0061038
8038.0000 0.0061038
8040.0000 0.0061038
8042.0000 0.0061038
8044.0000 0.0061038
8046.0000 0.0061038
8048.0000 0.0061038
8050.0000 0.0060869
8052.0000 0.0060869
8054.0000 0.0060869
8056.0000 0.0060757
8058.0000 0.0060757
8060.0000 0.0060646
8062.0000 0.0060646
8064.0000 0.0060646
8066.0000 0.0060646
8068.0000 0.0060646
8070.0000 0.0060646
8072.0000 0.0060646
8074.0000 0.0060646
8076.0000 0.0060478
8078.0000 0.0060367
8080.0000 0.0060367
8082.0000 0.0060256
8084.0000 0.0060256
8086.0000 0.0060256
8088.0000 0.0060256
8090.0000 0.0060256
8092.0000 0.0060256
8094.0000 0.006009
8096.0000 0.006009
8098.0000 0.006009
8100.0000 0.006009
8102.0000 0.006009
8104.0000 0.006009
8106.0000 0.0059979
8108.0000 0.0059979
8110.0000 0.0059869
8112.0000 0.0059814
8114.0000 0.0059814
8116.0000 0.0059703
8118.0000 0.0059594
8120.0000 0.0059484
8122.0000 0.0059429
8124.0000 0.0059211
8126.0000 0.0059047
8128.0000 0.0058939
8130.0000 0.005883
8132.0000 0.005856
8134.0000 0.0058452
8136.0000 0.0058398
8138.0000 0.0058291
8140.0000 0.0058291
8142.0000 0.0058291
8144.0000 0.0058291
8146.0000 0.0058291
8148.0000 0.0058291
8150.0000 0.0058291
8152.0000 0.0058291
8154.0000 0.0058398
8156.0000 0.0058398
8158.0000 0.0058398
8160.0000 0.0058452
8162.0000 0.005856
8164.0000 0.005856
8166.0000 0.005883
8168.0000 0.005883
8170.0000 0.0058939
8172.0000 0.0059047
8174.0000 0.0059211
8176.0000 0.0059211
8178.0000 0.0059211
8180.0000 0.0059211
8182.0000 0.0059211
8184.0000 0.0059211
8186.0000 0.0059211
8188.0000 0.005932
8190.0000 0.005932
8192.0000 0.0059429
8194.0000 0.0059484
8196.0000 0.0059594
8198.0000 0.0059594
8200.0000 0.0059703
8202.0000 0.0059703
8204.0000 0.0059594
8206.0000 0.0059594
8208.0000 0.0059429
8210.0000 0.0059211
8212.0000 0.0059047
8214.0000 0.005883
8216.0000 0.005856
8218.0000 0.0058291
8220.0000 0.0058076
8222.0000 0.0058023
8224.0000 0.0057809
8226.0000 0.0057916
8228.0000 0.0058023
8230.0000 0.0058183
8232.0000 0.0058452
8234.0000 0.005883
8236.0000 0.0059211
8238.0000 0.0059429
8240.0000 0.0059703
8242.0000 0.0059814
8244.0000 0.0059869
8246.0000 0.0059814
8248.0000 0.0059703
8250.0000 0.0059594
8252.0000 0.0059429
8254.0000 0.0059211
8256.0000 0.0059047
8258.0000 0.0058939
8260.0000 0.005883
8262.0000 0.005883
8264.0000 0.0058668
8266.0000 0.0058668
8268.0000 0.005856
8270.0000 0.0058452
8272.0000 0.0058398
8274.0000 0.0058398
8276.0000 0.0058291
8278.0000 0.0058291
8280.0000 0.0058291
8282.0000 0.0058398
8284.0000 0.0058398
8286.0000 0.0058452
8288.0000 0.005856
8290.0000 0.0058668
8292.0000 0.0058668
8294.0000 0.0058668
8296.0000 0.0058668
8298.0000 0.005856
8300.0000 0.005856
8302.0000 0.0058452
8304.0000 0.0058398
8306.0000 0.0058398
8308.0000 0.0058291
8310.0000 0.0058183
8312.0000 0.0058183
8314.0000 0.0058183
8316.0000 0.0058076
8318.0000 0.0058183
8320.0000 0.0058183
8322.0000 0.0058183
8324.0000 0.0058291
8326.0000 0.0058398
8328.0000 0.0058398
8330.0000 0.0058452
8332.0000 0.0058452
8334.0000 0.005856
8336.0000 0.005856
8338.0000 0.005856
8340.0000 0.005856
8342.0000 0.005856
8344.0000 0.005856
8346.0000 0.0058452
8348.0000 0.0058398
8350.0000 0.0058183
8352.0000 0.0058076
8354.0000 0.0058023
8356.0000 0.0057916
8358.0000 0.0057809
8360.0000 0.0057916
8362.0000 0.0057916
8364.0000 0.0057916
8366.0000 0.0058023
8368.0000 0.0058023
8370.0000 0.0058076
8372.0000 0.0058183
8374.0000 0.0058291
8376.0000 0.0058291
8378.0000 0.0058291
8380.0000 0.0058398
8382.0000 0.0058398
8384.0000 0.0058398
8386.0000 0.0058398
8388.0000 0.0058398
8390.0000 0.0058291
8392.0000 0.0058291
8394.0000 0.0058291
8396.0000 0.0058291
8398.0000 0.0058291
8400.0000 0.0058291
8402.0000 0.0058291
8404.0000 0.0058291
8406.0000 0.0058183
8408.0000 0.0058076
8410.0000 0.0058023
8412.0000 0.0057916
8414.0000 0.0057809
8416.0000 0.0057809
8418.0000 0.0057809
8420.0000 0.0057703
8422.0000 0.005765
8424.0000 0.0057544
8426.0000 0.0057544
8428.0000 0.0057544
8430.0000 0.0057544
8432.0000 0.0057544
8434.0000 0.0057544
8436.0000 0.005765
8438.0000 0.0057703
8440.0000 0.0057809
8442.0000 0.0057809
8444.0000 0.0057916
8446.0000 0.0057916
8448.0000 0.0057916
8450.0000 0.0057809
8452.0000 0.0057809
8454.0000 0.0057809
8456.0000 0.0057809
8458.0000 0.0057809
8460.0000 0.0057809
8462.0000 0.0057916
8464.0000 0.0057916
8466.0000 0.0057916
8468.0000 0.0057916
8470.0000 0.0057916
8472.0000 0.0057809
8474.0000 0.0057809
8476.0000 0.0057809
8478.0000 0.0057703
8480.0000 0.0057703
8482.0000 0.0057703
8484.0000 0.0057703
8486.0000 0.0057703
8488.0000 0.0057703
8490.0000 0.0057809
8492.0000 0.0057809
8494.0000 0.0057703
8496.0000 0.0057703
8498.0000 0.005765
8500.0000 0.005765
8502.0000 0.0057544
8504.0000 0.0057438
8506.0000 0.005728
8508.0000 0.005728
8510.0000 0.0057174
8512.0000 0.005728
8514.0000 0.005728
8516.0000 0.0057438
8518.0000 0.0057544
8520.0000 0.0057809
8522.0000 0.0058023
8524.0000 0.0058183
8526.0000 0.0058452
8528.0000 0.005883
8530.0000 0.0058939
8532.0000 0.0059047
8534.0000 0.005932
8536.0000 0.005932
8538.0000 0.005932
8540.0000 0.005932
8542.0000 0.0059211
8544.0000 0.0059047
8546.0000 0.005883
8548.0000 0.005856
8550.0000 0.0058291
8552.0000 0.0057916
8554.0000 0.005765
8556.0000 0.0057438
8558.0000 0.0057174
8560.0000 0.0057069
8562.0000 0.0056807
8564.0000 0.0056702
8566.0000 0.0056546
8568.0000 0.0056546
8570.0000 0.0056441
8572.0000 0.0056338
8574.0000 0.0056441
8576.0000 0.0056441
8578.0000 0.0056441
8580.0000 0.0056441
8582.0000 0.0056441
8584.0000 0.0056441
8586.0000 0.0056441
8588.0000 0.0056441
8590.0000 0.0056441
8592.0000 0.0056441
8594.0000 0.0056546
8596.0000 0.0056546
8598.0000 0.0056546
8600.0000 0.0056546
8602.0000 0.0056546
8604.0000 0.0056441
8606.0000 0.0056441
8608.0000 0.0056338
8610.0000 0.0056286
8612.0000 0.0056286
8614.0000 0.0056182
8616.0000 0.0056182
8618.0000 0.0056079
8620.0000 0.0056079
8622.0000 0.0056079
8624.0000 0.0056079
8626.0000 0.0055976
8628.0000 0.0056079
8630.0000 0.0056079
8632.0000 0.0056079
8634.0000 0.0056079
8636.0000 0.0056079
8638.0000 0.0056079
8640.0000 0.0056182
8642.0000 0.0056286
8644.0000 0.0056441
8646.0000 0.0056546
8648.0000 0.0056807
8650.0000 0.0056911
8652.0000 0.0057069
8654.0000 0.005728
8656.0000 0.0057438
8658.0000 0.0057438
8660.0000 0.005728
8662.0000 0.0057174
8664.0000 0.0057069
8666.0000 0.0056807
8668.0000 0.0056546
8670.0000 0.0056286
8672.0000 0.0055976
8674.0000 0.0055718
8676.0000 0.0055565
8678.0000 0.0055361
8680.0000 0.0055106
8682.0000 0.0054954
8684.0000 0.0054954
8686.0000 0.0054853
8688.0000 0.0054752
8690.0000 0.0054651
8692.0000 0.0054601
8694.0000 0.00545
8696.0000 0.00544
8698.0000 0.00544
8700.0000 0.005425
8702.0000 0.005405
8704.0000 0.0053901
8706.0000 0.0053802
8708.0000 0.0053555
8710.0000 0.0053309
8712.0000 0.0053309
8714.0000 0.0053309
8716.0000 0.0053309
8718.0000 0.0053555
8720.0000 0.0053901
8722.0000 0.005425
8724.0000 0.0054601
8726.0000 0.0054853
8728.0000 0.0055106
8730.0000 0.0055361
8732.0000 0.0055361
8734.0000 0.0055463
8736.0000 0.0055565
8738.0000 0.0055565
8740.0000 0.0055565
8742.0000 0.0055718
8744.0000 0.0055718
8746.0000 0.0055718
8748.0000 0.0055565
8750.0000 0.0055565
8752.0000 0.0055463
8754.0000 0.0055361
8756.0000 0.0055361
8758.0000 0.0055208
8760.0000 0.0055106
8762.0000 0.0055106
8764.0000 0.0055005
8766.0000 0.0054954
8768.0000 0.0054954
8770.0000 0.0054853
8772.0000 0.0054752
8774.0000 0.0054601
8776.0000 0.00545
8778.0000 0.00544
8780.0000 0.005425
8782.0000 0.005405
8784.0000 0.0053901
8786.0000 0.0053901
8788.0000 0.0053901
8790.0000 0.0053901
8792.0000 0.005405
8794.0000 0.005415
8796.0000 0.00544
8798.0000 0.00545
8800.0000 0.0054651
8802.0000 0.0054853
8804.0000 0.0054853
8806.0000 0.0054853
8808.0000 0.0054853
8810.0000 0.0054853
8812.0000 0.0054752
8814.0000 0.0054651
8816.0000 0.0054601
8818.0000 0.0054601
8820.0000 0.00545
8822.0000 0.00545
8824.0000 0.00545
8826.0000 0.00544
8828.0000 0.00544
8830.0000 0.00544
8832.0000 0.005425
8834.0000 0.005425
8836.0000 0.005415
8838.0000 0.005415
8840.0000 0.005415
8842.0000 0.005415
8844.0000 0.005425
8846.0000 0.005425
8848.0000 0.00544
8850.0000 0.00544
8852.0000 0.00545
8854.0000 0.00545
8856.0000 0.00545
8858.0000 0.00544
8860.0000 0.005425
8862.0000 0.005415
8864.0000 0.005405
8866.0000 0.0053802
8868.0000 0.0053703
8870.0000 0.0053456
8872.0000 0.0053211
8874.0000 0.0053113
8876.0000 0.0052966
8878.0000 0.0052771
8880.0000 0.0052771
8882.0000 0.0052626
8884.0000 0.0052626
8886.0000 0.0052626
8888.0000 0.0052771
8890.0000 0.0052966
8892.0000 0.0053211
8894.0000 0.0053358
8896.0000 0.0053555
8898.0000 0.0053703
8900.0000 0.0053802
8902.0000 0.0053901
8904.0000 0.0053901
8906.0000 0.0053901
8908.0000 0.0053802
8910.0000 0.0053802
8912.0000 0.0053703
8914.0000 0.0053555
8916.0000 0.0053456
8918.0000 0.0053309
8920.0000 0.0053211
8922.0000 0.0053211
8924.0000 0.0053113
8926.0000 0.0052966
8928.0000 0.0052869
8930.0000 0.0052771
8932.0000 0.0052626
8934.0000 0.0052432
8936.0000 0.0052288
8938.0000 0.0052192
8940.0000 0.0052048
8942.0000 0.0051856
8944.0000 0.0051618
8946.0000 0.0051381
8948.0000 0.0051192
8950.0000 0.0050956
8952.0000 0.0050722
8954.0000 0.0050489
8956.0000 0.0050396
8958.0000 0.0050304
8960.0000 0.0050304
8962.0000 0.0050304
8964.0000 0.0050396
8966.0000 0.0050396
8968.0000 0.0050489
8970.0000 0.0050629
8972.0000 0.0050722
8974.0000 0.0050863
8976.0000 0.0050956
8978.0000 0.0051051
8980.0000 0.0051192
8982.0000 0.0051286
8984.0000 0.0051428
8986.0000 0.0051523
8988.0000 0.0051713
8990.0000 0.0051856
8992.0000 0.0052048
8994.0000 0.0052432
8996.0000 0.0052626
8998.0000 0.0052771
9000.0000 0.0052869
9002.0000 0.0052966
9004.0000 0.0053015
9006.0000 0.0053015
9008.0000 0.0053113
9010.0000 0.0053113
9012.0000 0.0053113
9014.0000 0.0053015
9016.0000 0.0052966
9018.0000 0.0052869
9020.0000 0.0052771
9022.0000 0.0052771
9024.0000 0.0052626
9026.0000 0.0052432
9028.0000 0.0052432
9030.0000 0.0052432
9032.0000 0.0052288
9034.0000 0.0052095
9036.0000 0.0051856
9038.0000 0.0051618
9040.0000 0.0051286
9042.0000 0.0050956
9044.0000 0.0050629
9046.0000 0.0050396
9048.0000 0.0050211
9050.0000 0.0050073
9052.0000 0.0049842
9054.0000 0.0049659
9056.0000 0.004934
9058.0000 0.0049204
9060.0000 0.0049023
9062.0000 0.0048888
9064.0000 0.0048798
9066.0000 0.0048708
9068.0000 0.0048663
9070.0000 0.0048663
9072.0000 0.0048798
9074.0000 0.0048798
9076.0000 0.0048888
9078.0000 0.0048888
9080.0000 0.0048978
9082.0000 0.0048978
9084.0000 0.0048978
9086.0000 0.0048978
9088.0000 0.0048978
9090.0000 0.0048978
9092.0000 0.0048978
9094.0000 0.0048978
9096.0000 0.0048978
9098.0000 0.0048978
9100.0000 0.0049113
9102.0000 0.0049113
9104.0000 0.0049204
9106.0000 0.0049204
9108.0000 0.0049204
9110.0000 0.0049204
9112.0000 0.0049204
9114.0000 0.0049113
9116.0000 0.0049023
9118.0000 0.0048978
9120.0000 0.0048798
9122.0000 0.0048663
9124.0000 0.0048574
9126.0000 0.0048484
9128.0000 0.004835
9130.0000 0.0048261
9132.0000 0.0048261
9134.0000 0.0048173
9136.0000 0.0048173
9138.0000 0.0048261
9140.0000 0.0048261
9142.0000 0.004835
9144.0000 0.0048261
9146.0000 0.0048173
9148.0000 0.0048173
9150.0000 0.0047951
9152.0000 0.0047863
9154.0000 0.0047643
9156.0000 0.0047643
9158.0000 0.0047643
9160.0000 0.0047731
9162.0000 0.0047731
9164.0000 0.0047731
9166.0000 0.0047731
9168.0000 0.0047643
9170.0000 0.0047512
9172.0000 0.0047424
9174.0000 0.0047512
9176.0000 0.0047512
9178.0000 0.0047643
9180.0000 0.0047863
9182.0000 0.0048173
9184.0000 0.0048484
9186.0000 0.0048574
9188.0000 0.0048798
9190.0000 0.0048978
9192.0000 0.0049023
9194.0000 0.0049023
9196.0000 0.0049113
9198.0000 0.0048978
9200.0000 0.0048978
