   5524.9570
   5558.7002
   5572.5400
   5606.7329
   5650.7002
   5681.8999
   5739.5195
   5772.1143
   5834.2603
   5860.3003
   5875.6201
   5888.5835
   5912.0898
   5928.8125
   5942.6602
   5987.2998
   6032.1001
   6043.2231
   6114.9233
   6145.4399
   6172.2700
   6215.9399
   6296.8711
   6307.6509
   6384.7100
   6416.3071
   6677.2798
   6752.8330
   6871.2891
   6965.4297
   7272.9365
   7281.3491
   7353.2930
   7372.1182
   7383.9805
   7503.8696
   7514.6519
   7635.1060
   7723.7520
   7891.0752
   7948.1763
   8006.1567
   8014.7866
   8103.6904
   8115.3101
   8264.5225
   8408.2100
   8424.6475
