  5495.8740  
  5506.1138  
  5524.9570  
  5558.6997  
  5572.5400  
  5606.7329  
  5650.7002  
  5681.8994  
  5739.5190  
  5772.1138  
  5834.2603  
  5860.2998  
  5875.6216  
  5888.5850  
  5912.0859  
  5928.8135  
  5942.6592  
  5987.3003  
  6032.1006  
  6043.2231  
  6059.3701  
  6114.9224  
  6145.4404  
  6155.2383  
  6172.2705  
  6212.5029  
  6215.9399  
  6296.8721  
  6307.6499  
  6384.7100  
  6416.3071  
